Record Length,1.024000e+03,,          0.00000,  48.23090,
Sample Interval,4.932134e-01,,          0.49321,  50.63090,
Trigger Point,0.000000000000e+00,,          0.98643,  44.23090,
,,,          1.47964, -15.36910,
,,,          1.97285,  -7.36910,
,,,          2.46607,  -6.96910,
Source,MATH,,          2.95928,  -4.96910,
Vertical Units,dB,,          3.45249,  -8.96910,
Vertical Scale,1.000000e+01,,          3.94571,  -7.36910,
Vertical Offset,0.000000e+00,,          4.43892,  -7.36910,
Horizontal Units,Hz,,          4.93213,   5.83090,
Horizontal Scale,5.050505e+01,,          5.42535,   8.23090,
Pt Fmt,Y,,          5.91856,   9.03090,
Yzero,1.903090e+01,,          6.41177,   7.43090,
Probe Atten,1.000000e+00,,          6.90499,  -3.36910,
Firmware Version,FV:v10.20,,          7.39820,  -5.76910,
,,,7.89141,  -4.16910,
,,,8.38462, -10.16910,
,,,8.87783, -11.76910,
,,,9.37104, -12.56910,
,,,9.86425, -10.16910,
,,,10.35746, -15.36910,
,,,10.85067,  -6.16910,
,,,11.34388,  -3.36910,
,,,11.83709,  -4.16910,
,,,12.33030, -12.56910,
,,,12.82351,  -8.96910,
,,,13.31672, -10.16910,
,,,13.80993,   1.03090,
,,,14.30314,   7.83090,
,,,14.79635,   7.43090,
,,,15.28956,   4.63090,
,,,15.78277,  -7.36910,
,,,16.27598,  -3.36910,
,,,16.76919, -14.56910,
,,,17.26240, -14.56910,
,,,17.75561, -14.56910,
,,,18.24882, -20.96910,
,,,18.74203, -14.56910,
,,,19.23524, -11.36910,
,,,19.72845,  -8.96910,
,,,20.22166, -18.56910,
,,,20.71487, -20.96910,
,,,21.20808, -14.56910,
,,,21.70129,  -9.36910,
,,,22.19450,  -4.56910,
,,,22.68771, -11.36910,
,,,23.18092,   1.03090,
,,,23.67413,   8.63090,
,,,24.16734,  27.83090,
,,,24.66055,  31.43090,
,,,25.15376,  31.83090,
,,,25.64697,  30.23090,
,,,26.14018,  19.43090,
,,,26.63339,   3.83090,
,,,27.12660,  -4.16910,
,,,27.61981,  -0.56910,
,,,28.11302,  -6.96910,
,,,28.60623,  -5.36910,
,,,29.09944,  -6.56910,
,,,29.59265,  -6.96910,
,,,30.08586,  -6.56910,
,,,30.57907,  -9.36910,
,,,31.07228,  -2.96910,
,,,31.56549,  -4.16910,
,,,32.05870,  -4.16910,
,,,32.55191,  -2.56910,
,,,33.04512,  -0.96910,
,,,33.53833,   2.63090,
,,,34.03154,   2.23090,
,,,34.52475,   1.03090,
,,,35.01796,  -3.76910,
,,,35.51117,  -8.56910,
,,,36.00438,  -1.36910,
,,,36.49759,  -0.16910,
,,,36.99080,  -1.36910,
,,,37.48401, -11.36910,
,,,37.97722,  -5.76910,
,,,38.47043,  -5.76910,
,,,38.96364, -11.76910,
,,,39.45685, -20.96910,
,,,39.95006, -15.36910,
,,,40.44327,  -8.96910,
,,,40.93648, -20.96910,
,,,41.42969,  -3.76910,
,,,41.92290,  -1.36910,
,,,42.41611,  -6.16910,
,,,42.90932, -10.16910,
,,,43.40253,  -5.76910,
,,,43.89574, -15.36910,
,,,44.38895,  -4.96910,
,,,44.88216,  -1.76910,
,,,45.37537,  -2.56910,
,,,45.86858,  -5.76910,
,,,46.36179,  -4.16910,
,,,46.85500,  -8.56910,
,,,47.34821,  -8.96910,
,,,47.84142,  -5.76910,
,,,48.33463,  -8.56910,
,,,48.82784, -14.56910,
,,,49.32105,  -3.76910,
,,,49.81426,  -6.16910,
,,,50.30747, -12.56910,
,,,50.80068, -20.96910,
,,,51.29389, -20.96910,
,,,51.78710, -10.16910,
,,,52.28031,  -8.56910,
,,,52.77352, -11.76910,
,,,53.26673, -15.36910,
,,,53.75994,  -1.76910,
,,,54.25315,   2.63090,
,,,54.74636,   9.83090,
,,,55.23957,  13.83090,
,,,55.73278,  13.03090,
,,,56.22599,  11.43090,
,,,56.71920,   4.23090,
,,,57.21241,  -4.56910,
,,,57.70562,  -5.36910,
,,,58.19883,  -4.16910,
,,,58.69204,  -3.36910,
,,,59.18525,  -5.36910,
,,,59.67846,  -4.16910,
,,,60.17167, -14.56910,
,,,60.66488,  -3.36910,
,,,61.15809,  -0.16910,
,,,61.65130,  -0.16910,
,,,62.14451,  -2.16910,
,,,62.63772, -14.56910,
,,,63.13093,  -4.16910,
,,,63.62414,   5.83090,
,,,64.11735,  17.43090,
,,,64.61056,  19.43090,
,,,65.10377,  19.83090,
,,,65.59698,  16.23090,
,,,66.09019,   5.03090,
,,,66.58340,   5.43090,
,,,67.07661,   6.23090,
,,,67.56982,   5.83090,
,,,68.06303,  -0.56910,
,,,68.55624, -11.76910,
,,,69.04945, -10.16910,
,,,69.54266,  -7.36910,
,,,70.03587, -14.56910,
,,,70.52908, -15.36910,
,,,71.02229, -20.96910,
,,,71.51550, -11.36910,
,,,72.00871,  -1.36910,
,,,72.50192,   1.43090,
,,,72.99513,   2.23090,
,,,73.48834,   1.03090,
,,,73.98155,  -7.36910,
,,,74.47476,  -8.56910,
,,,74.96797,  -7.36910,
,,,75.46118,  -4.16910,
,,,75.95439,  -5.76910,
,,,76.44760,  -3.36910,
,,,76.94081,  -1.76910,
,,,77.43402,  -8.96910,
,,,77.92723, -12.56910,
,,,78.42044, -14.56910,
,,,78.91365, -18.56910,
,,,79.40686, -11.76910,
,,,79.90007,  -8.96910,
,,,80.39328,  -8.96910,
,,,80.88649,  -7.36910,
,,,81.37970,  -7.36910,
,,,81.87291,  -7.36910,
,,,82.36612,  -7.36910,
,,,82.85933,  -8.96910,
,,,83.35254, -11.36910,
,,,83.84575, -11.36910,
,,,84.33896, -10.16910,
,,,84.83217, -14.56910,
,,,85.32538,  -2.96910,
,,,85.81859,   3.43090,
,,,86.31180,   3.83090,
,,,86.80501,   3.03090,
,,,87.29822,  -1.76910,
,,,87.79143, -10.16910,
,,,88.28464,  -6.56910,
,,,88.77785,  -6.96910,
,,,89.27106,  -6.96910,
,,,89.76427,  -9.36910,
,,,90.25748,  -6.96910,
,,,90.75069,  -4.96910,
,,,91.24390,  -0.96910,
,,,91.73711,   0.63090,
,,,92.23032,   1.03090,
,,,92.72353,   0.23090,
,,,93.21674, -10.16910,
,,,93.70995,  -6.56910,
,,,94.20316,  -7.36910,
,,,94.69637,  -4.16910,
,,,95.18958,  -6.96910,
,,,95.68279,  -8.96910,
,,,96.17600,  -8.56910,
,,,96.66921,  -9.36910,
,,,97.16242,  -4.16910,
,,,97.65563,  -0.56910,
,,,98.14884,  -1.36910,
,,,98.64205,  -8.56910,
,,,99.13526,  -7.36910,
,,,99.62847,  -4.16910,
,,,100.12168,  -4.56910,
,,,100.61489,  -7.36910,
,,,101.10810, -10.16910,
,,,101.60131, -18.56910,
,,,102.09452, -18.56910,
,,,102.58773,   1.43090,
,,,103.08094,   5.03090,
,,,103.57415,  -0.56910,
,,,104.06736,   4.63090,
,,,104.56057,   9.03090,
,,,105.05378,   9.43090,
,,,105.54699,   3.03090,
,,,106.04020,  -6.96910,
,,,106.53341,  -3.76910,
,,,107.02662,  -5.36910,
,,,107.51983, -11.36910,
,,,108.01304, -20.96910,
,,,108.50625,  -9.36910,
,,,108.99946,  -6.96910,
,,,109.49267,  -7.36910,
,,,109.98588,  -8.96910,
,,,110.47909, -18.56910,
,,,110.97230, -10.16910,
,,,111.46551,  -8.56910,
,,,111.95872, -11.36910,
,,,112.45193, -11.76910,
,,,112.94514,  -3.36910,
,,,113.43835,  -1.36910,
,,,113.93156,  -2.56910,
,,,114.42477,  -3.76910,
,,,114.91798,  -2.56910,
,,,115.41119,   1.43090,
,,,115.90440,   3.83090,
,,,116.39761,   6.23090,
,,,116.89082,   4.63090,
,,,117.38403,   2.23090,
,,,117.87724,  -1.36910,
,,,118.37045, -14.56910,
,,,118.86366, -20.96910,
,,,119.35687, -15.36910,
,,,119.85008,  -5.76910,
,,,120.34329,  -5.76910,
,,,120.83650,  -4.16910,
,,,121.32971,  -6.16910,
,,,121.82292,  -0.56910,
,,,122.31613,   4.23090,
,,,122.80934,   3.43090,
,,,123.30255,   3.03090,
,,,123.79576,  -2.96910,
,,,124.28897,  -8.96910,
,,,124.78218,  -5.76910,
,,,125.27539,  -1.36910,
,,,125.76860,   1.43090,
,,,126.26181,   0.23090,
,,,126.75502,  -2.56910,
,,,127.24823, -20.96910,
,,,127.74144,  -2.96910,
,,,128.23465,  -1.76910,
,,,128.72786,  -2.96910,
,,,129.22107,  -6.96910,
,,,129.71428, -12.56910,
,,,130.20749, -14.56910,
,,,130.70070, -15.36910,
,,,131.19391, -15.36910,
,,,131.68712, -11.76910,
,,,132.18033, -18.56910,
,,,132.67354, -18.56910,
,,,133.16675,   2.63090,
,,,133.65996,   7.43090,
,,,134.15317,   7.03090,
,,,134.64638,   6.23090,
,,,135.13959,  -3.76910,
,,,135.63280, -18.56910,
,,,136.12601, -14.56910,
,,,136.61922, -18.56910,
,,,137.11243, -18.56910,
,,,137.60564, -20.96910,
,,,138.09885, -11.36910,
,,,138.59206, -11.36910,
,,,139.08527, -18.56910,
,,,139.57848,  -8.96910,
,,,140.07169,  -7.36910,
,,,140.56490, -10.16910,
,,,141.05811, -15.36910,
,,,141.55132, -14.56910,
,,,142.04453, -15.36910,
,,,142.53774, -14.56910,
,,,143.03095, -14.56910,
,,,143.52416,   1.43090,
,,,144.01737,   4.63090,
,,,144.51058,   4.23090,
,,,145.00379,   1.83090,
,,,145.49700, -11.36910,
,,,145.99021,  -8.96910,
,,,146.48342,  -4.56910,
,,,146.97663,  -0.56910,
,,,147.46984,  -1.36910,
,,,147.96305,  -5.76910,
,,,148.45626,  -9.36910,
,,,148.94947, -18.56910,
,,,149.44268, -14.56910,
,,,149.93589, -11.76910,
,,,150.42910, -11.36910,
,,,150.92231,  -8.56910,
,,,151.41552,  -2.96910,
,,,151.90873,   0.23090,
,,,152.40194,   3.03090,
,,,152.89515,   5.03090,
,,,153.38836,   3.43090,
,,,153.88157,   3.03090,
,,,154.37478,  -5.36910,
,,,154.86799,  -0.56910,
,,,155.36120,   3.43090,
,,,155.85441,   5.83090,
,,,156.34762,   5.43090,
,,,156.84083,   0.23090,
,,,157.33404,  -3.36910,
,,,157.82725,  -5.36910,
,,,158.32046,  -3.76910,
,,,158.81367,  -2.16910,
,,,159.30688,  -4.16910,
,,,159.80009,  -8.56910,
,,,160.29330, -11.76910,
,,,160.78651,  -7.36910,
,,,161.27972,  -8.56910,
,,,161.77293,  -6.96910,
,,,162.26614,  -7.36910,
,,,162.75935, -14.56910,
,,,163.25256, -12.56910,
,,,163.74577,  13.43090,
,,,164.23898,  20.63090,
,,,164.73219,  21.83090,
,,,165.22540,  21.83090,
,,,165.71861,  17.03090,
,,,166.21182,   4.63090,
,,,166.70503,  -0.56910,
,,,167.19824,  -8.56910,
,,,167.69145,  -1.76910,
,,,168.18466,  -2.96910,
,,,168.67787,  -8.56910,
,,,169.17108, -20.96910,
,,,169.66429, -10.16910,
,,,170.15750,  -2.96910,
,,,170.65071,   1.03090,
,,,171.14392,   0.23090,
,,,171.63713,  -6.16910,
,,,172.13034, -11.36910,
,,,172.62355, -20.96910,
,,,173.11676,  -5.76910,
,,,173.60997,  -1.36910,
,,,174.10318,  -1.36910,
,,,174.59639,  -3.36910,
,,,175.08960, -10.16910,
,,,175.58281, -10.16910,
,,,176.07602,  -7.36910,
,,,176.56923,  -7.36910,
,,,177.06244,  -9.36910,
,,,177.55565, -10.16910,
,,,178.04886,  -7.36910,
,,,178.54207, -10.16910,
,,,179.03528, -14.56910,
,,,179.52849, -20.96910,
,,,180.02170, -20.96910,
,,,180.51491, -18.56910,
,,,181.00812, -10.16910,
,,,181.50133,  -6.96910,
,,,181.99454,  -5.36910,
,,,182.48775,  -2.96910,
,,,182.98096,  -2.16910,
,,,183.47417,   2.23090,
,,,183.96738,   2.23090,
,,,184.46059,   1.03090,
,,,184.95380,  -2.16910,
,,,185.44701,   0.23090,
,,,185.94022,   5.43090,
,,,186.43343,   4.23090,
,,,186.92664,   3.03090,
,,,187.41985,  -6.16910,
,,,187.91306,  -4.56910,
,,,188.40627, -11.36910,
,,,188.89948, -10.16910,
,,,189.39269,  -4.56910,
,,,189.88590,  -4.56910,
,,,190.37911,  -4.16910,
,,,190.87232,  -5.36910,
,,,191.36553,  -2.96910,
,,,191.85874,  -3.36910,
,,,192.35195,  -0.96910,
,,,192.84516,  -0.16910,
,,,193.33837,  -1.76910,
,,,193.83158,  -2.96910,
,,,194.32479,   1.03090,
,,,194.81800,  11.03090,
,,,195.31121,  13.03090,
,,,195.80442,  13.43090,
,,,196.29763,   9.83090,
,,,196.79084,  -0.16910,
,,,197.28405,  -5.76910,
,,,197.77726, -20.96910,
,,,198.27047, -18.56910,
,,,198.76368,  -6.96910,
,,,199.25689,  -4.56910,
,,,199.75010,  -5.36910,
,,,200.24331, -11.36910,
,,,200.73652, -15.36910,
,,,201.22973, -10.16910,
,,,201.72294, -12.56910,
,,,202.21615, -14.56910,
,,,202.70936, -15.36910,
,,,203.20257, -10.16910,
,,,203.69578,   2.63090,
,,,204.18899,   5.03090,
,,,204.68220,   4.63090,
,,,205.17541,   3.03090,
,,,205.66862,  -6.56910,
,,,206.16183, -20.96910,
,,,206.65504, -15.36910,
,,,207.14825,  -7.36910,
,,,207.64146,  -8.56910,
,,,208.13467,  -8.56910,
,,,208.62788,  -7.36910,
,,,209.12109,  -7.36910,
,,,209.61430, -12.56910,
,,,210.10751, -15.36910,
,,,210.60072,  -6.16910,
,,,211.09393,  -2.56910,
,,,211.58714,  -1.36910,
,,,212.08035,  -4.56910,
,,,212.57356, -18.56910,
,,,213.06677, -10.16910,
,,,213.55998,   0.23090,
,,,214.05319,  13.03090,
,,,214.54640,  15.03090,
,,,215.03961,  15.03090,
,,,215.53282,  11.83090,
,,,216.02603,  -7.36910,
,,,216.51924,   1.03090,
,,,217.01245,   0.23090,
,,,217.50566,  -1.36910,
,,,217.99887, -15.36910,
,,,218.49208, -11.36910,
,,,218.98529, -10.16910,
,,,219.47850, -20.96910,
,,,219.97171,  -6.16910,
,,,220.46492,  -3.36910,
,,,220.95813,  -2.56910,
,,,221.45134, -11.76910,
,,,221.94455, -12.56910,
,,,222.43776, -12.56910,
,,,222.93097, -15.36910,
,,,223.42418, -12.56910,
,,,223.91739, -18.56910,
,,,224.41060, -11.36910,
,,,224.90381,  -4.16910,
,,,225.39702,   8.63090,
,,,225.89023,  10.23090,
,,,226.38344,   9.83090,
,,,226.87665,   7.03090,
,,,227.36986,  -7.36910,
,,,227.86307, -12.56910,
,,,228.35628, -10.16910,
,,,228.84949,  -6.16910,
,,,229.34270,  -8.56910,
,,,229.83591, -15.36910,
,,,230.32912, -20.96910,
,,,230.82233,  -4.96910,
,,,231.31554,   1.43090,
,,,231.80875,   2.63090,
,,,232.30196,   1.03090,
,,,232.79517,  -6.56910,
,,,233.28838, -18.56910,
,,,233.78159,  -8.96910,
,,,234.27480,  -7.36910,
,,,234.76801,  -7.36910,
,,,235.26122, -11.36910,
,,,235.75443, -20.96910,
,,,236.24764, -12.56910,
,,,236.74085,  -8.96910,
,,,237.23406,  -5.76910,
,,,237.72727, -10.16910,
,,,238.22048, -20.96910,
,,,238.71369, -20.96910,
,,,239.20690, -11.76910,
,,,239.70011,  -5.76910,
,,,240.19332,  -8.96910,
,,,240.68653, -20.96910,
,,,241.17974, -20.96910,
,,,241.67295,  -9.36910,
,,,242.16616,  -2.96910,
,,,242.65937,  -1.76910,
,,,243.15258,  -3.76910,
,,,243.64579,  -3.36910,
,,,244.13900,   4.63090,
,,,244.63221,  15.43090,
,,,245.12542,  18.23090,
,,,245.61863,  17.83090,
,,,246.11184,  15.43090,
,,,246.60505,   3.03090,
,,,247.09826,  -8.96910,
,,,247.59147, -15.36910,
,,,248.08468,  -7.36910,
,,,248.57789,  -5.36910,
,,,249.07110,  -5.36910,
,,,249.56431,  -8.56910,
,,,250.05752,  -6.96910,
,,,250.55073,  -0.96910,
,,,251.04394,   0.23090,
,,,251.53715,   0.23090,
,,,252.03036,  -3.36910,
,,,252.52357,  -5.76910,
,,,253.01678,  -4.96910,
,,,253.50999,   0.23090,
,,,254.00320,   3.43090,
,,,254.49641,   1.83090,
,,,254.98962,   1.03090,
,,,255.48283,  -8.96910,
,,,255.97604,   1.03090,
,,,256.46925,   4.63090,
,,,256.96246,   5.03090,
,,,257.45567,   3.83090,
,,,257.94888,  -2.56910,
,,,258.44209,  -7.36910,
,,,258.93530, -12.56910,
,,,259.42851, -11.76910,
,,,259.92172,  -8.56910,
,,,260.41493,  -5.36910,
,,,260.90814,  -5.36910,
,,,261.40135, -15.36910,
,,,261.89456,  -5.36910,
,,,262.38777,  -5.36910,
,,,262.88098, -10.16910,
,,,263.37419,  -7.36910,
,,,263.86740,  -6.16910,
,,,264.36061,  -8.56910,
,,,264.85382,  -3.36910,
,,,265.34703,   4.63090,
,,,265.84024,   5.03090,
,,,266.33345,   2.63090,
,,,266.82666, -12.56910,
,,,267.31987,  -3.76910,
,,,267.81308,  -7.36910,
,,,268.30629, -15.36910,
,,,268.79950, -14.56910,
,,,269.29271,  -8.96910,
,,,269.78592,  -6.16910,
,,,270.27913,  -7.36910,
,,,270.77234,  -6.16910,
,,,271.26555,  -7.36910,
,,,271.75876,  -7.36910,
,,,272.25197,  -4.96910,
,,,272.74518,  -5.76910,
,,,273.23839,  -5.76910,
,,,273.73160, -11.36910,
,,,274.22481, -20.96910,
,,,274.71802,  -8.96910,
,,,275.21123,   7.03090,
,,,275.70444,  11.03090,
,,,276.19765,  11.03090,
,,,276.69086,  10.23090,
,,,277.18407,   2.23090,
,,,277.67728, -14.56910,
,,,278.17049, -18.56910,
,,,278.66370, -14.56910,
,,,279.15691, -10.16910,
,,,279.65012, -14.56910,
,,,280.14333, -15.36910,
,,,280.63654, -12.56910,
,,,281.12975,  -0.16910,
,,,281.62296,  -0.56910,
,,,282.11617,  -0.96910,
,,,282.60938,  -6.96910,
,,,283.10259,  -3.76910,
,,,283.59580,   1.03090,
,,,284.08901,   2.23090,
,,,284.58222,   2.63090,
,,,285.07543,  -0.56910,
,,,285.56864,  -5.76910,
,,,286.06185, -11.36910,
,,,286.55506,  -0.56910,
,,,287.04827,   3.83090,
,,,287.54148,   2.63090,
,,,288.03469,   2.23090,
,,,288.52790,  -5.76910,
,,,289.02111, -20.96910,
,,,289.51432, -20.96910,
,,,290.00753,  -8.96910,
,,,290.50074,  -5.36910,
,,,290.99395,  -8.56910,
,,,291.48716, -14.56910,
,,,291.98037,  -8.96910,
,,,292.47358,   0.23090,
,,,292.96679,   4.63090,
,,,293.46000,   8.63090,
,,,293.95321,   9.03090,
,,,294.44642,   6.63090,
,,,294.93963,   4.63090,
,,,295.43284,  -2.96910,
,,,295.92605,  -4.16910,
,,,296.41926,  -4.56910,
,,,296.91247,  -1.36910,
,,,297.40568,  -4.56910,
,,,297.89889,  -8.96910,
,,,298.39210, -11.36910,
,,,298.88531, -14.56910,
,,,299.37852, -12.56910,
,,,299.87173, -14.56910,
,,,300.36494, -11.36910,
,,,300.85815, -15.36910,
,,,301.35136, -14.56910,
,,,301.84457,  -6.56910,
,,,302.33778,  -0.56910,
,,,302.83099,   1.83090,
,,,303.32420,  -0.96910,
,,,303.81741,  -3.36910,
,,,304.31062,  -4.96910,
,,,304.80383,   4.23090,
,,,305.29704,   7.43090,
,,,305.79025,  10.23090,
,,,306.28346,  11.43090,
,,,306.77667,   7.83090,
,,,307.26988,   3.83090,
,,,307.76309,  -4.56910,
,,,308.25630, -20.96910,
,,,308.74951, -18.56910,
,,,309.24272, -11.36910,
,,,309.73593,  -9.36910,
,,,310.22914, -11.36910,
,,,310.72235, -15.36910,
,,,311.21556,  -8.96910,
,,,311.70877,   1.43090,
,,,312.20198,   3.03090,
,,,312.69519,   1.83090,
,,,313.18840,  -1.76910,
,,,313.68161,  -8.96910,
,,,314.17482,  -8.56910,
,,,314.66803, -14.56910,
,,,315.16124,   1.83090,
,,,315.65445,   5.43090,
,,,316.14766,   5.43090,
,,,316.64087,   2.63090,
,,,317.13408,  -4.56910,
,,,317.62729,  -3.76910,
,,,318.12050,  -2.16910,
,,,318.61371,  -2.96910,
,,,319.10692,  -6.96910,
,,,319.60013,  -8.96910,
,,,320.09334, -10.16910,
,,,320.58655, -15.36910,
,,,321.07976,  -5.36910,
,,,321.57297,  -2.96910,
,,,322.06618,  -4.56910,
,,,322.55939,  -8.96910,
,,,323.05260,  -7.36910,
,,,323.54581,  -0.96910,
,,,324.03902,   0.23090,
,,,324.53223,   0.23090,
,,,325.02544,  -4.96910,
,,,325.51865, -10.16910,
,,,326.01186, -11.36910,
,,,326.50507,  -5.36910,
,,,326.99828,  -7.36910,
,,,327.49149, -11.36910,
,,,327.98470, -11.36910,
,,,328.47791,  -8.96910,
,,,328.97112, -20.96910,
,,,329.46433,  -6.96910,
,,,329.95754,  -4.16910,
,,,330.45075,  -5.36910,
,,,330.94396,  -7.36910,
,,,331.43717,  -8.96910,
,,,331.93038,  -8.96910,
,,,332.42359,  -3.36910,
,,,332.91680,  -3.36910,
,,,333.41001, -10.16910,
,,,333.90322,  -8.96910,
,,,334.39643,  -6.56910,
,,,334.88964, -12.56910,
,,,335.38285, -15.36910,
,,,335.87606, -20.96910,
,,,336.36927,  -8.96910,
,,,336.86248,  -0.16910,
,,,337.35569,  -0.16910,
,,,337.84890,  -1.36910,
,,,338.34211,  -6.96910,
,,,338.83532,  -4.56910,
,,,339.32853,  -6.16910,
,,,339.82174, -10.16910,
,,,340.31495,  -8.96910,
,,,340.80816, -11.76910,
,,,341.30137, -14.56910,
,,,341.79458, -10.16910,
,,,342.28779,  -2.16910,
,,,342.78100,   1.03090,
,,,343.27421,   1.83090,
,,,343.76742,   1.03090,
,,,344.26063,  -5.76910,
,,,344.75384, -20.96910,
,,,345.24705, -20.96910,
,,,345.74026,  -8.96910,
,,,346.23347,  -5.36910,
,,,346.72668,  -3.36910,
,,,347.21989,  -5.76910,
,,,347.71310,  -8.96910,
,,,348.20631,  -5.76910,
,,,348.69952,  -3.36910,
,,,349.19273,  -1.36910,
,,,349.68594,  -2.56910,
,,,350.17915,  -8.56910,
,,,350.67236,  -5.36910,
,,,351.16557,  -6.56910,
,,,351.65878,  -6.96910,
,,,352.15199,  -7.36910,
,,,352.64520, -11.36910,
,,,353.13841,  -6.56910,
,,,353.63162,  10.63090,
,,,354.12483,  14.63090,
,,,354.61804,  12.63090,
,,,355.11125,   7.43090,
,,,355.60446,   5.03090,
,,,356.09767,   9.83090,
,,,356.59088,   2.63090,
,,,357.08409,  -9.36910,
,,,357.57730, -11.76910,
,,,358.07051, -14.56910,
,,,358.56372, -20.96910,
,,,359.05693, -12.56910,
,,,359.55014, -11.36910,
,,,360.04335, -11.76910,
,,,360.53656,  -8.96910,
,,,361.02977,  -6.96910,
,,,361.52298,  -6.96910,
,,,362.01619,  -5.76910,
,,,362.50940,  -7.36910,
,,,363.00261,   3.03090,
,,,363.49582,   4.63090,
,,,363.98903,   4.63090,
,,,364.48224,  -0.56910,
,,,364.97545, -14.56910,
,,,365.46866, -14.56910,
,,,365.96187, -14.56910,
,,,366.45508, -14.56910,
,,,366.94829, -14.56910,
,,,367.44150,  -5.36910,
,,,367.93471,  -2.96910,
,,,368.42792,  -3.36910,
,,,368.92113, -10.16910,
,,,369.41434, -18.56910,
,,,369.90755,  -9.36910,
,,,370.40076,  -8.96910,
,,,370.89397,  -5.36910,
,,,371.38718,  -6.56910,
,,,371.88039, -20.96910,
,,,372.37360, -20.96910,
,,,372.86681,  -2.16910,
,,,373.36002,   4.23090,
,,,373.85323,   4.63090,
,,,374.34644,   4.23090,
,,,374.83965,  -4.96910,
,,,375.33286,  -0.56910,
,,,375.82607,   2.23090,
,,,376.31928,   3.83090,
,,,376.81249,   2.63090,
,,,377.30570,  -4.16910,
,,,377.79891, -10.16910,
,,,378.29212, -10.16910,
,,,378.78533,  -6.16910,
,,,379.27854,  -4.96910,
,,,379.77175,  -5.36910,
,,,380.26496,  -7.36910,
,,,380.75817,  -9.36910,
,,,381.25138,  -8.96910,
,,,381.74459, -11.36910,
,,,382.23780, -11.36910,
,,,382.73101,  -6.16910,
,,,383.22422,  -5.36910,
,,,383.71743,  -6.96910,
,,,384.21064,  12.63090,
,,,384.70385,  19.03090,
,,,385.19706,  19.43090,
,,,385.69027,  18.63090,
,,,386.18348,  11.43090,
,,,386.67669,  -6.96910,
,,,387.16990, -11.76910,
,,,387.66311,  -4.16910,
,,,388.15632,  -1.36910,
,,,388.64953,  -3.76910,
,,,389.14274,  -6.96910,
,,,389.63595, -18.56910,
,,,390.12916,  -6.96910,
,,,390.62237,  -0.96910,
,,,391.11558,  -4.56910,
,,,391.60879, -18.56910,
,,,392.10200,  -8.96910,
,,,392.59521,  -8.96910,
,,,393.08842, -12.56910,
,,,393.58163,  -8.96910,
,,,394.07484,   1.43090,
,,,394.56805,  13.43090,
,,,395.06126,  16.63090,
,,,395.55447,  16.63090,
,,,396.04768,  15.43090,
,,,396.54089,   5.83090,
,,,397.03410,  -3.76910,
,,,397.52731,  -2.96910,
,,,398.02052,  -8.56910,
,,,398.51373, -11.76910,
,,,399.00694,  -2.96910,
,,,399.50015,  -4.56910,
,,,399.99336,  -5.36910,
,,,400.48657,  -6.16910,
,,,400.97978,  -8.96910,
,,,401.47299,  -8.96910,
,,,401.96620, -12.56910,
,,,402.45941, -10.16910,
,,,402.95262,  -4.16910,
,,,403.44583,  -0.96910,
,,,403.93904,   8.63090,
,,,404.43225,  10.23090,
,,,404.92546,  10.23090,
,,,405.41867,   4.63090,
,,,405.91188,  -8.96910,
,,,406.40509,  -2.16910,
,,,406.89830,  -3.36910,
,,,407.39151,  -7.36910,
,,,407.88472, -18.56910,
,,,408.37793, -11.36910,
,,,408.87114, -20.96910,
,,,409.36435,  -5.36910,
,,,409.85756,  -1.76910,
,,,410.35077,  -0.56910,
,,,410.84398,  -0.96910,
,,,411.33719,  -8.96910,
,,,411.83040,  -7.36910,
,,,412.32361,  -7.36910,
,,,412.81682,  -7.36910,
,,,413.31003,  -6.56910,
,,,413.80324,  -6.96910,
,,,414.29645,  -7.36910,
,,,414.78966,  -1.76910,
,,,415.28287,   7.43090,
,,,415.77608,   8.63090,
,,,416.26929,   9.83090,
,,,416.76250,   6.23090,
,,,417.25571,  -0.96910,
,,,417.74892,  -6.16910,
,,,418.24213, -18.56910,
,,,418.73534, -18.56910,
,,,419.22855, -14.56910,
,,,419.72176, -20.96910,
,,,420.21497, -12.56910,
,,,420.70818,  -8.56910,
,,,421.20139,  -8.56910,
,,,421.69460, -10.16910,
,,,422.18781, -14.56910,
,,,422.68102,  -6.96910,
,,,423.17423,  -6.16910,
,,,423.66744, -11.36910,
,,,424.16065, -14.56910,
,,,424.65386, -10.16910,
,,,425.14707, -20.96910,
,,,425.64028,  -2.56910,
,,,426.13349,  -1.76910,
,,,426.62670,  -4.96910,
,,,427.11991, -14.56910,
,,,427.61312, -11.36910,
,,,428.10633, -14.56910,
,,,428.59954,  -2.96910,
,,,429.09275,  -1.76910,
,,,429.58596,  -3.76910,
,,,430.07917,  -4.56910,
,,,430.57238,  -5.36910,
,,,431.06559,  -7.36910,
,,,431.55880,  -6.96910,
,,,432.05201,  -8.56910,
,,,432.54522, -14.56910,
,,,433.03843,  -2.16910,
,,,433.53164,  -5.36910,
,,,434.02485,  17.83090,
,,,434.51806,  27.43090,
,,,435.01127,  28.63090,
,,,435.50448,  28.63090,
,,,435.99769,  25.03090,
,,,436.49090,   7.83090,
,,,436.98411,  -8.56910,
,,,437.47732,  -6.16910,
,,,437.97053, -10.16910,
,,,438.46374,  -6.56910,
,,,438.95695,  -6.16910,
,,,439.45016,  -7.36910,
,,,439.94337,  -5.76910,
,,,440.43658,  -0.96910,
,,,440.92979,  -0.96910,
,,,441.42300,  -2.96910,
,,,441.91621, -14.56910,
,,,442.40942,  -7.36910,
,,,442.90263, -10.16910,
,,,443.39584,  -6.96910,
,,,443.88905,   1.03090,
,,,444.38226,   2.63090,
,,,444.87547,   2.23090,
,,,445.36868,  -5.36910,
,,,445.86189,  -6.96910,
,,,446.35510,  -5.36910,
,,,446.84831,  -3.36910,
,,,447.34152,  -5.76910,
,,,447.83473, -15.36910,
,,,448.32794,  -8.96910,
,,,448.82115,  -8.56910,
,,,449.31436,  -7.36910,
,,,449.80757, -12.56910,
,,,450.30078, -12.56910,
,,,450.79399, -14.56910,
,,,451.28720,  -7.36910,
,,,451.78041,  -1.76910,
,,,452.27362,  -4.16910,
,,,452.76683, -20.96910,
,,,453.26004,  -5.36910,
,,,453.75325,  -1.76910,
,,,454.24646,  -4.56910,
,,,454.73967, -11.76910,
,,,455.23288, -11.36910,
,,,455.72609,  -5.76910,
,,,456.21930,  -5.76910,
,,,456.71251,  -6.16910,
,,,457.20572,  -5.36910,
,,,457.69893, -12.56910,
,,,458.19214, -18.56910,
,,,458.68535, -11.36910,
,,,459.17856, -15.36910,
,,,459.67177,  -4.56910,
,,,460.16498,  -3.36910,
,,,460.65819,  -5.36910,
,,,461.15140,  -6.96910,
,,,461.64461,  -6.96910,
,,,462.13782, -11.76910,
,,,462.63103,  -8.96910,
,,,463.12424, -14.56910,
,,,463.61745, -12.56910,
,,,464.11066, -11.76910,
,,,464.60387,  -3.76910,
,,,465.09708,   8.63090,
,,,465.59029,  11.03090,
,,,466.08350,  10.23090,
,,,466.57671,   7.43090,
,,,467.06992,  -8.96910,
,,,467.56313,  -6.56910,
,,,468.05634,  -5.76910,
,,,468.54955,  -8.96910,
,,,469.04276, -20.96910,
,,,469.53597, -11.36910,
,,,470.02918,  -9.36910,
,,,470.52239,  -7.36910,
,,,471.01560,  -1.36910,
,,,471.50881,  -1.76910,
,,,472.00202,  -0.56910,
,,,472.49523,  -5.36910,
,,,472.98844,  -8.96910,
,,,473.48165, -10.16910,
,,,473.97486,  -4.16910,
,,,474.46807,   2.63090,
,,,474.96128,   3.43090,
,,,475.45449,   2.63090,
,,,475.94770,  -7.36910,
,,,476.44091,  -1.76910,
,,,476.93412,   0.23090,
,,,477.42733,   2.23090,
,,,477.92054,   2.63090,
,,,478.41375,  -2.16910,
,,,478.90696,  -6.96910,
,,,479.40017, -20.96910,
,,,479.89338, -20.96910,
,,,480.38659, -14.56910,
,,,480.87980, -11.76910,
,,,481.37301, -20.96910,
,,,481.86622, -11.36910,
,,,482.35943, -10.16910,
,,,482.85264,  -8.56910,
,,,483.34585,  -2.16910,
,,,483.83906,  -3.36910,
,,,484.33227,  -1.76910,
,,,484.82548,  -1.76910,
,,,485.31869,  -1.36910,
,,,485.81190,  -0.56910,
,,,486.30511,   0.63090,
,,,486.79832,   4.23090,
,,,487.29153,   3.03090,
,,,487.78474,   0.23090,
,,,488.27795,  -5.36910,
,,,488.77116,  -5.76910,
,,,489.26437,  -5.76910,
,,,489.75758,  -4.56910,
,,,490.25079,  -3.36910,
,,,490.74400,  -5.76910,
,,,491.23721,  -6.16910,
,,,491.73042,  -8.96910,
,,,492.22363, -11.36910,
,,,492.71684,  -4.16910,
,,,493.21005,  -4.56910,
,,,493.70326,  -2.56910,
,,,494.19647,  -8.56910,
,,,494.68968,  -4.16910,
,,,495.18289,  -0.96910,
,,,495.67610,   5.83090,
,,,496.16931,   8.23090,
,,,496.66252,   7.03090,
,,,497.15573,   5.83090,
,,,497.64894,  -2.56910,
,,,498.14215,  -7.36910,
,,,498.63536,  -7.36910,
,,,499.12857,  -6.16910,
,,,499.62178,  -5.36910,
,,,500.11499, -12.56910,
,,,500.60820, -14.56910,
,,,501.10141, -10.16910,
,,,501.59462,  -4.16910,
,,,502.08783,  -5.36910,
,,,502.58104,  -4.96910,
,,,503.07425, -11.36910,
,,,503.56746, -15.36910,
,,,504.06067,  -7.36910,
,,,504.55388, -11.36910,
