%!PS-Adobe-3.0 EPSF-3.0
%%Creator: (MATLAB, The Mathworks, Inc. Version 9.1.0.441655 \(R2016b\). Operating System: Mac OS X)
%%Title: ./plots_sinus_grob_n0_f.eps
%%CreationDate: 2016-12-06T16:47:02
%%Pages: (atend)
%%BoundingBox:    70     0   728   130
%%LanguageLevel: 2
%%EndComments
%%BeginProlog
%%BeginResource: procset (Apache XML Graphics Std ProcSet) 1.2 0
%%Version: 1.2 0
%%Copyright: (Copyright 2001-2003,2010 The Apache Software Foundation. License terms: http://www.apache.org/licenses/LICENSE-2.0)
/bd{bind def}bind def
/ld{load def}bd
/GR/grestore ld
/M/moveto ld
/LJ/setlinejoin ld
/C/curveto ld
/f/fill ld
/LW/setlinewidth ld
/GC/setgray ld
/t/show ld
/N/newpath ld
/CT/concat ld
/cp/closepath ld
/S/stroke ld
/L/lineto ld
/CC/setcmykcolor ld
/A/ashow ld
/GS/gsave ld
/RC/setrgbcolor ld
/RM/rmoveto ld
/ML/setmiterlimit ld
/re {4 2 roll M
1 index 0 rlineto
0 exch rlineto
neg 0 rlineto
cp } bd
/_ctm matrix def
/_tm matrix def
/BT { _ctm currentmatrix pop matrix _tm copy pop 0 0 moveto } bd
/ET { _ctm setmatrix } bd
/iTm { _ctm setmatrix _tm concat } bd
/Tm { _tm astore pop iTm 0 0 moveto } bd
/ux 0.0 def
/uy 0.0 def
/F {
  /Tp exch def
  /Tf exch def
  Tf findfont Tp scalefont setfont
  /cf Tf def  /cs Tp def
} bd
/ULS {currentpoint /uy exch def /ux exch def} bd
/ULE {
  /Tcx currentpoint pop def
  gsave
  newpath
  cf findfont cs scalefont dup
  /FontMatrix get 0 get /Ts exch def /FontInfo get dup
  /UnderlinePosition get Ts mul /To exch def
  /UnderlineThickness get Ts mul /Tt exch def
  ux uy To add moveto  Tcx uy To add lineto
  Tt setlinewidth stroke
  grestore
} bd
/OLE {
  /Tcx currentpoint pop def
  gsave
  newpath
  cf findfont cs scalefont dup
  /FontMatrix get 0 get /Ts exch def /FontInfo get dup
  /UnderlinePosition get Ts mul /To exch def
  /UnderlineThickness get Ts mul /Tt exch def
  ux uy To add cs add moveto Tcx uy To add cs add lineto
  Tt setlinewidth stroke
  grestore
} bd
/SOE {
  /Tcx currentpoint pop def
  gsave
  newpath
  cf findfont cs scalefont dup
  /FontMatrix get 0 get /Ts exch def /FontInfo get dup
  /UnderlinePosition get Ts mul /To exch def
  /UnderlineThickness get Ts mul /Tt exch def
  ux uy To add cs 10 mul 26 idiv add moveto Tcx uy To add cs 10 mul 26 idiv add lineto
  Tt setlinewidth stroke
  grestore
} bd
/QT {
/Y22 exch store
/X22 exch store
/Y21 exch store
/X21 exch store
currentpoint
/Y21 load 2 mul add 3 div exch
/X21 load 2 mul add 3 div exch
/X21 load 2 mul /X22 load add 3 div
/Y21 load 2 mul /Y22 load add 3 div
/X22 load /Y22 load curveto
} bd
/SSPD {
dup length /d exch dict def
{
/v exch def
/k exch def
currentpagedevice k known {
/cpdv currentpagedevice k get def
v cpdv ne {
/upd false def
/nullv v type /nulltype eq def
/nullcpdv cpdv type /nulltype eq def
nullv nullcpdv or
{
/upd true def
} {
/sametype v type cpdv type eq def
sametype {
v type /arraytype eq {
/vlen v length def
/cpdvlen cpdv length def
vlen cpdvlen eq {
0 1 vlen 1 sub {
/i exch def
/obj v i get def
/cpdobj cpdv i get def
obj cpdobj ne {
/upd true def
exit
} if
} for
} {
/upd true def
} ifelse
} {
v type /dicttype eq {
v {
/dv exch def
/dk exch def
/cpddv cpdv dk get def
dv cpddv ne {
/upd true def
exit
} if
} forall
} {
/upd true def
} ifelse
} ifelse
} if
} ifelse
upd true eq {
d k v put
} if
} if
} if
} forall
d length 0 gt {
d setpagedevice
} if
} bd
/RE { % /NewFontName [NewEncodingArray] /FontName RE -
  findfont dup length dict begin
  {
    1 index /FID ne
    {def} {pop pop} ifelse
  } forall
  /Encoding exch def
  /FontName 1 index def
  currentdict definefont pop
  end
} bind def
%%EndResource
%%BeginResource: procset (Apache XML Graphics EPS ProcSet) 1.0 0
%%Version: 1.0 0
%%Copyright: (Copyright 2002-2003 The Apache Software Foundation. License terms: http://www.apache.org/licenses/LICENSE-2.0)
/BeginEPSF { %def
/b4_Inc_state save def         % Save state for cleanup
/dict_count countdictstack def % Count objects on dict stack
/op_count count 1 sub def      % Count objects on operand stack
userdict begin                 % Push userdict on dict stack
/showpage { } def              % Redefine showpage, { } = null proc
0 setgray 0 setlinecap         % Prepare graphics state
1 setlinewidth 0 setlinejoin
10 setmiterlimit [ ] 0 setdash newpath
/languagelevel where           % If level not equal to 1 then
{pop languagelevel             % set strokeadjust and
1 ne                           % overprint to their defaults.
{false setstrokeadjust false setoverprint
} if
} if
} bd
/EndEPSF { %def
count op_count sub {pop} repeat            % Clean up stacks
countdictstack dict_count sub {end} repeat
b4_Inc_state restore
} bd
%%EndResource
%FOPBeginFontDict
%%IncludeResource: font Courier-Bold
%%IncludeResource: font Helvetica
%%IncludeResource: font Courier-BoldOblique
%%IncludeResource: font Courier-Oblique
%%IncludeResource: font Times-Roman
%%IncludeResource: font Helvetica-BoldOblique
%%IncludeResource: font Helvetica-Bold
%%IncludeResource: font Helvetica-Oblique
%%IncludeResource: font Times-BoldItalic
%%IncludeResource: font Courier
%%IncludeResource: font Times-Italic
%%IncludeResource: font Times-Bold
%%IncludeResource: font Symbol
%%IncludeResource: font ZapfDingbats
%FOPEndFontDict
%%BeginResource: encoding WinAnsiEncoding
/WinAnsiEncoding [
/.notdef /.notdef /.notdef /.notdef /.notdef
/.notdef /.notdef /.notdef /.notdef /.notdef
/.notdef /.notdef /.notdef /.notdef /.notdef
/.notdef /.notdef /.notdef /.notdef /.notdef
/.notdef /.notdef /.notdef /.notdef /.notdef
/.notdef /.notdef /.notdef /.notdef /.notdef
/.notdef /.notdef /space /exclam /quotedbl
/numbersign /dollar /percent /ampersand /quotesingle
/parenleft /parenright /asterisk /plus /comma
/hyphen /period /slash /zero /one
/two /three /four /five /six
/seven /eight /nine /colon /semicolon
/less /equal /greater /question /at
/A /B /C /D /E
/F /G /H /I /J
/K /L /M /N /O
/P /Q /R /S /T
/U /V /W /X /Y
/Z /bracketleft /backslash /bracketright /asciicircum
/underscore /quoteleft /a /b /c
/d /e /f /g /h
/i /j /k /l /m
/n /o /p /q /r
/s /t /u /v /w
/x /y /z /braceleft /bar
/braceright /asciitilde /bullet /Euro /bullet
/quotesinglbase /florin /quotedblbase /ellipsis /dagger
/daggerdbl /circumflex /perthousand /Scaron /guilsinglleft
/OE /bullet /Zcaron /bullet /bullet
/quoteleft /quoteright /quotedblleft /quotedblright /bullet
/endash /emdash /asciitilde /trademark /scaron
/guilsinglright /oe /bullet /zcaron /Ydieresis
/space /exclamdown /cent /sterling /currency
/yen /brokenbar /section /dieresis /copyright
/ordfeminine /guillemotleft /logicalnot /sfthyphen /registered
/macron /degree /plusminus /twosuperior /threesuperior
/acute /mu /paragraph /middot /cedilla
/onesuperior /ordmasculine /guillemotright /onequarter /onehalf
/threequarters /questiondown /Agrave /Aacute /Acircumflex
/Atilde /Adieresis /Aring /AE /Ccedilla
/Egrave /Eacute /Ecircumflex /Edieresis /Igrave
/Iacute /Icircumflex /Idieresis /Eth /Ntilde
/Ograve /Oacute /Ocircumflex /Otilde /Odieresis
/multiply /Oslash /Ugrave /Uacute /Ucircumflex
/Udieresis /Yacute /Thorn /germandbls /agrave
/aacute /acircumflex /atilde /adieresis /aring
/ae /ccedilla /egrave /eacute /ecircumflex
/edieresis /igrave /iacute /icircumflex /idieresis
/eth /ntilde /ograve /oacute /ocircumflex
/otilde /odieresis /divide /oslash /ugrave
/uacute /ucircumflex /udieresis /yacute /thorn
/ydieresis
] def
%%EndResource
%FOPBeginFontReencode
/Courier-Bold findfont
dup length dict begin
  {1 index /FID ne {def} {pop pop} ifelse} forall
  /Encoding WinAnsiEncoding def
  currentdict
end
/Courier-Bold exch definefont pop
/Helvetica findfont
dup length dict begin
  {1 index /FID ne {def} {pop pop} ifelse} forall
  /Encoding WinAnsiEncoding def
  currentdict
end
/Helvetica exch definefont pop
/Courier-BoldOblique findfont
dup length dict begin
  {1 index /FID ne {def} {pop pop} ifelse} forall
  /Encoding WinAnsiEncoding def
  currentdict
end
/Courier-BoldOblique exch definefont pop
/Courier-Oblique findfont
dup length dict begin
  {1 index /FID ne {def} {pop pop} ifelse} forall
  /Encoding WinAnsiEncoding def
  currentdict
end
/Courier-Oblique exch definefont pop
/Times-Roman findfont
dup length dict begin
  {1 index /FID ne {def} {pop pop} ifelse} forall
  /Encoding WinAnsiEncoding def
  currentdict
end
/Times-Roman exch definefont pop
/Helvetica-BoldOblique findfont
dup length dict begin
  {1 index /FID ne {def} {pop pop} ifelse} forall
  /Encoding WinAnsiEncoding def
  currentdict
end
/Helvetica-BoldOblique exch definefont pop
/Helvetica-Bold findfont
dup length dict begin
  {1 index /FID ne {def} {pop pop} ifelse} forall
  /Encoding WinAnsiEncoding def
  currentdict
end
/Helvetica-Bold exch definefont pop
/Helvetica-Oblique findfont
dup length dict begin
  {1 index /FID ne {def} {pop pop} ifelse} forall
  /Encoding WinAnsiEncoding def
  currentdict
end
/Helvetica-Oblique exch definefont pop
/Times-BoldItalic findfont
dup length dict begin
  {1 index /FID ne {def} {pop pop} ifelse} forall
  /Encoding WinAnsiEncoding def
  currentdict
end
/Times-BoldItalic exch definefont pop
/Courier findfont
dup length dict begin
  {1 index /FID ne {def} {pop pop} ifelse} forall
  /Encoding WinAnsiEncoding def
  currentdict
end
/Courier exch definefont pop
/Times-Italic findfont
dup length dict begin
  {1 index /FID ne {def} {pop pop} ifelse} forall
  /Encoding WinAnsiEncoding def
  currentdict
end
/Times-Italic exch definefont pop
/Times-Bold findfont
dup length dict begin
  {1 index /FID ne {def} {pop pop} ifelse} forall
  /Encoding WinAnsiEncoding def
  currentdict
end
/Times-Bold exch definefont pop
%FOPEndFontReencode
%%EndProlog
%%Page: 1 1
%%PageBoundingBox: 0 0 800 140
%%BeginPageSetup
[1 0 0 -1 0 140] CT
%%EndPageSetup
GS
1 GC
N
0 0 800 140 re
f
GR
GS
1 GC
N
0 0 800 140 re
f
GR
GS
1 GC
N
104 109.5 M
724 109.5 L
724 10.5 L
104 10.5 L
cp
f
GR
GS
0.149 GC
2 setlinecap
1 LJ
0.5 LW
N
104 109.5 M
724 109.5 L
S
GR
GS
0.149 GC
2 setlinecap
1 LJ
0.5 LW
N
104 10.5 M
724 10.5 L
S
GR
GS
0.149 GC
2 setlinecap
1 LJ
0.5 LW
N
104 109.5 M
104 103.3 L
S
GR
GS
0.149 GC
2 setlinecap
1 LJ
0.5 LW
N
165.44 109.5 M
165.44 103.3 L
S
GR
GS
0.149 GC
2 setlinecap
1 LJ
0.5 LW
N
226.881 109.5 M
226.881 103.3 L
S
GR
GS
0.149 GC
2 setlinecap
1 LJ
0.5 LW
N
288.321 109.5 M
288.321 103.3 L
S
GR
GS
0.149 GC
2 setlinecap
1 LJ
0.5 LW
N
349.762 109.5 M
349.762 103.3 L
S
GR
GS
0.149 GC
2 setlinecap
1 LJ
0.5 LW
N
411.202 109.5 M
411.202 103.3 L
S
GR
GS
0.149 GC
2 setlinecap
1 LJ
0.5 LW
N
472.642 109.5 M
472.642 103.3 L
S
GR
GS
0.149 GC
2 setlinecap
1 LJ
0.5 LW
N
534.083 109.5 M
534.083 103.3 L
S
GR
GS
0.149 GC
2 setlinecap
1 LJ
0.5 LW
N
595.523 109.5 M
595.523 103.3 L
S
GR
GS
0.149 GC
2 setlinecap
1 LJ
0.5 LW
N
656.964 109.5 M
656.964 103.3 L
S
GR
GS
0.149 GC
2 setlinecap
1 LJ
0.5 LW
N
718.404 109.5 M
718.404 103.3 L
S
GR
GS
0.149 GC
2 setlinecap
1 LJ
0.5 LW
N
104 10.5 M
104 16.7 L
S
GR
GS
0.149 GC
2 setlinecap
1 LJ
0.5 LW
N
165.44 10.5 M
165.44 16.7 L
S
GR
GS
0.149 GC
2 setlinecap
1 LJ
0.5 LW
N
226.881 10.5 M
226.881 16.7 L
S
GR
GS
0.149 GC
2 setlinecap
1 LJ
0.5 LW
N
288.321 10.5 M
288.321 16.7 L
S
GR
GS
0.149 GC
2 setlinecap
1 LJ
0.5 LW
N
349.762 10.5 M
349.762 16.7 L
S
GR
GS
0.149 GC
2 setlinecap
1 LJ
0.5 LW
N
411.202 10.5 M
411.202 16.7 L
S
GR
GS
0.149 GC
2 setlinecap
1 LJ
0.5 LW
N
472.642 10.5 M
472.642 16.7 L
S
GR
GS
0.149 GC
2 setlinecap
1 LJ
0.5 LW
N
534.083 10.5 M
534.083 16.7 L
S
GR
GS
0.149 GC
2 setlinecap
1 LJ
0.5 LW
N
595.523 10.5 M
595.523 16.7 L
S
GR
GS
0.149 GC
2 setlinecap
1 LJ
0.5 LW
N
656.964 10.5 M
656.964 16.7 L
S
GR
GS
0.149 GC
2 setlinecap
1 LJ
0.5 LW
N
718.404 10.5 M
718.404 16.7 L
S
GR
GS
[1 0 0 1 104 113.5] CT
0.149 GC
/Helvetica 10 F
GS
[1 0 0 1 0 0] CT
-3 10 moveto 
1 -1 scale
(0) t 
GR
GR
GS
[1 0 0 1 165.44041 113.5] CT
0.149 GC
/Helvetica 10 F
GS
[1 0 0 1 0 0] CT
-6 10 moveto 
1 -1 scale
(50) t 
GR
GR
GS
[1 0 0 1 226.88083 113.5] CT
0.149 GC
/Helvetica 10 F
GS
[1 0 0 1 0 0] CT
-8.5 10 moveto 
1 -1 scale
(100) t 
GR
GR
GS
[1 0 0 1 288.32126 113.5] CT
0.149 GC
/Helvetica 10 F
GS
[1 0 0 1 0 0] CT
-8.5 10 moveto 
1 -1 scale
(150) t 
GR
GR
GS
[1 0 0 1 349.76166 113.5] CT
0.149 GC
/Helvetica 10 F
GS
[1 0 0 1 0 0] CT
-8.5 10 moveto 
1 -1 scale
(200) t 
GR
GR
GS
[1 0 0 1 411.20209 113.5] CT
0.149 GC
/Helvetica 10 F
GS
[1 0 0 1 0 0] CT
-8.5 10 moveto 
1 -1 scale
(250) t 
GR
GR
GS
[1 0 0 1 472.64249 113.5] CT
0.149 GC
/Helvetica 10 F
GS
[1 0 0 1 0 0] CT
-8.5 10 moveto 
1 -1 scale
(300) t 
GR
GR
GS
[1 0 0 1 534.08289 113.5] CT
0.149 GC
/Helvetica 10 F
GS
[1 0 0 1 0 0] CT
-8.5 10 moveto 
1 -1 scale
(350) t 
GR
GR
GS
[1 0 0 1 595.52332 113.5] CT
0.149 GC
/Helvetica 10 F
GS
[1 0 0 1 0 0] CT
-8.5 10 moveto 
1 -1 scale
(400) t 
GR
GR
GS
[1 0 0 1 656.96375 113.5] CT
0.149 GC
/Helvetica 10 F
GS
[1 0 0 1 0 0] CT
-8.5 10 moveto 
1 -1 scale
(450) t 
GR
GR
GS
[1 0 0 1 718.40417 113.5] CT
0.149 GC
/Helvetica 10 F
GS
[1 0 0 1 0 0] CT
-8.5 10 moveto 
1 -1 scale
(500) t 
GR
GR
GS
[1 0 0 1 414.00031 127] CT
0.149 GC
/Helvetica 11 F
GS
[1 0 0 1 0 0] CT
-37 11 moveto 
1 -1 scale
(Frequency [Hz]) t 
GR
GR
GS
0.149 GC
2 setlinecap
1 LJ
0.5 LW
N
104 109.5 M
104 10.5 L
S
GR
GS
0.149 GC
2 setlinecap
1 LJ
0.5 LW
N
724 109.5 M
724 10.5 L
S
GR
GS
0.149 GC
2 setlinecap
1 LJ
0.5 LW
N
104 108.16 M
110.2 108.16 L
S
GR
GS
0.149 GC
2 setlinecap
1 LJ
0.5 LW
N
104 80.506 M
110.2 80.506 L
S
GR
GS
0.149 GC
2 setlinecap
1 LJ
0.5 LW
N
104 52.853 M
110.2 52.853 L
S
GR
GS
0.149 GC
2 setlinecap
1 LJ
0.5 LW
N
104 25.199 M
110.2 25.199 L
S
GR
GS
0.149 GC
2 setlinecap
1 LJ
0.5 LW
N
724 108.16 M
717.8 108.16 L
S
GR
GS
0.149 GC
2 setlinecap
1 LJ
0.5 LW
N
724 80.506 M
717.8 80.506 L
S
GR
GS
0.149 GC
2 setlinecap
1 LJ
0.5 LW
N
724 52.853 M
717.8 52.853 L
S
GR
GS
0.149 GC
2 setlinecap
1 LJ
0.5 LW
N
724 25.199 M
717.8 25.199 L
S
GR
GS
[1 0 0 1 100 108.16004] CT
0.149 GC
/Helvetica 10 F
GS
[1 0 0 1 0 0] CT
-16 3.5 moveto 
1 -1 scale
(-20) t 
GR
GR
GS
[1 0 0 1 100 80.50641] CT
0.149 GC
/Helvetica 10 F
GS
[1 0 0 1 0 0] CT
-6 3.5 moveto 
1 -1 scale
(0) t 
GR
GR
GS
[1 0 0 1 100 52.85278] CT
0.149 GC
/Helvetica 10 F
GS
[1 0 0 1 0 0] CT
-12 3.5 moveto 
1 -1 scale
(20) t 
GR
GR
GS
[1 0 0 1 100 25.19915] CT
0.149 GC
/Helvetica 10 F
GS
[1 0 0 1 0 0] CT
-12 3.5 moveto 
1 -1 scale
(40) t 
GR
GR
GS
[0 -1 1 0 81.5 59.99995] CT
0.149 GC
/Helvetica 11 F
GS
[1 0 0 1 0 0] CT
-38 -3 moveto 
1 -1 scale
(Magnitude [dB]) t 
GR
GR
GS
0 0.447 0.741 RC
1 LJ
0.5 LW
N
104 13.818 M
104.606 10.5 L
105.212 19.349 L
105.818 101.757 L
106.424 90.696 L
107.03 90.142 L
107.636 87.377 L
108.242 92.908 L
108.849 90.696 L
109.455 90.696 L
110.061 72.444 L
110.667 69.126 L
111.273 68.02 L
111.879 70.232 L
112.485 85.165 L
113.091 88.483 L
113.697 86.271 L
114.303 94.567 L
114.909 96.779 L
115.515 97.885 L
116.121 94.567 L
116.727 101.757 L
117.333 89.036 L
117.939 85.165 L
118.546 86.271 L
119.152 97.885 L
119.758 92.908 L
120.364 94.567 L
120.97 79.081 L
121.576 69.679 L
122.182 70.232 L
122.788 74.103 L
123.394 90.696 L
124 85.165 L
124.606 100.651 L
125.212 100.651 L
125.818 100.651 L
126.424 109.5 L
127.03 100.651 L
127.636 96.226 L
128.242 92.908 L
128.849 106.182 L
129.455 109.5 L
130.061 100.651 L
130.667 93.461 L
131.273 86.824 L
131.879 96.226 L
132.485 79.081 L
133.091 68.573 L
133.697 42.025 L
134.303 37.047 L
134.909 36.494 L
135.515 38.707 L
136.121 53.64 L
136.727 75.209 L
137.333 86.271 L
137.939 81.293 L
138.546 90.142 L
139.152 87.93 L
139.758 89.589 L
140.364 90.142 L
140.97 89.589 L
141.576 93.461 L
142.182 84.612 L
142.788 86.271 L
143.394 86.271 L
144 84.059 L
144.606 81.846 L
145.212 76.869 L
145.818 77.422 L
146.424 79.081 L
147.03 85.718 L
147.636 92.355 L
148.242 82.399 L
148.849 80.74 L
149.455 82.399 L
150.061 96.226 L
150.667 88.483 L
151.273 88.483 L
151.879 96.779 L
152.485 109.5 L
153.091 101.757 L
153.697 92.908 L
154.303 109.5 L
154.909 85.718 L
155.515 82.399 L
156.121 89.036 L
156.727 94.567 L
157.333 88.483 L
157.939 101.757 L
158.546 87.377 L
159.152 82.953 L
159.758 84.059 L
160.364 88.483 L
160.97 86.271 L
161.576 92.355 L
162.182 92.908 L
162.788 88.483 L
163.394 92.355 L
164 100.651 L
164.606 85.718 L
165.212 89.036 L
165.818 97.885 L
166.424 109.5 L
167.03 109.5 L
167.636 94.567 L
168.242 92.355 L
168.849 96.779 L
169.455 101.757 L
170.061 82.953 L
170.667 76.869 L
171.273 66.913 L
171.879 61.383 L
172.485 62.489 L
173.091 64.701 L
173.697 74.656 L
174.303 86.824 L
174.909 87.93 L
175.515 86.271 L
176.121 85.165 L
176.727 87.93 L
177.333 86.271 L
177.939 100.651 L
178.546 85.165 L
179.152 80.74 L
179.758 80.74 L
180.364 83.506 L
180.97 100.651 L
181.576 86.271 L
182.182 72.444 L
182.788 56.405 L
183.394 53.64 L
184 53.087 L
184.606 58.064 L
185.212 73.55 L
185.818 72.997 L
186.424 71.891 L
187.03 72.444 L
187.636 81.293 L
188.242 96.779 L
188.849 94.567 L
189.455 90.696 L
190.061 100.651 L
190.667 101.757 L
191.273 109.5 L
191.879 96.226 L
192.485 82.399 L
193.091 78.528 L
193.697 77.422 L
194.303 79.081 L
194.909 90.696 L
195.515 92.355 L
196.121 90.696 L
196.727 86.271 L
197.333 88.483 L
197.939 85.165 L
198.546 82.953 L
199.152 92.908 L
199.758 97.885 L
200.364 100.651 L
200.97 106.182 L
201.576 96.779 L
202.182 92.908 L
202.788 92.908 L
203.394 90.696 L
204 90.696 L
204.606 90.696 L
205.212 90.696 L
205.818 92.908 L
206.424 96.226 L
207.03 96.226 L
207.636 94.567 L
208.242 100.651 L
208.849 84.612 L
209.455 75.763 L
210.061 75.209 L
210.667 76.316 L
211.273 82.953 L
211.879 94.567 L
212.485 89.589 L
213.091 90.142 L
213.697 90.142 L
214.303 93.461 L
214.909 90.142 L
215.515 87.377 L
216.121 81.846 L
216.727 79.634 L
217.333 79.081 L
217.939 80.187 L
218.546 94.567 L
219.152 89.589 L
219.758 90.696 L
220.364 86.271 L
220.97 90.142 L
221.576 92.908 L
222.182 92.355 L
222.788 93.461 L
223.394 86.271 L
224 81.293 L
224.606 82.399 L
225.212 92.355 L
225.818 90.696 L
226.424 86.271 L
227.03 86.824 L
227.636 90.696 L
228.242 94.567 L
228.849 106.182 L
229.455 106.182 L
230.061 78.528 L
230.667 73.55 L
231.273 81.293 L
231.879 74.103 L
232.485 68.02 L
233.091 67.466 L
233.697 76.316 L
234.303 90.142 L
234.909 85.718 L
235.515 87.93 L
236.121 96.226 L
236.727 109.5 L
237.333 93.461 L
237.939 90.142 L
238.546 90.696 L
239.152 92.908 L
239.758 106.182 L
240.364 94.567 L
240.97 92.355 L
241.576 96.226 L
242.182 96.779 L
242.788 85.165 L
243.394 82.399 L
244 84.059 L
244.606 85.718 L
245.212 84.059 L
245.818 78.528 L
246.424 75.209 L
247.03 71.891 L
247.636 74.103 L
248.242 77.422 L
248.849 82.399 L
249.455 100.651 L
250.061 109.5 L
250.667 101.757 L
251.273 88.483 L
251.879 88.483 L
252.485 86.271 L
253.091 89.036 L
253.697 81.293 L
254.303 74.656 L
254.909 75.763 L
255.515 76.316 L
256.121 84.612 L
256.727 92.908 L
257.333 88.483 L
257.939 82.399 L
258.546 78.528 L
259.152 80.187 L
259.758 84.059 L
260.364 109.5 L
260.97 84.612 L
261.576 82.953 L
262.182 84.612 L
262.788 90.142 L
263.394 97.885 L
264 100.651 L
264.606 101.757 L
265.212 101.757 L
265.818 96.779 L
266.424 106.182 L
267.03 106.182 L
267.636 76.869 L
268.242 70.232 L
268.849 70.785 L
269.455 71.891 L
270.061 85.718 L
270.667 106.182 L
271.273 100.651 L
271.879 106.182 L
272.485 106.182 L
273.091 109.5 L
273.697 96.226 L
274.303 96.226 L
274.909 106.182 L
275.515 92.908 L
276.121 90.696 L
276.727 94.567 L
277.333 101.757 L
277.939 100.651 L
278.546 101.757 L
279.152 100.651 L
279.758 100.651 L
280.364 78.528 L
280.97 74.103 L
281.576 74.656 L
282.182 77.975 L
282.788 96.226 L
283.394 92.908 L
284 86.824 L
284.606 81.293 L
285.212 82.399 L
285.818 88.483 L
286.424 93.461 L
287.03 106.182 L
287.636 100.651 L
288.242 96.779 L
288.849 96.226 L
289.455 92.355 L
290.061 84.612 L
290.667 80.187 L
291.273 76.316 L
291.879 73.55 L
292.485 75.763 L
293.091 76.316 L
293.697 87.93 L
294.303 81.293 L
294.909 75.763 L
295.515 72.444 L
296.121 72.997 L
296.727 80.187 L
297.333 85.165 L
297.939 87.93 L
298.546 85.718 L
299.152 83.506 L
299.758 86.271 L
300.364 92.355 L
300.97 96.779 L
301.576 90.696 L
302.182 92.355 L
302.788 90.142 L
303.394 90.696 L
304 100.651 L
304.606 97.885 L
305.212 61.936 L
305.818 51.98 L
306.424 50.321 L
307.03 50.321 L
307.636 56.958 L
308.242 74.103 L
308.849 81.293 L
309.455 92.355 L
310.061 82.953 L
310.667 84.612 L
311.273 92.355 L
311.879 109.5 L
312.485 94.567 L
313.091 84.612 L
313.697 79.081 L
314.303 80.187 L
314.909 89.036 L
315.515 96.226 L
316.121 109.5 L
316.727 88.483 L
317.333 82.399 L
317.939 82.399 L
318.546 85.165 L
319.152 94.567 L
319.758 94.567 L
320.364 90.696 L
320.97 90.696 L
321.576 93.461 L
322.182 94.567 L
322.788 90.696 L
323.394 94.567 L
324 100.651 L
324.606 109.5 L
325.212 109.5 L
325.818 106.182 L
326.424 94.567 L
327.03 90.142 L
327.636 87.93 L
328.242 84.612 L
328.849 83.506 L
329.455 77.422 L
330.061 77.422 L
330.667 79.081 L
331.273 83.506 L
331.879 80.187 L
332.485 72.997 L
333.091 74.656 L
333.697 76.316 L
334.303 89.036 L
334.909 86.824 L
335.515 96.226 L
336.121 94.567 L
336.727 86.824 L
337.333 86.824 L
337.939 86.271 L
338.545 87.93 L
339.152 84.612 L
339.758 85.165 L
340.364 81.846 L
340.97 80.74 L
341.576 82.953 L
342.182 84.612 L
342.788 79.081 L
343.394 65.254 L
344 62.489 L
344.606 61.936 L
345.212 66.913 L
345.818 80.74 L
346.424 88.483 L
347.03 109.5 L
347.636 106.182 L
348.242 90.142 L
348.849 86.824 L
349.455 87.93 L
350.061 96.226 L
350.667 101.757 L
351.273 94.567 L
351.879 97.885 L
352.485 100.651 L
353.091 101.757 L
353.697 94.567 L
354.303 76.869 L
354.909 73.55 L
355.515 74.103 L
356.121 76.316 L
356.727 89.589 L
357.333 109.5 L
357.939 101.757 L
358.546 90.696 L
359.152 92.355 L
359.758 92.355 L
360.364 90.696 L
360.97 90.696 L
361.576 97.885 L
362.182 101.757 L
362.788 89.036 L
363.394 84.059 L
364 82.399 L
364.606 86.824 L
365.212 106.182 L
365.818 94.567 L
366.424 80.187 L
367.03 62.489 L
367.636 59.723 L
368.242 59.723 L
368.849 64.148 L
369.455 90.696 L
370.061 79.081 L
370.667 80.187 L
371.273 82.399 L
371.879 101.757 L
372.485 96.226 L
373.091 94.567 L
373.697 109.5 L
374.303 89.036 L
374.909 85.165 L
375.515 84.059 L
376.121 96.779 L
376.727 97.885 L
377.333 97.885 L
377.939 101.757 L
378.546 97.885 L
379.152 106.182 L
379.758 96.226 L
380.364 86.271 L
380.97 68.573 L
381.576 66.36 L
382.182 66.913 L
382.788 70.785 L
383.394 90.696 L
384 97.885 L
384.606 94.567 L
385.212 89.036 L
385.818 92.355 L
386.424 101.757 L
387.03 109.5 L
387.636 87.377 L
388.242 78.528 L
388.849 76.869 L
389.455 79.081 L
390.061 89.589 L
390.667 106.182 L
391.273 92.908 L
391.879 90.696 L
392.485 90.696 L
393.091 96.226 L
393.697 109.5 L
394.303 97.885 L
394.909 92.908 L
395.515 88.483 L
396.121 94.567 L
396.727 109.5 L
397.333 109.5 L
397.939 96.779 L
398.545 88.483 L
399.152 92.908 L
399.758 109.5 L
400.364 109.5 L
400.97 93.461 L
401.576 84.612 L
402.182 82.953 L
402.788 85.718 L
403.394 85.165 L
404 74.103 L
404.606 59.17 L
405.212 55.299 L
405.818 55.852 L
406.424 59.17 L
407.03 76.316 L
407.636 92.908 L
408.242 101.757 L
408.849 90.696 L
409.455 87.93 L
410.061 87.93 L
410.667 92.355 L
411.273 90.142 L
411.879 81.846 L
412.485 80.187 L
413.091 80.187 L
413.697 85.165 L
414.303 88.483 L
414.909 87.377 L
415.515 80.187 L
416.121 75.763 L
416.727 77.975 L
417.333 79.081 L
417.939 92.908 L
418.546 79.081 L
419.152 74.103 L
419.758 73.55 L
420.364 75.209 L
420.97 84.059 L
421.576 90.696 L
422.182 97.885 L
422.788 96.779 L
423.394 92.355 L
424 87.93 L
424.606 87.93 L
425.212 101.757 L
425.818 87.93 L
426.424 87.93 L
427.03 94.567 L
427.636 90.696 L
428.242 89.036 L
428.849 92.355 L
429.455 85.165 L
430.061 74.103 L
430.667 73.55 L
431.273 76.869 L
431.879 97.885 L
432.485 85.718 L
433.091 90.696 L
433.697 101.757 L
434.303 100.651 L
434.909 92.908 L
435.515 89.036 L
436.121 90.696 L
436.727 89.036 L
437.333 90.696 L
437.939 90.696 L
438.546 87.377 L
439.152 88.483 L
439.758 88.483 L
440.364 96.226 L
440.97 109.5 L
441.576 92.908 L
442.182 70.785 L
442.788 65.254 L
443.394 65.254 L
444 66.36 L
444.606 77.422 L
445.212 100.651 L
445.818 106.182 L
446.424 100.651 L
447.03 94.567 L
447.636 100.651 L
448.242 101.757 L
448.849 97.885 L
449.455 80.74 L
450.061 81.293 L
450.667 81.846 L
451.273 90.142 L
451.879 85.718 L
452.485 79.081 L
453.091 77.422 L
453.697 76.869 L
454.303 81.293 L
454.909 88.483 L
455.515 96.226 L
456.121 81.293 L
456.727 75.209 L
457.333 76.869 L
457.939 77.422 L
458.545 88.483 L
459.152 109.5 L
459.758 109.5 L
460.364 92.908 L
460.97 87.93 L
461.576 92.355 L
462.182 100.651 L
462.788 92.908 L
463.394 80.187 L
464 74.103 L
464.606 68.573 L
465.212 68.02 L
465.818 71.338 L
466.424 74.103 L
467.03 84.612 L
467.636 86.271 L
468.242 86.824 L
468.849 82.399 L
469.455 86.824 L
470.061 92.908 L
470.667 96.226 L
471.273 100.651 L
471.879 97.885 L
472.485 100.651 L
473.091 96.226 L
473.697 101.757 L
474.303 100.651 L
474.909 89.589 L
475.515 81.293 L
476.121 77.975 L
476.727 81.846 L
477.333 85.165 L
477.939 87.377 L
478.545 74.656 L
479.152 70.232 L
479.758 66.36 L
480.364 64.701 L
480.97 69.679 L
481.576 75.209 L
482.182 86.824 L
482.788 109.5 L
483.394 106.182 L
484 96.226 L
484.606 93.461 L
485.212 96.226 L
485.818 101.757 L
486.424 92.908 L
487.03 78.528 L
487.636 76.316 L
488.242 77.975 L
488.848 82.953 L
489.455 92.908 L
490.061 92.355 L
490.667 100.651 L
491.273 77.975 L
491.879 72.997 L
492.485 72.997 L
493.091 76.869 L
493.697 86.824 L
494.303 85.718 L
494.909 83.506 L
495.515 84.612 L
496.121 90.142 L
496.727 92.908 L
497.333 94.567 L
497.939 101.757 L
498.546 87.93 L
499.152 84.612 L
499.758 86.824 L
500.364 92.908 L
500.97 90.696 L
501.576 81.846 L
502.182 80.187 L
502.788 80.187 L
503.394 87.377 L
504 94.567 L
504.606 96.226 L
505.212 87.93 L
505.818 90.696 L
506.424 96.226 L
507.03 96.226 L
507.636 92.908 L
508.242 109.5 L
508.849 90.142 L
509.455 86.271 L
510.061 87.93 L
510.667 90.696 L
511.273 92.908 L
511.879 92.908 L
512.485 85.165 L
513.091 85.165 L
513.697 94.567 L
514.303 92.908 L
514.909 89.589 L
515.515 97.885 L
516.121 101.757 L
516.727 109.5 L
517.333 92.908 L
517.939 80.74 L
518.545 80.74 L
519.152 82.399 L
519.758 90.142 L
520.364 86.824 L
520.97 89.036 L
521.576 94.567 L
522.182 92.908 L
522.788 96.779 L
523.394 100.651 L
524 94.567 L
524.606 83.506 L
525.212 79.081 L
525.818 77.975 L
526.424 79.081 L
527.03 88.483 L
527.636 109.5 L
528.242 109.5 L
528.849 92.908 L
529.455 87.93 L
530.061 85.165 L
530.667 88.483 L
531.273 92.908 L
531.879 88.483 L
532.485 85.165 L
533.091 82.399 L
533.697 84.059 L
534.303 92.355 L
534.909 87.93 L
535.515 89.589 L
536.121 90.142 L
536.727 90.696 L
537.333 96.226 L
537.939 89.589 L
538.545 65.807 L
539.151 60.277 L
539.758 63.042 L
540.364 70.232 L
540.97 73.55 L
541.576 66.913 L
542.182 76.869 L
542.788 93.461 L
543.394 96.779 L
544 100.651 L
544.606 109.5 L
545.212 97.885 L
545.818 96.226 L
546.424 96.779 L
547.03 92.908 L
547.636 90.142 L
548.242 90.142 L
548.849 88.483 L
549.455 90.696 L
550.061 76.316 L
550.667 74.103 L
551.273 74.103 L
551.879 81.293 L
552.485 100.651 L
553.091 100.651 L
553.697 100.651 L
554.303 100.651 L
554.909 100.651 L
555.515 87.93 L
556.121 84.612 L
556.727 85.165 L
557.333 94.567 L
557.939 106.182 L
558.545 93.461 L
559.152 92.908 L
559.758 87.93 L
560.364 89.589 L
560.97 109.5 L
561.576 109.5 L
562.182 83.506 L
562.788 74.656 L
563.394 74.103 L
564 74.656 L
564.606 87.377 L
565.212 81.293 L
565.818 77.422 L
566.424 75.209 L
567.03 76.869 L
567.636 86.271 L
568.242 94.567 L
568.849 94.567 L
569.455 89.036 L
570.061 87.377 L
570.667 87.93 L
571.273 90.696 L
571.879 93.461 L
572.485 92.908 L
573.091 96.226 L
573.697 96.226 L
574.303 89.036 L
574.909 87.93 L
575.515 90.142 L
576.121 63.042 L
576.727 54.193 L
577.333 53.64 L
577.939 54.746 L
578.545 64.701 L
579.152 90.142 L
579.758 96.779 L
580.364 86.271 L
580.97 82.399 L
581.576 85.718 L
582.182 90.142 L
582.788 106.182 L
583.394 90.142 L
584 81.846 L
584.606 86.824 L
585.212 106.182 L
585.818 92.908 L
586.424 92.908 L
587.03 97.885 L
587.636 92.908 L
588.242 78.528 L
588.849 61.936 L
589.455 57.511 L
590.061 57.511 L
590.667 59.17 L
591.273 72.444 L
591.879 85.718 L
592.485 84.612 L
593.091 92.355 L
593.697 96.779 L
594.303 84.612 L
594.909 86.824 L
595.515 87.93 L
596.121 89.036 L
596.727 92.908 L
597.333 92.908 L
597.939 97.885 L
598.545 94.567 L
599.151 86.271 L
599.758 81.846 L
600.364 68.573 L
600.97 66.36 L
601.576 66.36 L
602.182 74.103 L
602.788 92.908 L
603.394 83.506 L
604 85.165 L
604.606 90.696 L
605.212 106.182 L
605.818 96.226 L
606.424 109.5 L
607.03 87.93 L
607.636 82.953 L
608.242 81.293 L
608.849 81.846 L
609.455 92.908 L
610.061 90.696 L
610.667 90.696 L
611.273 90.696 L
611.879 89.589 L
612.485 90.142 L
613.091 90.696 L
613.697 82.953 L
614.303 70.232 L
614.909 68.573 L
615.515 66.913 L
616.121 71.891 L
616.727 81.846 L
617.333 89.036 L
617.939 106.182 L
618.545 106.182 L
619.152 100.651 L
619.758 109.5 L
620.364 97.885 L
620.97 92.355 L
621.576 92.355 L
622.182 94.567 L
622.788 100.651 L
623.394 90.142 L
624 89.036 L
624.606 96.226 L
625.212 100.651 L
625.818 94.567 L
626.424 109.5 L
627.03 84.059 L
627.636 82.953 L
628.242 87.377 L
628.849 100.651 L
629.455 96.226 L
630.061 100.651 L
630.667 84.612 L
631.273 82.953 L
631.879 85.718 L
632.485 86.824 L
633.091 87.93 L
633.697 90.696 L
634.303 90.142 L
634.909 92.355 L
635.515 100.651 L
636.121 83.506 L
636.727 87.93 L
637.333 55.852 L
637.939 42.578 L
638.545 40.919 L
639.152 40.919 L
639.758 45.897 L
640.364 69.679 L
640.97 92.355 L
641.576 89.036 L
642.182 94.567 L
642.788 89.589 L
643.394 89.036 L
644 90.696 L
644.606 88.483 L
645.212 81.846 L
645.818 81.846 L
646.424 84.612 L
647.03 100.651 L
647.636 90.696 L
648.242 94.567 L
648.849 90.142 L
649.455 79.081 L
650.061 76.869 L
650.667 77.422 L
651.273 87.93 L
651.879 90.142 L
652.485 87.93 L
653.091 85.165 L
653.697 88.483 L
654.303 101.757 L
654.909 92.908 L
655.515 92.355 L
656.121 90.696 L
656.727 97.885 L
657.333 97.885 L
657.939 100.651 L
658.545 90.696 L
659.151 82.953 L
659.758 86.271 L
660.364 109.5 L
660.97 87.93 L
661.576 82.953 L
662.182 86.824 L
662.788 96.779 L
663.394 96.226 L
664 88.483 L
664.606 88.483 L
665.212 89.036 L
665.818 87.93 L
666.424 97.885 L
667.03 106.182 L
667.636 96.226 L
668.242 101.757 L
668.849 86.824 L
669.455 85.165 L
670.061 87.93 L
670.667 90.142 L
671.273 90.142 L
671.879 96.779 L
672.485 92.908 L
673.091 100.651 L
673.697 97.885 L
674.303 96.779 L
674.909 85.718 L
675.515 68.573 L
676.121 65.254 L
676.727 66.36 L
677.333 70.232 L
677.939 92.908 L
678.545 89.589 L
679.151 88.483 L
679.758 92.908 L
680.364 109.5 L
680.97 96.226 L
681.576 93.461 L
682.182 90.696 L
682.788 82.399 L
683.394 82.953 L
684 81.293 L
684.606 87.93 L
685.212 92.908 L
685.818 94.567 L
686.424 86.271 L
687.03 76.869 L
687.636 75.763 L
688.242 76.869 L
688.848 90.696 L
689.455 82.953 L
690.061 80.187 L
690.667 77.422 L
691.273 76.869 L
691.879 83.506 L
692.485 90.142 L
693.091 109.5 L
693.697 109.5 L
694.303 100.651 L
694.909 96.779 L
695.515 109.5 L
696.121 96.226 L
696.727 94.567 L
697.333 92.355 L
697.939 83.506 L
698.545 85.165 L
699.152 82.953 L
699.758 82.953 L
700.364 82.399 L
700.97 81.293 L
701.576 79.634 L
702.182 74.656 L
702.788 76.316 L
703.394 80.187 L
704 87.93 L
704.606 88.483 L
705.212 88.483 L
705.818 86.824 L
706.424 85.165 L
707.03 88.483 L
707.636 89.036 L
708.242 92.908 L
708.849 96.226 L
709.455 86.271 L
710.061 86.824 L
710.667 84.059 L
711.273 92.355 L
711.879 86.271 L
712.485 81.846 L
713.091 72.444 L
713.697 69.126 L
714.303 70.785 L
714.909 72.444 L
715.515 84.059 L
716.121 90.696 L
716.727 90.696 L
717.333 89.036 L
717.939 87.93 L
718.545 97.885 L
719.151 100.651 L
719.758 94.567 L
720.364 86.271 L
720.97 87.93 L
721.576 87.377 L
722.182 96.226 L
722.788 101.757 L
723.394 90.696 L
724 96.226 L
S
GR
GS
[1 0 0 1 134.90915 36.49441] CT
1 0 0 RC
10.0 ML
0.5 LW
N
2.5 -0.5 M
2.5 -2.157 1.157 -3.5 -0.5 -3.5 C
-2.157 -3.5 -3.5 -2.157 -3.5 -0.5 C
-3.5 1.157 -2.157 2.5 -0.5 2.5 C
1.157 2.5 2.5 1.157 2.5 -0.5 C
S
GR
GS
[1 0 0 1 196.12126 90.69553] CT
1 0 0 RC
10.0 ML
0.5 LW
N
2.5 -0.5 M
2.5 -2.157 1.157 -3.5 -0.5 -3.5 C
-2.157 -3.5 -3.5 -2.157 -3.5 -0.5 C
-3.5 1.157 -2.157 2.5 -0.5 2.5 C
1.157 2.5 2.5 1.157 2.5 -0.5 C
S
GR
GS
[1 0 0 1 257.33337 88.48324] CT
1 0 0 RC
10.0 ML
0.5 LW
N
2.5 -0.5 M
2.5 -2.157 1.157 -3.5 -0.5 -3.5 C
-2.157 -3.5 -3.5 -2.157 -3.5 -0.5 C
-3.5 1.157 -2.157 2.5 -0.5 2.5 C
1.157 2.5 2.5 1.157 2.5 -0.5 C
S
GR
GS
[1 0 0 1 319.15155 94.56704] CT
1 0 0 RC
10.0 ML
0.5 LW
N
2.5 -0.5 M
2.5 -2.157 1.157 -3.5 -0.5 -3.5 C
-2.157 -3.5 -3.5 -2.157 -3.5 -0.5 C
-3.5 1.157 -2.157 2.5 -0.5 2.5 C
1.157 2.5 2.5 1.157 2.5 -0.5 C
S
GR
GS
[1 0 0 1 380.36368 86.27095] CT
1 0 0 RC
10.0 ML
0.5 LW
N
2.5 -0.5 M
2.5 -2.157 1.157 -3.5 -0.5 -3.5 C
-2.157 -3.5 -3.5 -2.157 -3.5 -0.5 C
-3.5 1.157 -2.157 2.5 -0.5 2.5 C
1.157 2.5 2.5 1.157 2.5 -0.5 C
S
GR
GS
[1 0 0 1 442.18185 70.78492] CT
1 0 0 RC
10.0 ML
0.5 LW
N
2.5 -0.5 M
2.5 -2.157 1.157 -3.5 -0.5 -3.5 C
-2.157 -3.5 -3.5 -2.157 -3.5 -0.5 C
-3.5 1.157 -2.157 2.5 -0.5 2.5 C
1.157 2.5 2.5 1.157 2.5 -0.5 C
S
GR
GS
[1 0 0 1 503.39398 87.3771] CT
1 0 0 RC
10.0 ML
0.5 LW
N
2.5 -0.5 M
2.5 -2.157 1.157 -3.5 -0.5 -3.5 C
-2.157 -3.5 -3.5 -2.157 -3.5 -0.5 C
-3.5 1.157 -2.157 2.5 -0.5 2.5 C
1.157 2.5 2.5 1.157 2.5 -0.5 C
S
GR
GS
[1 0 0 1 564.60608 87.3771] CT
1 0 0 RC
10.0 ML
0.5 LW
N
2.5 -0.5 M
2.5 -2.157 1.157 -3.5 -0.5 -3.5 C
-2.157 -3.5 -3.5 -2.157 -3.5 -0.5 C
-3.5 1.157 -2.157 2.5 -0.5 2.5 C
1.157 2.5 2.5 1.157 2.5 -0.5 C
S
GR
GS
[1 0 0 1 626.42426 109.5] CT
1 0 0 RC
10.0 ML
0.5 LW
N
2.5 -0.5 M
2.5 -2.157 1.157 -3.5 -0.5 -3.5 C
-2.157 -3.5 -3.5 -2.157 -3.5 -0.5 C
-3.5 1.157 -2.157 2.5 -0.5 2.5 C
1.157 2.5 2.5 1.157 2.5 -0.5 C
S
GR
GS
[1 0 0 1 687.63635 75.76257] CT
1 0 0 RC
10.0 ML
0.5 LW
N
2.5 -0.5 M
2.5 -2.157 1.157 -3.5 -0.5 -3.5 C
-2.157 -3.5 -3.5 -2.157 -3.5 -0.5 C
-3.5 1.157 -2.157 2.5 -0.5 2.5 C
1.157 2.5 2.5 1.157 2.5 -0.5 C
S
GR
GS
[1 0 0 1 724 96.22626] CT
1 0 0 RC
10.0 ML
0.5 LW
N
2.5 -0.5 M
2.5 -2.157 1.157 -3.5 -0.5 -3.5 C
-2.157 -3.5 -3.5 -2.157 -3.5 -0.5 C
-3.5 1.157 -2.157 2.5 -0.5 2.5 C
1.157 2.5 2.5 1.157 2.5 -0.5 C
S
GR
%%Trailer
%%Pages: 1
%%EOF
