%!PS-Adobe-3.0 EPSF-3.0
%%Creator: (MATLAB, The Mathworks, Inc. Version 9.1.0.441655 \(R2016b\). Operating System: Mac OS X)
%%Title: /Users/Pascal/Documents/Tech/EAT/Laborbericht/pulsmuster_messungen/messungsresultate.eps
%%CreationDate: 2016-12-06T13:47:27
%%Pages: (atend)
%%BoundingBox: 0 0 813 736
%%LanguageLevel: 3
%%EndComments
%%BeginProlog
%%BeginResource: procset (Apache XML Graphics Std ProcSet) 1.2 0
%%Version: 1.2 0
%%Copyright: (Copyright 2001-2003,2010 The Apache Software Foundation. License terms: http://www.apache.org/licenses/LICENSE-2.0)
/bd{bind def}bind def
/ld{load def}bd
/GR/grestore ld
/M/moveto ld
/LJ/setlinejoin ld
/C/curveto ld
/f/fill ld
/LW/setlinewidth ld
/GC/setgray ld
/t/show ld
/N/newpath ld
/CT/concat ld
/cp/closepath ld
/S/stroke ld
/L/lineto ld
/CC/setcmykcolor ld
/A/ashow ld
/GS/gsave ld
/RC/setrgbcolor ld
/RM/rmoveto ld
/ML/setmiterlimit ld
/re {4 2 roll M
1 index 0 rlineto
0 exch rlineto
neg 0 rlineto
cp } bd
/_ctm matrix def
/_tm matrix def
/BT { _ctm currentmatrix pop matrix _tm copy pop 0 0 moveto } bd
/ET { _ctm setmatrix } bd
/iTm { _ctm setmatrix _tm concat } bd
/Tm { _tm astore pop iTm 0 0 moveto } bd
/ux 0.0 def
/uy 0.0 def
/F {
  /Tp exch def
  /Tf exch def
  Tf findfont Tp scalefont setfont
  /cf Tf def  /cs Tp def
} bd
/ULS {currentpoint /uy exch def /ux exch def} bd
/ULE {
  /Tcx currentpoint pop def
  gsave
  newpath
  cf findfont cs scalefont dup
  /FontMatrix get 0 get /Ts exch def /FontInfo get dup
  /UnderlinePosition get Ts mul /To exch def
  /UnderlineThickness get Ts mul /Tt exch def
  ux uy To add moveto  Tcx uy To add lineto
  Tt setlinewidth stroke
  grestore
} bd
/OLE {
  /Tcx currentpoint pop def
  gsave
  newpath
  cf findfont cs scalefont dup
  /FontMatrix get 0 get /Ts exch def /FontInfo get dup
  /UnderlinePosition get Ts mul /To exch def
  /UnderlineThickness get Ts mul /Tt exch def
  ux uy To add cs add moveto Tcx uy To add cs add lineto
  Tt setlinewidth stroke
  grestore
} bd
/SOE {
  /Tcx currentpoint pop def
  gsave
  newpath
  cf findfont cs scalefont dup
  /FontMatrix get 0 get /Ts exch def /FontInfo get dup
  /UnderlinePosition get Ts mul /To exch def
  /UnderlineThickness get Ts mul /Tt exch def
  ux uy To add cs 10 mul 26 idiv add moveto Tcx uy To add cs 10 mul 26 idiv add lineto
  Tt setlinewidth stroke
  grestore
} bd
/QT {
/Y22 exch store
/X22 exch store
/Y21 exch store
/X21 exch store
currentpoint
/Y21 load 2 mul add 3 div exch
/X21 load 2 mul add 3 div exch
/X21 load 2 mul /X22 load add 3 div
/Y21 load 2 mul /Y22 load add 3 div
/X22 load /Y22 load curveto
} bd
/SSPD {
dup length /d exch dict def
{
/v exch def
/k exch def
currentpagedevice k known {
/cpdv currentpagedevice k get def
v cpdv ne {
/upd false def
/nullv v type /nulltype eq def
/nullcpdv cpdv type /nulltype eq def
nullv nullcpdv or
{
/upd true def
} {
/sametype v type cpdv type eq def
sametype {
v type /arraytype eq {
/vlen v length def
/cpdvlen cpdv length def
vlen cpdvlen eq {
0 1 vlen 1 sub {
/i exch def
/obj v i get def
/cpdobj cpdv i get def
obj cpdobj ne {
/upd true def
exit
} if
} for
} {
/upd true def
} ifelse
} {
v type /dicttype eq {
v {
/dv exch def
/dk exch def
/cpddv cpdv dk get def
dv cpddv ne {
/upd true def
exit
} if
} forall
} {
/upd true def
} ifelse
} ifelse
} if
} ifelse
upd true eq {
d k v put
} if
} if
} if
} forall
d length 0 gt {
d setpagedevice
} if
} bd
/RE { % /NewFontName [NewEncodingArray] /FontName RE -
  findfont dup length dict begin
  {
    1 index /FID ne
    {def} {pop pop} ifelse
  } forall
  /Encoding exch def
  /FontName 1 index def
  currentdict definefont pop
  end
} bind def
%%EndResource
%%BeginResource: procset (Apache XML Graphics EPS ProcSet) 1.0 0
%%Version: 1.0 0
%%Copyright: (Copyright 2002-2003 The Apache Software Foundation. License terms: http://www.apache.org/licenses/LICENSE-2.0)
/BeginEPSF { %def
/b4_Inc_state save def         % Save state for cleanup
/dict_count countdictstack def % Count objects on dict stack
/op_count count 1 sub def      % Count objects on operand stack
userdict begin                 % Push userdict on dict stack
/showpage { } def              % Redefine showpage, { } = null proc
0 setgray 0 setlinecap         % Prepare graphics state
1 setlinewidth 0 setlinejoin
10 setmiterlimit [ ] 0 setdash newpath
/languagelevel where           % If level not equal to 1 then
{pop languagelevel             % set strokeadjust and
1 ne                           % overprint to their defaults.
{false setstrokeadjust false setoverprint
} if
} if
} bd
/EndEPSF { %def
count op_count sub {pop} repeat            % Clean up stacks
countdictstack dict_count sub {end} repeat
b4_Inc_state restore
} bd
%%EndResource
%FOPBeginFontDict
%%IncludeResource: font Courier-Bold
%%IncludeResource: font Helvetica
%%IncludeResource: font Courier-BoldOblique
%%IncludeResource: font Courier-Oblique
%%IncludeResource: font Times-Roman
%%IncludeResource: font Helvetica-BoldOblique
%%IncludeResource: font Helvetica-Bold
%%IncludeResource: font Helvetica-Oblique
%%IncludeResource: font Times-BoldItalic
%%IncludeResource: font Courier
%%IncludeResource: font Times-Italic
%%IncludeResource: font Times-Bold
%%IncludeResource: font Symbol
%%IncludeResource: font ZapfDingbats
%FOPEndFontDict
%%BeginResource: encoding WinAnsiEncoding
/WinAnsiEncoding [
/.notdef /.notdef /.notdef /.notdef /.notdef
/.notdef /.notdef /.notdef /.notdef /.notdef
/.notdef /.notdef /.notdef /.notdef /.notdef
/.notdef /.notdef /.notdef /.notdef /.notdef
/.notdef /.notdef /.notdef /.notdef /.notdef
/.notdef /.notdef /.notdef /.notdef /.notdef
/.notdef /.notdef /space /exclam /quotedbl
/numbersign /dollar /percent /ampersand /quotesingle
/parenleft /parenright /asterisk /plus /comma
/hyphen /period /slash /zero /one
/two /three /four /five /six
/seven /eight /nine /colon /semicolon
/less /equal /greater /question /at
/A /B /C /D /E
/F /G /H /I /J
/K /L /M /N /O
/P /Q /R /S /T
/U /V /W /X /Y
/Z /bracketleft /backslash /bracketright /asciicircum
/underscore /quoteleft /a /b /c
/d /e /f /g /h
/i /j /k /l /m
/n /o /p /q /r
/s /t /u /v /w
/x /y /z /braceleft /bar
/braceright /asciitilde /bullet /Euro /bullet
/quotesinglbase /florin /quotedblbase /ellipsis /dagger
/daggerdbl /circumflex /perthousand /Scaron /guilsinglleft
/OE /bullet /Zcaron /bullet /bullet
/quoteleft /quoteright /quotedblleft /quotedblright /bullet
/endash /emdash /asciitilde /trademark /scaron
/guilsinglright /oe /bullet /zcaron /Ydieresis
/space /exclamdown /cent /sterling /currency
/yen /brokenbar /section /dieresis /copyright
/ordfeminine /guillemotleft /logicalnot /sfthyphen /registered
/macron /degree /plusminus /twosuperior /threesuperior
/acute /mu /paragraph /middot /cedilla
/onesuperior /ordmasculine /guillemotright /onequarter /onehalf
/threequarters /questiondown /Agrave /Aacute /Acircumflex
/Atilde /Adieresis /Aring /AE /Ccedilla
/Egrave /Eacute /Ecircumflex /Edieresis /Igrave
/Iacute /Icircumflex /Idieresis /Eth /Ntilde
/Ograve /Oacute /Ocircumflex /Otilde /Odieresis
/multiply /Oslash /Ugrave /Uacute /Ucircumflex
/Udieresis /Yacute /Thorn /germandbls /agrave
/aacute /acircumflex /atilde /adieresis /aring
/ae /ccedilla /egrave /eacute /ecircumflex
/edieresis /igrave /iacute /icircumflex /idieresis
/eth /ntilde /ograve /oacute /ocircumflex
/otilde /odieresis /divide /oslash /ugrave
/uacute /ucircumflex /udieresis /yacute /thorn
/ydieresis
] def
%%EndResource
%FOPBeginFontReencode
/Courier-Bold findfont
dup length dict begin
  {1 index /FID ne {def} {pop pop} ifelse} forall
  /Encoding WinAnsiEncoding def
  currentdict
end
/Courier-Bold exch definefont pop
/Helvetica findfont
dup length dict begin
  {1 index /FID ne {def} {pop pop} ifelse} forall
  /Encoding WinAnsiEncoding def
  currentdict
end
/Helvetica exch definefont pop
/Courier-BoldOblique findfont
dup length dict begin
  {1 index /FID ne {def} {pop pop} ifelse} forall
  /Encoding WinAnsiEncoding def
  currentdict
end
/Courier-BoldOblique exch definefont pop
/Courier-Oblique findfont
dup length dict begin
  {1 index /FID ne {def} {pop pop} ifelse} forall
  /Encoding WinAnsiEncoding def
  currentdict
end
/Courier-Oblique exch definefont pop
/Times-Roman findfont
dup length dict begin
  {1 index /FID ne {def} {pop pop} ifelse} forall
  /Encoding WinAnsiEncoding def
  currentdict
end
/Times-Roman exch definefont pop
/Helvetica-BoldOblique findfont
dup length dict begin
  {1 index /FID ne {def} {pop pop} ifelse} forall
  /Encoding WinAnsiEncoding def
  currentdict
end
/Helvetica-BoldOblique exch definefont pop
/Helvetica-Bold findfont
dup length dict begin
  {1 index /FID ne {def} {pop pop} ifelse} forall
  /Encoding WinAnsiEncoding def
  currentdict
end
/Helvetica-Bold exch definefont pop
/Helvetica-Oblique findfont
dup length dict begin
  {1 index /FID ne {def} {pop pop} ifelse} forall
  /Encoding WinAnsiEncoding def
  currentdict
end
/Helvetica-Oblique exch definefont pop
/Times-BoldItalic findfont
dup length dict begin
  {1 index /FID ne {def} {pop pop} ifelse} forall
  /Encoding WinAnsiEncoding def
  currentdict
end
/Times-BoldItalic exch definefont pop
/Courier findfont
dup length dict begin
  {1 index /FID ne {def} {pop pop} ifelse} forall
  /Encoding WinAnsiEncoding def
  currentdict
end
/Courier exch definefont pop
/Times-Italic findfont
dup length dict begin
  {1 index /FID ne {def} {pop pop} ifelse} forall
  /Encoding WinAnsiEncoding def
  currentdict
end
/Times-Italic exch definefont pop
/Times-Bold findfont
dup length dict begin
  {1 index /FID ne {def} {pop pop} ifelse} forall
  /Encoding WinAnsiEncoding def
  currentdict
end
/Times-Bold exch definefont pop
%FOPEndFontReencode
%%EndProlog
%%Page: 1 1
%%PageBoundingBox: 0 0 813 736
%%BeginPageSetup
[1 0 0 -1 0 736] CT
%%EndPageSetup
GS
1 GC
N
0 0 813 736 re
f
GR
GS
1 GC
N
0 0 813 736 re
f
GR
GS
1 GC
N
105.5 289 M
366.5 289 L
366.5 55 L
105.5 55 L
cp
f
GR
GS
0.149 GC
2 setlinecap
1 LJ
0.5 LW
N
105.5 289 M
366.5 289 L
S
GR
GS
0.149 GC
2 setlinecap
1 LJ
0.5 LW
N
105.5 289 M
105.5 286.39 L
S
GR
GS
0.149 GC
2 setlinecap
1 LJ
0.5 LW
N
170.75 289 M
170.75 286.39 L
S
GR
GS
0.149 GC
2 setlinecap
1 LJ
0.5 LW
N
236 289 M
236 286.39 L
S
GR
GS
0.149 GC
2 setlinecap
1 LJ
0.5 LW
N
301.25 289 M
301.25 286.39 L
S
GR
GS
0.149 GC
2 setlinecap
1 LJ
0.5 LW
N
366.5 289 M
366.5 286.39 L
S
GR
GS
[0.76604 0.64279 -0.64279 0.76604 105.5 292.99997] CT
0.149 GC
/Helvetica 10 F
GS
[1 0 0 1 0 0] CT
0 10 moveto 
1 -1 scale
(Grund Freq. Taktung) t 
GR
GR
GS
[0.76604 0.64279 -0.64279 0.76604 170.75 292.99997] CT
0.149 GC
/Helvetica 10 F
GS
[1 0 0 1 0 0] CT
0 10 moveto 
1 -1 scale
(5. & 7. Eliminiert) t 
GR
GR
GS
[0.76604 0.64279 -0.64279 0.76604 236 292.99997] CT
0.149 GC
/Helvetica 10 F
GS
[1 0 0 1 0 0] CT
0 10 moveto 
1 -1 scale
(5., 7., 11.& 13 Elminiert) t 
GR
GR
GS
[0.76604 0.64279 -0.64279 0.76604 301.25 292.99997] CT
0.149 GC
/Helvetica 10 F
GS
[1 0 0 1 0 0] CT
0 10 moveto 
1 -1 scale
(Sin grob) t 
GR
GR
GS
[0.76604 0.64279 -0.64279 0.76604 366.5 292.99997] CT
0.149 GC
/Helvetica 10 F
GS
[1 0 0 1 0 0] CT
0 10 moveto 
1 -1 scale
(Sin fein) t 
GR
GR
GS
0.149 GC
2 setlinecap
1 LJ
0.5 LW
N
105.5 289 M
105.5 55 L
S
GR
GS
0.149 GC
2 setlinecap
1 LJ
0.5 LW
N
105.5 289 M
108.11 289 L
S
GR
GS
0.149 GC
2 setlinecap
1 LJ
0.5 LW
N
105.5 265.6 M
108.11 265.6 L
S
GR
GS
0.149 GC
2 setlinecap
1 LJ
0.5 LW
N
105.5 242.2 M
108.11 242.2 L
S
GR
GS
0.149 GC
2 setlinecap
1 LJ
0.5 LW
N
105.5 218.8 M
108.11 218.8 L
S
GR
GS
0.149 GC
2 setlinecap
1 LJ
0.5 LW
N
105.5 195.4 M
108.11 195.4 L
S
GR
GS
0.149 GC
2 setlinecap
1 LJ
0.5 LW
N
105.5 172 M
108.11 172 L
S
GR
GS
0.149 GC
2 setlinecap
1 LJ
0.5 LW
N
105.5 148.6 M
108.11 148.6 L
S
GR
GS
0.149 GC
2 setlinecap
1 LJ
0.5 LW
N
105.5 125.2 M
108.11 125.2 L
S
GR
GS
0.149 GC
2 setlinecap
1 LJ
0.5 LW
N
105.5 101.8 M
108.11 101.8 L
S
GR
GS
0.149 GC
2 setlinecap
1 LJ
0.5 LW
N
105.5 78.4 M
108.11 78.4 L
S
GR
GS
0.149 GC
2 setlinecap
1 LJ
0.5 LW
N
105.5 55 M
108.11 55 L
S
GR
GS
[1 0 0 1 101.5 288.99997] CT
0.149 GC
/Helvetica 10 F
GS
[1 0 0 1 0 0] CT
-14 3.5 moveto 
1 -1 scale
(5.3) t 
GR
GR
GS
[1 0 0 1 101.5 265.59998] CT
0.149 GC
/Helvetica 10 F
GS
[1 0 0 1 0 0] CT
-14 3.5 moveto 
1 -1 scale
(5.4) t 
GR
GR
GS
[1 0 0 1 101.5 242.2] CT
0.149 GC
/Helvetica 10 F
GS
[1 0 0 1 0 0] CT
-14 3.5 moveto 
1 -1 scale
(5.5) t 
GR
GR
GS
[1 0 0 1 101.5 218.80002] CT
0.149 GC
/Helvetica 10 F
GS
[1 0 0 1 0 0] CT
-14 3.5 moveto 
1 -1 scale
(5.6) t 
GR
GR
GS
[1 0 0 1 101.5 195.40004] CT
0.149 GC
/Helvetica 10 F
GS
[1 0 0 1 0 0] CT
-14 3.5 moveto 
1 -1 scale
(5.7) t 
GR
GR
GS
[1 0 0 1 101.5 171.99995] CT
0.149 GC
/Helvetica 10 F
GS
[1 0 0 1 0 0] CT
-14 3.5 moveto 
1 -1 scale
(5.8) t 
GR
GR
GS
[1 0 0 1 101.5 148.59998] CT
0.149 GC
/Helvetica 10 F
GS
[1 0 0 1 0 0] CT
-14 3.5 moveto 
1 -1 scale
(5.9) t 
GR
GR
GS
[1 0 0 1 101.5 125.2] CT
0.149 GC
/Helvetica 10 F
GS
[1 0 0 1 0 0] CT
-6 3.5 moveto 
1 -1 scale
(6) t 
GR
GR
GS
[1 0 0 1 101.5 101.80003] CT
0.149 GC
/Helvetica 10 F
GS
[1 0 0 1 0 0] CT
-14 3.5 moveto 
1 -1 scale
(6.1) t 
GR
GR
GS
[1 0 0 1 101.5 78.40005] CT
0.149 GC
/Helvetica 10 F
GS
[1 0 0 1 0 0] CT
-14 3.5 moveto 
1 -1 scale
(6.2) t 
GR
GR
GS
[1 0 0 1 101.5 54.99995] CT
0.149 GC
/Helvetica 10 F
GS
[1 0 0 1 0 0] CT
-14 3.5 moveto 
1 -1 scale
(6.3) t 
GR
GR
GS
[0 -1 1 0 84.5 171.99985] CT
0.149 GC
/Helvetica 11 F
GS
[1 0 0 1 0 0] CT
-6.5 -3 moveto 
1 -1 scale
([A]) t 
GR
GR
GS
[1 0 0 1 236.00021 53.62496] CT
/Helvetica-Bold 11 F
GS
[1 0 0 1 0 0] CT
-16 -3 moveto 
1 -1 scale
(Strom) t 
GR
GR
GS
0 0.447 0.741 RC
1 LJ
0.5 LW
N
105.5 55.936 M
170.75 183.232 L
236 223.246 L
301.25 59.446 L
366.5 146.026 L
S
GR
GS
[1 0 0 1 105.5 55.936] CT
0 0.447 0.741 RC
10.0 ML
0.5 LW
N
-2.121 -2.121 M
2.121 2.121 L
-2.121 2.121 M
2.121 -2.121 L
S
GR
GS
[1 0 0 1 170.75 183.23204] CT
0 0.447 0.741 RC
10.0 ML
0.5 LW
N
-2.121 -2.121 M
2.121 2.121 L
-2.121 2.121 M
2.121 -2.121 L
S
GR
GS
[1 0 0 1 236 223.24603] CT
0 0.447 0.741 RC
10.0 ML
0.5 LW
N
-2.121 -2.121 M
2.121 2.121 L
-2.121 2.121 M
2.121 -2.121 L
S
GR
GS
[1 0 0 1 301.25 59.44597] CT
0 0.447 0.741 RC
10.0 ML
0.5 LW
N
-2.121 -2.121 M
2.121 2.121 L
-2.121 2.121 M
2.121 -2.121 L
S
GR
GS
[1 0 0 1 366.5 146.02605] CT
0 0.447 0.741 RC
10.0 ML
0.5 LW
N
-2.121 -2.121 M
2.121 2.121 L
-2.121 2.121 M
2.121 -2.121 L
S
GR
GS
0.851 0.325 0.098 RC
1 LJ
0.5 LW
N
105.5 267.004 M
170.75 281.278 L
236 278.47 L
301.25 134.092 L
366.5 168.724 L
S
GR
GS
[1 0 0 1 105.5 267.004] CT
0.851 0.325 0.098 RC
10.0 ML
0.5 LW
N
2.5 -0.5 M
2.5 -2.157 1.157 -3.5 -0.5 -3.5 C
-2.157 -3.5 -3.5 -2.157 -3.5 -0.5 C
-3.5 1.157 -2.157 2.5 -0.5 2.5 C
1.157 2.5 2.5 1.157 2.5 -0.5 C
S
GR
GS
[1 0 0 1 170.75 281.27795] CT
0.851 0.325 0.098 RC
10.0 ML
0.5 LW
N
2.5 -0.5 M
2.5 -2.157 1.157 -3.5 -0.5 -3.5 C
-2.157 -3.5 -3.5 -2.157 -3.5 -0.5 C
-3.5 1.157 -2.157 2.5 -0.5 2.5 C
1.157 2.5 2.5 1.157 2.5 -0.5 C
S
GR
GS
[1 0 0 1 236 278.47006] CT
0.851 0.325 0.098 RC
10.0 ML
0.5 LW
N
2.5 -0.5 M
2.5 -2.157 1.157 -3.5 -0.5 -3.5 C
-2.157 -3.5 -3.5 -2.157 -3.5 -0.5 C
-3.5 1.157 -2.157 2.5 -0.5 2.5 C
1.157 2.5 2.5 1.157 2.5 -0.5 C
S
GR
GS
[1 0 0 1 301.25 134.09203] CT
0.851 0.325 0.098 RC
10.0 ML
0.5 LW
N
2.5 -0.5 M
2.5 -2.157 1.157 -3.5 -0.5 -3.5 C
-2.157 -3.5 -3.5 -2.157 -3.5 -0.5 C
-3.5 1.157 -2.157 2.5 -0.5 2.5 C
1.157 2.5 2.5 1.157 2.5 -0.5 C
S
GR
GS
[1 0 0 1 366.5 168.72397] CT
0.851 0.325 0.098 RC
10.0 ML
0.5 LW
N
2.5 -0.5 M
2.5 -2.157 1.157 -3.5 -0.5 -3.5 C
-2.157 -3.5 -3.5 -2.157 -3.5 -0.5 C
-3.5 1.157 -2.157 2.5 -0.5 2.5 C
1.157 2.5 2.5 1.157 2.5 -0.5 C
S
GR
GS
1 GC
N
207.5 96.5 M
207.5 62 L
279.5 62 L
279.5 96.5 L
cp
f
GR
GS
[1 0 0 1 245 74] CT
/Helvetica 9 F
GS
[1 0 0 1 0 0] CT
0 0 moveto 
1 -1 scale
(I) t 
GR
GR
GS
[1 0 0 1 248 78] CT
/Helvetica 7.2 F
GS
[1 0 0 1 0 0] CT
0 0 moveto 
1 -1 scale
(eff) t 
GR
GR
GS
[1 0 0 1 256 74] CT
/Helvetica 9 F
GS
[1 0 0 1 0 0] CT
0 0 moveto 
1 -1 scale
([A]) t 
GR
GR
GS
0 0.447 0.741 RC
1 LJ
0.5 LW
N
211.5 71.5 M
241.5 71.5 L
S
GR
GS
[1 0 0 1 226.5 71.5] CT
0 0.447 0.741 RC
10.0 ML
0.5 LW
N
-2.121 -2.121 M
2.121 2.121 L
-2.121 2.121 M
2.121 -2.121 L
S
GR
GS
[1 0 0 1 245 89] CT
/Helvetica 9 F
GS
[1 0 0 1 0 0] CT
0 0 moveto 
1 -1 scale
(I) t 
GR
GR
GS
[1 0 0 1 248 93] CT
/Helvetica 7.2 F
GS
[1 0 0 1 0 0] CT
0 0 moveto 
1 -1 scale
(mu=1) t 
GR
GR
GS
[1 0 0 1 266 89] CT
/Helvetica 9 F
GS
[1 0 0 1 0 0] CT
0 0 moveto 
1 -1 scale
([A]) t 
GR
GR
GS
0.851 0.325 0.098 RC
1 LJ
0.5 LW
N
211.5 87 M
241.5 87 L
S
GR
GS
[1 0 0 1 226.5 87] CT
0.851 0.325 0.098 RC
10.0 ML
0.5 LW
N
2.5 -0.5 M
2.5 -2.157 1.157 -3.5 -0.5 -3.5 C
-2.157 -3.5 -3.5 -2.157 -3.5 -0.5 C
-3.5 1.157 -2.157 2.5 -0.5 2.5 C
1.157 2.5 2.5 1.157 2.5 -0.5 C
S
GR
GS
0.149 GC
10.0 ML
0.5 LW
N
207.5 96.5 M
207.5 62 L
279.5 62 L
279.5 96.5 L
cp
S
GR
GS
1 GC
N
463.5 289 M
724.5 289 L
724.5 55 L
463.5 55 L
cp
f
GR
GS
0.149 GC
2 setlinecap
1 LJ
0.5 LW
N
463.5 289 M
724.5 289 L
S
GR
GS
0.149 GC
2 setlinecap
1 LJ
0.5 LW
N
463.5 55 M
724.5 55 L
S
GR
GS
0.149 GC
2 setlinecap
1 LJ
0.5 LW
N
463.5 289 M
463.5 286.39 L
S
GR
GS
0.149 GC
2 setlinecap
1 LJ
0.5 LW
N
528.75 289 M
528.75 286.39 L
S
GR
GS
0.149 GC
2 setlinecap
1 LJ
0.5 LW
N
594 289 M
594 286.39 L
S
GR
GS
0.149 GC
2 setlinecap
1 LJ
0.5 LW
N
659.25 289 M
659.25 286.39 L
S
GR
GS
0.149 GC
2 setlinecap
1 LJ
0.5 LW
N
724.5 289 M
724.5 286.39 L
S
GR
GS
0.149 GC
2 setlinecap
1 LJ
0.5 LW
N
463.5 55 M
463.5 57.61 L
S
GR
GS
0.149 GC
2 setlinecap
1 LJ
0.5 LW
N
528.75 55 M
528.75 57.61 L
S
GR
GS
0.149 GC
2 setlinecap
1 LJ
0.5 LW
N
594 55 M
594 57.61 L
S
GR
GS
0.149 GC
2 setlinecap
1 LJ
0.5 LW
N
659.25 55 M
659.25 57.61 L
S
GR
GS
0.149 GC
2 setlinecap
1 LJ
0.5 LW
N
724.5 55 M
724.5 57.61 L
S
GR
GS
[0.76604 0.64279 -0.64279 0.76604 463.5 293] CT
0.149 GC
/Helvetica 10 F
GS
[1 0 0 1 0 0] CT
0 10 moveto 
1 -1 scale
(Grund Freq. Taktung) t 
GR
GR
GS
[0.76604 0.64279 -0.64279 0.76604 528.75 293] CT
0.149 GC
/Helvetica 10 F
GS
[1 0 0 1 0 0] CT
0 10 moveto 
1 -1 scale
(5. & 7. Eliminiert) t 
GR
GR
GS
[0.76604 0.64279 -0.64279 0.76604 594 293] CT
0.149 GC
/Helvetica 10 F
GS
[1 0 0 1 0 0] CT
0 10 moveto 
1 -1 scale
(5., 7., 11.& 13 Elminiert) t 
GR
GR
GS
[0.76604 0.64279 -0.64279 0.76604 659.25 293] CT
0.149 GC
/Helvetica 10 F
GS
[1 0 0 1 0 0] CT
0 10 moveto 
1 -1 scale
(Sin grob) t 
GR
GR
GS
[0.76604 0.64279 -0.64279 0.76604 724.5 293] CT
0.149 GC
/Helvetica 10 F
GS
[1 0 0 1 0 0] CT
0 10 moveto 
1 -1 scale
(Sin fein) t 
GR
GR
GS
0.149 GC
2 setlinecap
1 LJ
0.5 LW
N
463.5 289 M
463.5 55 L
S
GR
GS
0.149 GC
2 setlinecap
1 LJ
0.5 LW
N
724.5 289 M
724.5 55 L
S
GR
GS
0.149 GC
2 setlinecap
1 LJ
0.5 LW
N
463.5 289 M
466.11 289 L
S
GR
GS
0.149 GC
2 setlinecap
1 LJ
0.5 LW
N
463.5 263 M
466.11 263 L
S
GR
GS
0.149 GC
2 setlinecap
1 LJ
0.5 LW
N
463.5 237 M
466.11 237 L
S
GR
GS
0.149 GC
2 setlinecap
1 LJ
0.5 LW
N
463.5 211 M
466.11 211 L
S
GR
GS
0.149 GC
2 setlinecap
1 LJ
0.5 LW
N
463.5 185 M
466.11 185 L
S
GR
GS
0.149 GC
2 setlinecap
1 LJ
0.5 LW
N
463.5 159 M
466.11 159 L
S
GR
GS
0.149 GC
2 setlinecap
1 LJ
0.5 LW
N
463.5 133 M
466.11 133 L
S
GR
GS
0.149 GC
2 setlinecap
1 LJ
0.5 LW
N
463.5 107 M
466.11 107 L
S
GR
GS
0.149 GC
2 setlinecap
1 LJ
0.5 LW
N
463.5 81 M
466.11 81 L
S
GR
GS
0.149 GC
2 setlinecap
1 LJ
0.5 LW
N
463.5 55 M
466.11 55 L
S
GR
GS
0.149 GC
2 setlinecap
1 LJ
0.5 LW
N
724.5 289 M
721.89 289 L
S
GR
GS
0.149 GC
2 setlinecap
1 LJ
0.5 LW
N
724.5 263 M
721.89 263 L
S
GR
GS
0.149 GC
2 setlinecap
1 LJ
0.5 LW
N
724.5 237 M
721.89 237 L
S
GR
GS
0.149 GC
2 setlinecap
1 LJ
0.5 LW
N
724.5 211 M
721.89 211 L
S
GR
GS
0.149 GC
2 setlinecap
1 LJ
0.5 LW
N
724.5 185 M
721.89 185 L
S
GR
GS
0.149 GC
2 setlinecap
1 LJ
0.5 LW
N
724.5 159 M
721.89 159 L
S
GR
GS
0.149 GC
2 setlinecap
1 LJ
0.5 LW
N
724.5 133 M
721.89 133 L
S
GR
GS
0.149 GC
2 setlinecap
1 LJ
0.5 LW
N
724.5 107 M
721.89 107 L
S
GR
GS
0.149 GC
2 setlinecap
1 LJ
0.5 LW
N
724.5 81 M
721.89 81 L
S
GR
GS
0.149 GC
2 setlinecap
1 LJ
0.5 LW
N
724.5 55 M
721.89 55 L
S
GR
GS
[1 0 0 1 459.5 289] CT
0.149 GC
/Helvetica 10 F
GS
[1 0 0 1 0 0] CT
-12 3.5 moveto 
1 -1 scale
(15) t 
GR
GR
GS
[1 0 0 1 459.5 263] CT
0.149 GC
/Helvetica 10 F
GS
[1 0 0 1 0 0] CT
-12 3.5 moveto 
1 -1 scale
(20) t 
GR
GR
GS
[1 0 0 1 459.5 237] CT
0.149 GC
/Helvetica 10 F
GS
[1 0 0 1 0 0] CT
-12 3.5 moveto 
1 -1 scale
(25) t 
GR
GR
GS
[1 0 0 1 459.5 211] CT
0.149 GC
/Helvetica 10 F
GS
[1 0 0 1 0 0] CT
-12 3.5 moveto 
1 -1 scale
(30) t 
GR
GR
GS
[1 0 0 1 459.5 185] CT
0.149 GC
/Helvetica 10 F
GS
[1 0 0 1 0 0] CT
-12 3.5 moveto 
1 -1 scale
(35) t 
GR
GR
GS
[1 0 0 1 459.5 159] CT
0.149 GC
/Helvetica 10 F
GS
[1 0 0 1 0 0] CT
-12 3.5 moveto 
1 -1 scale
(40) t 
GR
GR
GS
[1 0 0 1 459.5 133] CT
0.149 GC
/Helvetica 10 F
GS
[1 0 0 1 0 0] CT
-12 3.5 moveto 
1 -1 scale
(45) t 
GR
GR
GS
[1 0 0 1 459.5 107] CT
0.149 GC
/Helvetica 10 F
GS
[1 0 0 1 0 0] CT
-12 3.5 moveto 
1 -1 scale
(50) t 
GR
GR
GS
[1 0 0 1 459.5 81] CT
0.149 GC
/Helvetica 10 F
GS
[1 0 0 1 0 0] CT
-12 3.5 moveto 
1 -1 scale
(55) t 
GR
GR
GS
[1 0 0 1 459.5 55] CT
0.149 GC
/Helvetica 10 F
GS
[1 0 0 1 0 0] CT
-12 3.5 moveto 
1 -1 scale
(60) t 
GR
GR
GS
[0 -1 1 0 445 171.99988] CT
0.149 GC
/Helvetica 11 F
GS
[1 0 0 1 0 0] CT
-8.5 -3 moveto 
1 -1 scale
([%]) t 
GR
GR
GS
[1 0 0 1 594.00055 53.625] CT
/Helvetica-Bold 11 F
GS
[1 0 0 1 0 0] CT
-27 -3 moveto 
1 -1 scale
(Klirrfaktor) t 
GR
GR
GS
0 0.447 0.741 RC
1 LJ
0.5 LW
N
463.5 58.484 M
528.75 155.256 L
594 210.792 L
659.25 196.804 L
724.5 277.612 L
S
GR
GS
[1 0 0 1 463.5 58.48399] CT
0 0.447 0.741 RC
10.0 ML
0.5 LW
N
2.5 -0.5 M
2.5 -2.157 1.157 -3.5 -0.5 -3.5 C
-2.157 -3.5 -3.5 -2.157 -3.5 -0.5 C
-3.5 1.157 -2.157 2.5 -0.5 2.5 C
1.157 2.5 2.5 1.157 2.5 -0.5 C
S
GR
GS
[1 0 0 1 528.75 155.256] CT
0 0.447 0.741 RC
10.0 ML
0.5 LW
N
2.5 -0.5 M
2.5 -2.157 1.157 -3.5 -0.5 -3.5 C
-2.157 -3.5 -3.5 -2.157 -3.5 -0.5 C
-3.5 1.157 -2.157 2.5 -0.5 2.5 C
1.157 2.5 2.5 1.157 2.5 -0.5 C
S
GR
GS
[1 0 0 1 594 210.79199] CT
0 0.447 0.741 RC
10.0 ML
0.5 LW
N
2.5 -0.5 M
2.5 -2.157 1.157 -3.5 -0.5 -3.5 C
-2.157 -3.5 -3.5 -2.157 -3.5 -0.5 C
-3.5 1.157 -2.157 2.5 -0.5 2.5 C
1.157 2.5 2.5 1.157 2.5 -0.5 C
S
GR
GS
[1 0 0 1 659.25 196.804] CT
0 0.447 0.741 RC
10.0 ML
0.5 LW
N
2.5 -0.5 M
2.5 -2.157 1.157 -3.5 -0.5 -3.5 C
-2.157 -3.5 -3.5 -2.157 -3.5 -0.5 C
-3.5 1.157 -2.157 2.5 -0.5 2.5 C
1.157 2.5 2.5 1.157 2.5 -0.5 C
S
GR
GS
[1 0 0 1 724.5 277.612] CT
0 0.447 0.741 RC
10.0 ML
0.5 LW
N
2.5 -0.5 M
2.5 -2.157 1.157 -3.5 -0.5 -3.5 C
-2.157 -3.5 -3.5 -2.157 -3.5 -0.5 C
-3.5 1.157 -2.157 2.5 -0.5 2.5 C
1.157 2.5 2.5 1.157 2.5 -0.5 C
S
GR
GS
1 GC
N
639 80 M
639 65 L
714.5 65 L
714.5 80 L
cp
f
GR
GS
[1 0 0 1 676 72.5] CT
/Helvetica 9 F
GS
[1 0 0 1 0 0] CT
0 3.5 moveto 
1 -1 scale
(THD [%]) t 
GR
GR
GS
0 0.447 0.741 RC
1 LJ
0.5 LW
N
643 72.5 M
673 72.5 L
S
GR
GS
[1 0 0 1 658 72.5] CT
0 0.447 0.741 RC
10.0 ML
0.5 LW
N
2.5 -0.5 M
2.5 -2.157 1.157 -3.5 -0.5 -3.5 C
-2.157 -3.5 -3.5 -2.157 -3.5 -0.5 C
-3.5 1.157 -2.157 2.5 -0.5 2.5 C
1.157 2.5 2.5 1.157 2.5 -0.5 C
S
GR
GS
0.149 GC
10.0 ML
0.5 LW
N
639 80 M
639 65 L
714.5 65 L
714.5 80 L
cp
S
GR
GS
1 GC
N
105.5 637.5 M
366.5 637.5 L
366.5 404 L
105.5 404 L
cp
f
GR
GS
0.149 GC
2 setlinecap
1 LJ
0.5 LW
N
105.5 637.5 M
366.5 637.5 L
S
GR
GS
0.149 GC
2 setlinecap
1 LJ
0.5 LW
N
105.5 637.5 M
105.5 634.89 L
S
GR
GS
0.149 GC
2 setlinecap
1 LJ
0.5 LW
N
170.75 637.5 M
170.75 634.89 L
S
GR
GS
0.149 GC
2 setlinecap
1 LJ
0.5 LW
N
236 637.5 M
236 634.89 L
S
GR
GS
0.149 GC
2 setlinecap
1 LJ
0.5 LW
N
301.25 637.5 M
301.25 634.89 L
S
GR
GS
0.149 GC
2 setlinecap
1 LJ
0.5 LW
N
366.5 637.5 M
366.5 634.89 L
S
GR
GS
[0.76604 0.64279 -0.64279 0.76604 105.5 641.5] CT
0.149 GC
/Helvetica 10 F
GS
[1 0 0 1 0 0] CT
0 10 moveto 
1 -1 scale
(Grund Freq. Taktung) t 
GR
GR
GS
[0.76604 0.64279 -0.64279 0.76604 170.75 641.5] CT
0.149 GC
/Helvetica 10 F
GS
[1 0 0 1 0 0] CT
0 10 moveto 
1 -1 scale
(5. & 7. Eliminiert) t 
GR
GR
GS
[0.76604 0.64279 -0.64279 0.76604 236 641.5] CT
0.149 GC
/Helvetica 10 F
GS
[1 0 0 1 0 0] CT
0 10 moveto 
1 -1 scale
(5., 7., 11.& 13 Elminiert) t 
GR
GR
GS
[0.76604 0.64279 -0.64279 0.76604 301.25 641.5] CT
0.149 GC
/Helvetica 10 F
GS
[1 0 0 1 0 0] CT
0 10 moveto 
1 -1 scale
(Sin grob) t 
GR
GR
GS
[0.76604 0.64279 -0.64279 0.76604 366.5 641.5] CT
0.149 GC
/Helvetica 10 F
GS
[1 0 0 1 0 0] CT
0 10 moveto 
1 -1 scale
(Sin fein) t 
GR
GR
GS
0.149 GC
2 setlinecap
1 LJ
0.5 LW
N
105.5 637.5 M
105.5 404 L
S
GR
GS
0.149 GC
2 setlinecap
1 LJ
0.5 LW
N
105.5 637.5 M
108.11 637.5 L
S
GR
GS
0.149 GC
2 setlinecap
1 LJ
0.5 LW
N
105.5 604.143 M
108.11 604.143 L
S
GR
GS
0.149 GC
2 setlinecap
1 LJ
0.5 LW
N
105.5 570.786 M
108.11 570.786 L
S
GR
GS
0.149 GC
2 setlinecap
1 LJ
0.5 LW
N
105.5 537.429 M
108.11 537.429 L
S
GR
GS
0.149 GC
2 setlinecap
1 LJ
0.5 LW
N
105.5 504.071 M
108.11 504.071 L
S
GR
GS
0.149 GC
2 setlinecap
1 LJ
0.5 LW
N
105.5 470.714 M
108.11 470.714 L
S
GR
GS
0.149 GC
2 setlinecap
1 LJ
0.5 LW
N
105.5 437.357 M
108.11 437.357 L
S
GR
GS
0.149 GC
2 setlinecap
1 LJ
0.5 LW
N
105.5 404 M
108.11 404 L
S
GR
GS
[1 0 0 1 101.5 637.5] CT
0.149 GC
/Helvetica 10 F
GS
[1 0 0 1 0 0] CT
-6 3.5 moveto 
1 -1 scale
(0) t 
GR
GR
GS
[1 0 0 1 101.5 604.14288] CT
0.149 GC
/Helvetica 10 F
GS
[1 0 0 1 0 0] CT
-17 3.5 moveto 
1 -1 scale
(200) t 
GR
GR
GS
[1 0 0 1 101.5 570.78571] CT
0.149 GC
/Helvetica 10 F
GS
[1 0 0 1 0 0] CT
-17 3.5 moveto 
1 -1 scale
(400) t 
GR
GR
GS
[1 0 0 1 101.5 537.42859] CT
0.149 GC
/Helvetica 10 F
GS
[1 0 0 1 0 0] CT
-17 3.5 moveto 
1 -1 scale
(600) t 
GR
GR
GS
[1 0 0 1 101.5 504.07144] CT
0.149 GC
/Helvetica 10 F
GS
[1 0 0 1 0 0] CT
-17 3.5 moveto 
1 -1 scale
(800) t 
GR
GR
GS
[1 0 0 1 101.5 470.71429] CT
0.149 GC
/Helvetica 10 F
GS
[1 0 0 1 0 0] CT
-23 3.5 moveto 
1 -1 scale
(1000) t 
GR
GR
GS
[1 0 0 1 101.5 437.35715] CT
0.149 GC
/Helvetica 10 F
GS
[1 0 0 1 0 0] CT
-23 3.5 moveto 
1 -1 scale
(1200) t 
GR
GR
GS
[1 0 0 1 101.5 404] CT
0.149 GC
/Helvetica 10 F
GS
[1 0 0 1 0 0] CT
-23 3.5 moveto 
1 -1 scale
(1400) t 
GR
GR
GS
[0 -1 1 0 76 520.74988] CT
0.149 GC
/Helvetica 11 F
GS
[1 0 0 1 0 0] CT
-8 -3 moveto 
1 -1 scale
([W]) t 
GR
GR
GS
[1 0 0 1 236.00021 402.625] CT
/Helvetica-Bold 11 F
GS
[1 0 0 1 0 0] CT
-23 -3 moveto 
1 -1 scale
(Leistung) t 
GR
GR
GS
0 0.447 0.741 RC
1 LJ
0.5 LW
N
105.5 419.461 M
170.75 427.016 L
236 430.686 L
301.25 425.132 L
366.5 428.201 L
S
GR
GS
[1 0 0 1 105.5 419.46103] CT
0 0.447 0.741 RC
10.0 ML
0.5 LW
N
-2.121 -2.121 M
2.121 2.121 L
-2.121 2.121 M
2.121 -2.121 L
S
GR
GS
[1 0 0 1 170.75 427.01642] CT
0 0.447 0.741 RC
10.0 ML
0.5 LW
N
-2.121 -2.121 M
2.121 2.121 L
-2.121 2.121 M
2.121 -2.121 L
S
GR
GS
[1 0 0 1 236 430.6857] CT
0 0.447 0.741 RC
10.0 ML
0.5 LW
N
-2.121 -2.121 M
2.121 2.121 L
-2.121 2.121 M
2.121 -2.121 L
S
GR
GS
[1 0 0 1 301.25 425.13174] CT
0 0.447 0.741 RC
10.0 ML
0.5 LW
N
-2.121 -2.121 M
2.121 2.121 L
-2.121 2.121 M
2.121 -2.121 L
S
GR
GS
[1 0 0 1 366.5 428.20059] CT
0 0.447 0.741 RC
10.0 ML
0.5 LW
N
-2.121 -2.121 M
2.121 2.121 L
-2.121 2.121 M
2.121 -2.121 L
S
GR
GS
0.851 0.325 0.098 RC
1 LJ
0.5 LW
N
105.5 456.425 M
170.75 459.108 L
236 460.506 L
301.25 462.802 L
366.5 460.865 L
S
GR
GS
[1 0 0 1 105.5 456.42514] CT
0.851 0.325 0.098 RC
10.0 ML
0.5 LW
N
2.5 -0.5 M
2.5 -2.157 1.157 -3.5 -0.5 -3.5 C
-2.157 -3.5 -3.5 -2.157 -3.5 -0.5 C
-3.5 1.157 -2.157 2.5 -0.5 2.5 C
1.157 2.5 2.5 1.157 2.5 -0.5 C
S
GR
GS
[1 0 0 1 170.75 459.10846] CT
0.851 0.325 0.098 RC
10.0 ML
0.5 LW
N
2.5 -0.5 M
2.5 -2.157 1.157 -3.5 -0.5 -3.5 C
-2.157 -3.5 -3.5 -2.157 -3.5 -0.5 C
-3.5 1.157 -2.157 2.5 -0.5 2.5 C
1.157 2.5 2.5 1.157 2.5 -0.5 C
S
GR
GS
[1 0 0 1 236 460.50571] CT
0.851 0.325 0.098 RC
10.0 ML
0.5 LW
N
2.5 -0.5 M
2.5 -2.157 1.157 -3.5 -0.5 -3.5 C
-2.157 -3.5 -3.5 -2.157 -3.5 -0.5 C
-3.5 1.157 -2.157 2.5 -0.5 2.5 C
1.157 2.5 2.5 1.157 2.5 -0.5 C
S
GR
GS
[1 0 0 1 301.25 462.80154] CT
0.851 0.325 0.098 RC
10.0 ML
0.5 LW
N
2.5 -0.5 M
2.5 -2.157 1.157 -3.5 -0.5 -3.5 C
-2.157 -3.5 -3.5 -2.157 -3.5 -0.5 C
-3.5 1.157 -2.157 2.5 -0.5 2.5 C
1.157 2.5 2.5 1.157 2.5 -0.5 C
S
GR
GS
[1 0 0 1 366.5 460.86545] CT
0.851 0.325 0.098 RC
10.0 ML
0.5 LW
N
2.5 -0.5 M
2.5 -2.157 1.157 -3.5 -0.5 -3.5 C
-2.157 -3.5 -3.5 -2.157 -3.5 -0.5 C
-3.5 1.157 -2.157 2.5 -0.5 2.5 C
1.157 2.5 2.5 1.157 2.5 -0.5 C
S
GR
GS
0.929 0.694 0.125 RC
1 LJ
0.5 LW
N
105.5 600.536 M
170.75 605.408 L
236 607.68 L
301.25 599.83 L
366.5 604.835 L
S
GR
GS
[1 0 0 1 105.5 600.53589] CT
0.929 0.694 0.125 RC
10.0 ML
0.5 LW
N
0 -3 M
0 3 L
-3 0 M
3 0 L
-2.121 -2.121 M
2.121 2.121 L
-2.121 2.121 M
2.121 -2.121 L
S
GR
GS
[1 0 0 1 170.75 605.40796] CT
0.929 0.694 0.125 RC
10.0 ML
0.5 LW
N
0 -3 M
0 3 L
-3 0 M
3 0 L
-2.121 -2.121 M
2.121 2.121 L
-2.121 2.121 M
2.121 -2.121 L
S
GR
GS
[1 0 0 1 236 607.67999] CT
0.929 0.694 0.125 RC
10.0 ML
0.5 LW
N
0 -3 M
0 3 L
-3 0 M
3 0 L
-2.121 -2.121 M
2.121 2.121 L
-2.121 2.121 M
2.121 -2.121 L
S
GR
GS
[1 0 0 1 301.25 599.8302] CT
0.929 0.694 0.125 RC
10.0 ML
0.5 LW
N
0 -3 M
0 3 L
-3 0 M
3 0 L
-2.121 -2.121 M
2.121 2.121 L
-2.121 2.121 M
2.121 -2.121 L
S
GR
GS
[1 0 0 1 366.5 604.83514] CT
0.929 0.694 0.125 RC
10.0 ML
0.5 LW
N
0 -3 M
0 3 L
-3 0 M
3 0 L
-2.121 -2.121 M
2.121 2.121 L
-2.121 2.121 M
2.121 -2.121 L
S
GR
GS
1 GC
N
284 527 M
284 477 L
355.5 477 L
355.5 527 L
cp
f
GR
GS
[1 0 0 1 321 489] CT
/Helvetica 9 F
GS
[1 0 0 1 0 0] CT
0 0 moveto 
1 -1 scale
(P) t 
GR
GR
GS
[1 0 0 1 327 493] CT
/Helvetica 7.2 F
GS
[1 0 0 1 0 0] CT
0 0 moveto 
1 -1 scale
(ein) t 
GR
GR
GS
[1 0 0 1 337 489] CT
/Helvetica 9 F
GS
[1 0 0 1 0 0] CT
0 0 moveto 
1 -1 scale
([W]) t 
GR
GR
GS
0 0.447 0.741 RC
1 LJ
0.5 LW
N
288 486.5 M
318 486.5 L
S
GR
GS
[1 0 0 1 303 486.5] CT
0 0.447 0.741 RC
10.0 ML
0.5 LW
N
-2.121 -2.121 M
2.121 2.121 L
-2.121 2.121 M
2.121 -2.121 L
S
GR
GS
[1 0 0 1 321 504] CT
/Helvetica 9 F
GS
[1 0 0 1 0 0] CT
0 0 moveto 
1 -1 scale
(P) t 
GR
GR
GS
[1 0 0 1 327 508] CT
/Helvetica 7.2 F
GS
[1 0 0 1 0 0] CT
0 0 moveto 
1 -1 scale
(aus) t 
GR
GR
GS
[1 0 0 1 339 504] CT
/Helvetica 9 F
GS
[1 0 0 1 0 0] CT
0 0 moveto 
1 -1 scale
([W]) t 
GR
GR
GS
0.851 0.325 0.098 RC
1 LJ
0.5 LW
N
288 502 M
318 502 L
S
GR
GS
[1 0 0 1 303 502] CT
0.851 0.325 0.098 RC
10.0 ML
0.5 LW
N
2.5 -0.5 M
2.5 -2.157 1.157 -3.5 -0.5 -3.5 C
-2.157 -3.5 -3.5 -2.157 -3.5 -0.5 C
-3.5 1.157 -2.157 2.5 -0.5 2.5 C
1.157 2.5 2.5 1.157 2.5 -0.5 C
S
GR
GS
[1 0 0 1 321 520] CT
/Helvetica 9 F
GS
[1 0 0 1 0 0] CT
0 0 moveto 
1 -1 scale
(P) t 
GR
GR
GS
[1 0 0 1 327 524] CT
/Helvetica 7.2 F
GS
[1 0 0 1 0 0] CT
0 0 moveto 
1 -1 scale
(verlust) t 
GR
GR
GS
0.929 0.694 0.125 RC
1 LJ
0.5 LW
N
288 517.5 M
318 517.5 L
S
GR
GS
[1 0 0 1 303 517.5] CT
0.929 0.694 0.125 RC
10.0 ML
0.5 LW
N
0 -3 M
0 3 L
-3 0 M
3 0 L
-2.121 -2.121 M
2.121 2.121 L
-2.121 2.121 M
2.121 -2.121 L
S
GR
GS
0.149 GC
10.0 ML
0.5 LW
N
284 527 M
284 477 L
355.5 477 L
355.5 527 L
cp
S
GR
GS
1 GC
N
463.5 637.5 M
724.5 637.5 L
724.5 404 L
463.5 404 L
cp
f
GR
GS
0.149 GC
2 setlinecap
1 LJ
0.5 LW
N
463.5 637.5 M
724.5 637.5 L
S
GR
GS
0.149 GC
2 setlinecap
1 LJ
0.5 LW
N
463.5 404 M
724.5 404 L
S
GR
GS
0.149 GC
2 setlinecap
1 LJ
0.5 LW
N
463.5 637.5 M
463.5 634.89 L
S
GR
GS
0.149 GC
2 setlinecap
1 LJ
0.5 LW
N
528.75 637.5 M
528.75 634.89 L
S
GR
GS
0.149 GC
2 setlinecap
1 LJ
0.5 LW
N
594 637.5 M
594 634.89 L
S
GR
GS
0.149 GC
2 setlinecap
1 LJ
0.5 LW
N
659.25 637.5 M
659.25 634.89 L
S
GR
GS
0.149 GC
2 setlinecap
1 LJ
0.5 LW
N
724.5 637.5 M
724.5 634.89 L
S
GR
GS
0.149 GC
2 setlinecap
1 LJ
0.5 LW
N
463.5 404 M
463.5 406.61 L
S
GR
GS
0.149 GC
2 setlinecap
1 LJ
0.5 LW
N
528.75 404 M
528.75 406.61 L
S
GR
GS
0.149 GC
2 setlinecap
1 LJ
0.5 LW
N
594 404 M
594 406.61 L
S
GR
GS
0.149 GC
2 setlinecap
1 LJ
0.5 LW
N
659.25 404 M
659.25 406.61 L
S
GR
GS
0.149 GC
2 setlinecap
1 LJ
0.5 LW
N
724.5 404 M
724.5 406.61 L
S
GR
GS
[0.76604 0.64279 -0.64279 0.76604 463.5 641.5] CT
0.149 GC
/Helvetica 10 F
GS
[1 0 0 1 0 0] CT
0 10 moveto 
1 -1 scale
(Grund Freq. Taktung) t 
GR
GR
GS
[0.76604 0.64279 -0.64279 0.76604 528.75 641.5] CT
0.149 GC
/Helvetica 10 F
GS
[1 0 0 1 0 0] CT
0 10 moveto 
1 -1 scale
(5. & 7. Eliminiert) t 
GR
GR
GS
[0.76604 0.64279 -0.64279 0.76604 594 641.5] CT
0.149 GC
/Helvetica 10 F
GS
[1 0 0 1 0 0] CT
0 10 moveto 
1 -1 scale
(5., 7., 11.& 13 Elminiert) t 
GR
GR
GS
[0.76604 0.64279 -0.64279 0.76604 659.25 641.5] CT
0.149 GC
/Helvetica 10 F
GS
[1 0 0 1 0 0] CT
0 10 moveto 
1 -1 scale
(Sin grob) t 
GR
GR
GS
[0.76604 0.64279 -0.64279 0.76604 724.5 641.5] CT
0.149 GC
/Helvetica 10 F
GS
[1 0 0 1 0 0] CT
0 10 moveto 
1 -1 scale
(Sin fein) t 
GR
GR
GS
0.149 GC
2 setlinecap
1 LJ
0.5 LW
N
463.5 637.5 M
463.5 404 L
S
GR
GS
0.149 GC
2 setlinecap
1 LJ
0.5 LW
N
724.5 637.5 M
724.5 404 L
S
GR
GS
0.149 GC
2 setlinecap
1 LJ
0.5 LW
N
463.5 637.5 M
466.11 637.5 L
S
GR
GS
0.149 GC
2 setlinecap
1 LJ
0.5 LW
N
463.5 608.313 M
466.11 608.313 L
S
GR
GS
0.149 GC
2 setlinecap
1 LJ
0.5 LW
N
463.5 579.125 M
466.11 579.125 L
S
GR
GS
0.149 GC
2 setlinecap
1 LJ
0.5 LW
N
463.5 549.938 M
466.11 549.938 L
S
GR
GS
0.149 GC
2 setlinecap
1 LJ
0.5 LW
N
463.5 520.75 M
466.11 520.75 L
S
GR
GS
0.149 GC
2 setlinecap
1 LJ
0.5 LW
N
463.5 491.562 M
466.11 491.562 L
S
GR
GS
0.149 GC
2 setlinecap
1 LJ
0.5 LW
N
463.5 462.375 M
466.11 462.375 L
S
GR
GS
0.149 GC
2 setlinecap
1 LJ
0.5 LW
N
463.5 433.187 M
466.11 433.187 L
S
GR
GS
0.149 GC
2 setlinecap
1 LJ
0.5 LW
N
463.5 404 M
466.11 404 L
S
GR
GS
0.149 GC
2 setlinecap
1 LJ
0.5 LW
N
724.5 637.5 M
721.89 637.5 L
S
GR
GS
0.149 GC
2 setlinecap
1 LJ
0.5 LW
N
724.5 608.313 M
721.89 608.313 L
S
GR
GS
0.149 GC
2 setlinecap
1 LJ
0.5 LW
N
724.5 579.125 M
721.89 579.125 L
S
GR
GS
0.149 GC
2 setlinecap
1 LJ
0.5 LW
N
724.5 549.938 M
721.89 549.938 L
S
GR
GS
0.149 GC
2 setlinecap
1 LJ
0.5 LW
N
724.5 520.75 M
721.89 520.75 L
S
GR
GS
0.149 GC
2 setlinecap
1 LJ
0.5 LW
N
724.5 491.562 M
721.89 491.562 L
S
GR
GS
0.149 GC
2 setlinecap
1 LJ
0.5 LW
N
724.5 462.375 M
721.89 462.375 L
S
GR
GS
0.149 GC
2 setlinecap
1 LJ
0.5 LW
N
724.5 433.187 M
721.89 433.187 L
S
GR
GS
0.149 GC
2 setlinecap
1 LJ
0.5 LW
N
724.5 404 M
721.89 404 L
S
GR
GS
[1 0 0 1 459.5 637.50006] CT
0.149 GC
/Helvetica 10 F
GS
[1 0 0 1 0 0] CT
-20 3.5 moveto 
1 -1 scale
(0.82) t 
GR
GR
GS
[1 0 0 1 459.5 608.31256] CT
0.149 GC
/Helvetica 10 F
GS
[1 0 0 1 0 0] CT
-26 3.5 moveto 
1 -1 scale
(0.825) t 
GR
GR
GS
[1 0 0 1 459.5 579.12512] CT
0.149 GC
/Helvetica 10 F
GS
[1 0 0 1 0 0] CT
-20 3.5 moveto 
1 -1 scale
(0.83) t 
GR
GR
GS
[1 0 0 1 459.5 549.93762] CT
0.149 GC
/Helvetica 10 F
GS
[1 0 0 1 0 0] CT
-26 3.5 moveto 
1 -1 scale
(0.835) t 
GR
GR
GS
[1 0 0 1 459.5 520.75018] CT
0.149 GC
/Helvetica 10 F
GS
[1 0 0 1 0 0] CT
-20 3.5 moveto 
1 -1 scale
(0.84) t 
GR
GR
GS
[1 0 0 1 459.5 491.56235] CT
0.149 GC
/Helvetica 10 F
GS
[1 0 0 1 0 0] CT
-26 3.5 moveto 
1 -1 scale
(0.845) t 
GR
GR
GS
[1 0 0 1 459.5 462.37485] CT
0.149 GC
/Helvetica 10 F
GS
[1 0 0 1 0 0] CT
-20 3.5 moveto 
1 -1 scale
(0.85) t 
GR
GR
GS
[1 0 0 1 459.5 433.18738] CT
0.149 GC
/Helvetica 10 F
GS
[1 0 0 1 0 0] CT
-26 3.5 moveto 
1 -1 scale
(0.855) t 
GR
GR
GS
[1 0 0 1 459.5 403.99991] CT
0.149 GC
/Helvetica 10 F
GS
[1 0 0 1 0 0] CT
-20 3.5 moveto 
1 -1 scale
(0.86) t 
GR
GR
GS
[0 -1 1 0 431 520.74982] CT
0.149 GC
/Helvetica 11 F
GS
[1 0 0 1 0 0] CT
-8.5 -3 moveto 
1 -1 scale
([%]) t 
GR
GR
GS
[1 0 0 1 594.00055 402.62485] CT
/Helvetica-Bold 11 F
GS
[1 0 0 1 0 0] CT
-37 -3 moveto 
1 -1 scale
(Wirkungsgrad) t 
GR
GR
GS
0 0.447 0.741 RC
1 LJ
0.5 LW
N
463.5 576.38 M
528.75 476.782 L
594 428.443 L
659.25 622.203 L
724.5 497.795 L
S
GR
GS
[1 0 0 1 463.5 576.38019] CT
0 0.447 0.741 RC
10.0 ML
0.5 LW
N
2.5 -0.5 M
2.5 -2.157 1.157 -3.5 -0.5 -3.5 C
-2.157 -3.5 -3.5 -2.157 -3.5 -0.5 C
-3.5 1.157 -2.157 2.5 -0.5 2.5 C
1.157 2.5 2.5 1.157 2.5 -0.5 C
S
GR
GS
[1 0 0 1 528.75 476.7821] CT
0 0.447 0.741 RC
10.0 ML
0.5 LW
N
2.5 -0.5 M
2.5 -2.157 1.157 -3.5 -0.5 -3.5 C
-2.157 -3.5 -3.5 -2.157 -3.5 -0.5 C
-3.5 1.157 -2.157 2.5 -0.5 2.5 C
1.157 2.5 2.5 1.157 2.5 -0.5 C
S
GR
GS
[1 0 0 1 594 428.44321] CT
0 0.447 0.741 RC
10.0 ML
0.5 LW
N
2.5 -0.5 M
2.5 -2.157 1.157 -3.5 -0.5 -3.5 C
-2.157 -3.5 -3.5 -2.157 -3.5 -0.5 C
-3.5 1.157 -2.157 2.5 -0.5 2.5 C
1.157 2.5 2.5 1.157 2.5 -0.5 C
S
GR
GS
[1 0 0 1 659.25 622.20313] CT
0 0.447 0.741 RC
10.0 ML
0.5 LW
N
2.5 -0.5 M
2.5 -2.157 1.157 -3.5 -0.5 -3.5 C
-2.157 -3.5 -3.5 -2.157 -3.5 -0.5 C
-3.5 1.157 -2.157 2.5 -0.5 2.5 C
1.157 2.5 2.5 1.157 2.5 -0.5 C
S
GR
GS
[1 0 0 1 724.5 497.79468] CT
0 0.447 0.741 RC
10.0 ML
0.5 LW
N
2.5 -0.5 M
2.5 -2.157 1.157 -3.5 -0.5 -3.5 C
-2.157 -3.5 -3.5 -2.157 -3.5 -0.5 C
-3.5 1.157 -2.157 2.5 -0.5 2.5 C
1.157 2.5 2.5 1.157 2.5 -0.5 C
S
GR
GS
1 GC
N
660 429 M
660 414 L
714.5 414 L
714.5 429 L
cp
f
GR
GS
[1 0 0 1 697 421.5] CT
/Helvetica 9 F
GS
[1 0 0 1 0 0] CT
0 3.5 moveto 
1 -1 scale
(Eta) t 
GR
GR
GS
0 0.447 0.741 RC
1 LJ
0.5 LW
N
664 421.5 M
694 421.5 L
S
GR
GS
[1 0 0 1 679 421.5] CT
0 0.447 0.741 RC
10.0 ML
0.5 LW
N
2.5 -0.5 M
2.5 -2.157 1.157 -3.5 -0.5 -3.5 C
-2.157 -3.5 -3.5 -2.157 -3.5 -0.5 C
-3.5 1.157 -2.157 2.5 -0.5 2.5 C
1.157 2.5 2.5 1.157 2.5 -0.5 C
S
GR
GS
0.149 GC
10.0 ML
0.5 LW
N
660 429 M
660 414 L
714.5 414 L
714.5 429 L
cp
S
GR
%%Trailer
%%Pages: 1
%%EOF
