%!PS-Adobe-3.0 EPSF-3.0
%%Creator: (MATLAB, The Mathworks, Inc. Version 9.1.0.441655 \(R2016b\). Operating System: Mac OS X)
%%Title: ./plots_grundfrequenztaktung_f_n0.eps
%%CreationDate: 2016-12-06T16:49:07
%%Pages: (atend)
%%BoundingBox:    70     0   728   130
%%LanguageLevel: 2
%%EndComments
%%BeginProlog
%%BeginResource: procset (Apache XML Graphics Std ProcSet) 1.2 0
%%Version: 1.2 0
%%Copyright: (Copyright 2001-2003,2010 The Apache Software Foundation. License terms: http://www.apache.org/licenses/LICENSE-2.0)
/bd{bind def}bind def
/ld{load def}bd
/GR/grestore ld
/M/moveto ld
/LJ/setlinejoin ld
/C/curveto ld
/f/fill ld
/LW/setlinewidth ld
/GC/setgray ld
/t/show ld
/N/newpath ld
/CT/concat ld
/cp/closepath ld
/S/stroke ld
/L/lineto ld
/CC/setcmykcolor ld
/A/ashow ld
/GS/gsave ld
/RC/setrgbcolor ld
/RM/rmoveto ld
/ML/setmiterlimit ld
/re {4 2 roll M
1 index 0 rlineto
0 exch rlineto
neg 0 rlineto
cp } bd
/_ctm matrix def
/_tm matrix def
/BT { _ctm currentmatrix pop matrix _tm copy pop 0 0 moveto } bd
/ET { _ctm setmatrix } bd
/iTm { _ctm setmatrix _tm concat } bd
/Tm { _tm astore pop iTm 0 0 moveto } bd
/ux 0.0 def
/uy 0.0 def
/F {
  /Tp exch def
  /Tf exch def
  Tf findfont Tp scalefont setfont
  /cf Tf def  /cs Tp def
} bd
/ULS {currentpoint /uy exch def /ux exch def} bd
/ULE {
  /Tcx currentpoint pop def
  gsave
  newpath
  cf findfont cs scalefont dup
  /FontMatrix get 0 get /Ts exch def /FontInfo get dup
  /UnderlinePosition get Ts mul /To exch def
  /UnderlineThickness get Ts mul /Tt exch def
  ux uy To add moveto  Tcx uy To add lineto
  Tt setlinewidth stroke
  grestore
} bd
/OLE {
  /Tcx currentpoint pop def
  gsave
  newpath
  cf findfont cs scalefont dup
  /FontMatrix get 0 get /Ts exch def /FontInfo get dup
  /UnderlinePosition get Ts mul /To exch def
  /UnderlineThickness get Ts mul /Tt exch def
  ux uy To add cs add moveto Tcx uy To add cs add lineto
  Tt setlinewidth stroke
  grestore
} bd
/SOE {
  /Tcx currentpoint pop def
  gsave
  newpath
  cf findfont cs scalefont dup
  /FontMatrix get 0 get /Ts exch def /FontInfo get dup
  /UnderlinePosition get Ts mul /To exch def
  /UnderlineThickness get Ts mul /Tt exch def
  ux uy To add cs 10 mul 26 idiv add moveto Tcx uy To add cs 10 mul 26 idiv add lineto
  Tt setlinewidth stroke
  grestore
} bd
/QT {
/Y22 exch store
/X22 exch store
/Y21 exch store
/X21 exch store
currentpoint
/Y21 load 2 mul add 3 div exch
/X21 load 2 mul add 3 div exch
/X21 load 2 mul /X22 load add 3 div
/Y21 load 2 mul /Y22 load add 3 div
/X22 load /Y22 load curveto
} bd
/SSPD {
dup length /d exch dict def
{
/v exch def
/k exch def
currentpagedevice k known {
/cpdv currentpagedevice k get def
v cpdv ne {
/upd false def
/nullv v type /nulltype eq def
/nullcpdv cpdv type /nulltype eq def
nullv nullcpdv or
{
/upd true def
} {
/sametype v type cpdv type eq def
sametype {
v type /arraytype eq {
/vlen v length def
/cpdvlen cpdv length def
vlen cpdvlen eq {
0 1 vlen 1 sub {
/i exch def
/obj v i get def
/cpdobj cpdv i get def
obj cpdobj ne {
/upd true def
exit
} if
} for
} {
/upd true def
} ifelse
} {
v type /dicttype eq {
v {
/dv exch def
/dk exch def
/cpddv cpdv dk get def
dv cpddv ne {
/upd true def
exit
} if
} forall
} {
/upd true def
} ifelse
} ifelse
} if
} ifelse
upd true eq {
d k v put
} if
} if
} if
} forall
d length 0 gt {
d setpagedevice
} if
} bd
/RE { % /NewFontName [NewEncodingArray] /FontName RE -
  findfont dup length dict begin
  {
    1 index /FID ne
    {def} {pop pop} ifelse
  } forall
  /Encoding exch def
  /FontName 1 index def
  currentdict definefont pop
  end
} bind def
%%EndResource
%%BeginResource: procset (Apache XML Graphics EPS ProcSet) 1.0 0
%%Version: 1.0 0
%%Copyright: (Copyright 2002-2003 The Apache Software Foundation. License terms: http://www.apache.org/licenses/LICENSE-2.0)
/BeginEPSF { %def
/b4_Inc_state save def         % Save state for cleanup
/dict_count countdictstack def % Count objects on dict stack
/op_count count 1 sub def      % Count objects on operand stack
userdict begin                 % Push userdict on dict stack
/showpage { } def              % Redefine showpage, { } = null proc
0 setgray 0 setlinecap         % Prepare graphics state
1 setlinewidth 0 setlinejoin
10 setmiterlimit [ ] 0 setdash newpath
/languagelevel where           % If level not equal to 1 then
{pop languagelevel             % set strokeadjust and
1 ne                           % overprint to their defaults.
{false setstrokeadjust false setoverprint
} if
} if
} bd
/EndEPSF { %def
count op_count sub {pop} repeat            % Clean up stacks
countdictstack dict_count sub {end} repeat
b4_Inc_state restore
} bd
%%EndResource
%FOPBeginFontDict
%%IncludeResource: font Courier-Bold
%%IncludeResource: font Helvetica
%%IncludeResource: font Courier-BoldOblique
%%IncludeResource: font Courier-Oblique
%%IncludeResource: font Times-Roman
%%IncludeResource: font Helvetica-BoldOblique
%%IncludeResource: font Helvetica-Bold
%%IncludeResource: font Helvetica-Oblique
%%IncludeResource: font Times-BoldItalic
%%IncludeResource: font Courier
%%IncludeResource: font Times-Italic
%%IncludeResource: font Times-Bold
%%IncludeResource: font Symbol
%%IncludeResource: font ZapfDingbats
%FOPEndFontDict
%%BeginResource: encoding WinAnsiEncoding
/WinAnsiEncoding [
/.notdef /.notdef /.notdef /.notdef /.notdef
/.notdef /.notdef /.notdef /.notdef /.notdef
/.notdef /.notdef /.notdef /.notdef /.notdef
/.notdef /.notdef /.notdef /.notdef /.notdef
/.notdef /.notdef /.notdef /.notdef /.notdef
/.notdef /.notdef /.notdef /.notdef /.notdef
/.notdef /.notdef /space /exclam /quotedbl
/numbersign /dollar /percent /ampersand /quotesingle
/parenleft /parenright /asterisk /plus /comma
/hyphen /period /slash /zero /one
/two /three /four /five /six
/seven /eight /nine /colon /semicolon
/less /equal /greater /question /at
/A /B /C /D /E
/F /G /H /I /J
/K /L /M /N /O
/P /Q /R /S /T
/U /V /W /X /Y
/Z /bracketleft /backslash /bracketright /asciicircum
/underscore /quoteleft /a /b /c
/d /e /f /g /h
/i /j /k /l /m
/n /o /p /q /r
/s /t /u /v /w
/x /y /z /braceleft /bar
/braceright /asciitilde /bullet /Euro /bullet
/quotesinglbase /florin /quotedblbase /ellipsis /dagger
/daggerdbl /circumflex /perthousand /Scaron /guilsinglleft
/OE /bullet /Zcaron /bullet /bullet
/quoteleft /quoteright /quotedblleft /quotedblright /bullet
/endash /emdash /asciitilde /trademark /scaron
/guilsinglright /oe /bullet /zcaron /Ydieresis
/space /exclamdown /cent /sterling /currency
/yen /brokenbar /section /dieresis /copyright
/ordfeminine /guillemotleft /logicalnot /sfthyphen /registered
/macron /degree /plusminus /twosuperior /threesuperior
/acute /mu /paragraph /middot /cedilla
/onesuperior /ordmasculine /guillemotright /onequarter /onehalf
/threequarters /questiondown /Agrave /Aacute /Acircumflex
/Atilde /Adieresis /Aring /AE /Ccedilla
/Egrave /Eacute /Ecircumflex /Edieresis /Igrave
/Iacute /Icircumflex /Idieresis /Eth /Ntilde
/Ograve /Oacute /Ocircumflex /Otilde /Odieresis
/multiply /Oslash /Ugrave /Uacute /Ucircumflex
/Udieresis /Yacute /Thorn /germandbls /agrave
/aacute /acircumflex /atilde /adieresis /aring
/ae /ccedilla /egrave /eacute /ecircumflex
/edieresis /igrave /iacute /icircumflex /idieresis
/eth /ntilde /ograve /oacute /ocircumflex
/otilde /odieresis /divide /oslash /ugrave
/uacute /ucircumflex /udieresis /yacute /thorn
/ydieresis
] def
%%EndResource
%FOPBeginFontReencode
/Courier-Bold findfont
dup length dict begin
  {1 index /FID ne {def} {pop pop} ifelse} forall
  /Encoding WinAnsiEncoding def
  currentdict
end
/Courier-Bold exch definefont pop
/Helvetica findfont
dup length dict begin
  {1 index /FID ne {def} {pop pop} ifelse} forall
  /Encoding WinAnsiEncoding def
  currentdict
end
/Helvetica exch definefont pop
/Courier-BoldOblique findfont
dup length dict begin
  {1 index /FID ne {def} {pop pop} ifelse} forall
  /Encoding WinAnsiEncoding def
  currentdict
end
/Courier-BoldOblique exch definefont pop
/Courier-Oblique findfont
dup length dict begin
  {1 index /FID ne {def} {pop pop} ifelse} forall
  /Encoding WinAnsiEncoding def
  currentdict
end
/Courier-Oblique exch definefont pop
/Times-Roman findfont
dup length dict begin
  {1 index /FID ne {def} {pop pop} ifelse} forall
  /Encoding WinAnsiEncoding def
  currentdict
end
/Times-Roman exch definefont pop
/Helvetica-BoldOblique findfont
dup length dict begin
  {1 index /FID ne {def} {pop pop} ifelse} forall
  /Encoding WinAnsiEncoding def
  currentdict
end
/Helvetica-BoldOblique exch definefont pop
/Helvetica-Bold findfont
dup length dict begin
  {1 index /FID ne {def} {pop pop} ifelse} forall
  /Encoding WinAnsiEncoding def
  currentdict
end
/Helvetica-Bold exch definefont pop
/Helvetica-Oblique findfont
dup length dict begin
  {1 index /FID ne {def} {pop pop} ifelse} forall
  /Encoding WinAnsiEncoding def
  currentdict
end
/Helvetica-Oblique exch definefont pop
/Times-BoldItalic findfont
dup length dict begin
  {1 index /FID ne {def} {pop pop} ifelse} forall
  /Encoding WinAnsiEncoding def
  currentdict
end
/Times-BoldItalic exch definefont pop
/Courier findfont
dup length dict begin
  {1 index /FID ne {def} {pop pop} ifelse} forall
  /Encoding WinAnsiEncoding def
  currentdict
end
/Courier exch definefont pop
/Times-Italic findfont
dup length dict begin
  {1 index /FID ne {def} {pop pop} ifelse} forall
  /Encoding WinAnsiEncoding def
  currentdict
end
/Times-Italic exch definefont pop
/Times-Bold findfont
dup length dict begin
  {1 index /FID ne {def} {pop pop} ifelse} forall
  /Encoding WinAnsiEncoding def
  currentdict
end
/Times-Bold exch definefont pop
%FOPEndFontReencode
%%EndProlog
%%Page: 1 1
%%PageBoundingBox: 0 0 800 140
%%BeginPageSetup
[1 0 0 -1 0 140] CT
%%EndPageSetup
GS
1 GC
N
0 0 800 140 re
f
GR
GS
1 GC
N
0 0 800 140 re
f
GR
GS
1 GC
N
104 109.5 M
724 109.5 L
724 10.5 L
104 10.5 L
cp
f
GR
GS
0.149 GC
2 setlinecap
1 LJ
0.5 LW
N
104 109.5 M
724 109.5 L
S
GR
GS
0.149 GC
2 setlinecap
1 LJ
0.5 LW
N
104 10.5 M
724 10.5 L
S
GR
GS
0.149 GC
2 setlinecap
1 LJ
0.5 LW
N
104 109.5 M
104 103.3 L
S
GR
GS
0.149 GC
2 setlinecap
1 LJ
0.5 LW
N
226.878 109.5 M
226.878 103.3 L
S
GR
GS
0.149 GC
2 setlinecap
1 LJ
0.5 LW
N
349.757 109.5 M
349.757 103.3 L
S
GR
GS
0.149 GC
2 setlinecap
1 LJ
0.5 LW
N
472.635 109.5 M
472.635 103.3 L
S
GR
GS
0.149 GC
2 setlinecap
1 LJ
0.5 LW
N
595.513 109.5 M
595.513 103.3 L
S
GR
GS
0.149 GC
2 setlinecap
1 LJ
0.5 LW
N
718.392 109.5 M
718.392 103.3 L
S
GR
GS
0.149 GC
2 setlinecap
1 LJ
0.5 LW
N
104 10.5 M
104 16.7 L
S
GR
GS
0.149 GC
2 setlinecap
1 LJ
0.5 LW
N
226.878 10.5 M
226.878 16.7 L
S
GR
GS
0.149 GC
2 setlinecap
1 LJ
0.5 LW
N
349.757 10.5 M
349.757 16.7 L
S
GR
GS
0.149 GC
2 setlinecap
1 LJ
0.5 LW
N
472.635 10.5 M
472.635 16.7 L
S
GR
GS
0.149 GC
2 setlinecap
1 LJ
0.5 LW
N
595.513 10.5 M
595.513 16.7 L
S
GR
GS
0.149 GC
2 setlinecap
1 LJ
0.5 LW
N
718.392 10.5 M
718.392 16.7 L
S
GR
GS
[1 0 0 1 104 113.5] CT
0.149 GC
/Helvetica 10 F
GS
[1 0 0 1 0 0] CT
-3 10 moveto 
1 -1 scale
(0) t 
GR
GR
GS
[1 0 0 1 226.87837 113.5] CT
0.149 GC
/Helvetica 10 F
GS
[1 0 0 1 0 0] CT
-6 10 moveto 
1 -1 scale
(50) t 
GR
GR
GS
[1 0 0 1 349.75674 113.5] CT
0.149 GC
/Helvetica 10 F
GS
[1 0 0 1 0 0] CT
-8.5 10 moveto 
1 -1 scale
(100) t 
GR
GR
GS
[1 0 0 1 472.63513 113.5] CT
0.149 GC
/Helvetica 10 F
GS
[1 0 0 1 0 0] CT
-8.5 10 moveto 
1 -1 scale
(150) t 
GR
GR
GS
[1 0 0 1 595.51349 113.5] CT
0.149 GC
/Helvetica 10 F
GS
[1 0 0 1 0 0] CT
-8.5 10 moveto 
1 -1 scale
(200) t 
GR
GR
GS
[1 0 0 1 718.39191 113.5] CT
0.149 GC
/Helvetica 10 F
GS
[1 0 0 1 0 0] CT
-8.5 10 moveto 
1 -1 scale
(250) t 
GR
GR
GS
[1 0 0 1 414.00031 127] CT
0.149 GC
/Helvetica 11 F
GS
[1 0 0 1 0 0] CT
-37 11 moveto 
1 -1 scale
(Frequency [Hz]) t 
GR
GR
GS
0.149 GC
2 setlinecap
1 LJ
0.5 LW
N
104 109.5 M
104 10.5 L
S
GR
GS
0.149 GC
2 setlinecap
1 LJ
0.5 LW
N
724 109.5 M
724 10.5 L
S
GR
GS
0.149 GC
2 setlinecap
1 LJ
0.5 LW
N
104 108.114 M
110.2 108.114 L
S
GR
GS
0.149 GC
2 setlinecap
1 LJ
0.5 LW
N
104 79.501 M
110.2 79.501 L
S
GR
GS
0.149 GC
2 setlinecap
1 LJ
0.5 LW
N
104 50.888 M
110.2 50.888 L
S
GR
GS
0.149 GC
2 setlinecap
1 LJ
0.5 LW
N
104 22.275 M
110.2 22.275 L
S
GR
GS
0.149 GC
2 setlinecap
1 LJ
0.5 LW
N
724 108.114 M
717.8 108.114 L
S
GR
GS
0.149 GC
2 setlinecap
1 LJ
0.5 LW
N
724 79.501 M
717.8 79.501 L
S
GR
GS
0.149 GC
2 setlinecap
1 LJ
0.5 LW
N
724 50.888 M
717.8 50.888 L
S
GR
GS
0.149 GC
2 setlinecap
1 LJ
0.5 LW
N
724 22.275 M
717.8 22.275 L
S
GR
GS
[1 0 0 1 100 108.11357] CT
0.149 GC
/Helvetica 10 F
GS
[1 0 0 1 0 0] CT
-16 3.5 moveto 
1 -1 scale
(-20) t 
GR
GR
GS
[1 0 0 1 100 79.50085] CT
0.149 GC
/Helvetica 10 F
GS
[1 0 0 1 0 0] CT
-6 3.5 moveto 
1 -1 scale
(0) t 
GR
GR
GS
[1 0 0 1 100 50.88814] CT
0.149 GC
/Helvetica 10 F
GS
[1 0 0 1 0 0] CT
-12 3.5 moveto 
1 -1 scale
(20) t 
GR
GR
GS
[1 0 0 1 100 22.27542] CT
0.149 GC
/Helvetica 10 F
GS
[1 0 0 1 0 0] CT
-12 3.5 moveto 
1 -1 scale
(40) t 
GR
GR
GS
[0 -1 1 0 81.5 59.99995] CT
0.149 GC
/Helvetica 11 F
GS
[1 0 0 1 0 0] CT
-38 -3 moveto 
1 -1 scale
(Magnitude [dB]) t 
GR
GR
GS
0 0.447 0.741 RC
1 LJ
0.5 LW
N
104 10.5 M
104.606 98.055 L
105.212 106.639 L
105.818 109.5 L
106.424 108.928 L
107.03 106.639 L
107.636 109.5 L
108.242 109.5 L
108.848 108.928 L
109.454 104.35 L
110.061 109.5 L
110.667 103.777 L
111.273 94.049 L
111.879 105.494 L
112.485 99.772 L
113.091 98.627 L
113.697 109.5 L
114.303 109.5 L
114.909 104.922 L
115.515 109.5 L
116.121 109.5 L
116.727 108.928 L
117.333 109.5 L
117.939 100.916 L
118.545 100.344 L
119.151 96.91 L
119.757 88.327 L
120.364 108.928 L
120.97 107.783 L
121.576 103.205 L
122.182 103.777 L
122.788 103.777 L
123.394 106.639 L
124 98.055 L
124.606 106.639 L
125.212 103.777 L
125.818 103.205 L
126.424 92.332 L
127.03 94.621 L
127.636 92.332 L
128.242 100.344 L
128.848 102.061 L
129.454 101.488 L
130.06 108.928 L
130.667 107.783 L
131.273 103.777 L
131.879 109.5 L
132.485 109.5 L
133.091 97.483 L
133.697 106.639 L
134.303 92.332 L
134.909 97.483 L
135.515 98.055 L
136.121 92.905 L
136.727 103.777 L
137.333 96.91 L
137.939 99.199 L
138.545 98.055 L
139.151 100.916 L
139.757 94.621 L
140.364 100.344 L
140.97 94.621 L
141.576 92.905 L
142.182 97.483 L
142.788 82.032 L
143.394 93.477 L
144 93.477 L
144.606 94.621 L
145.212 92.905 L
145.818 91.76 L
146.424 95.194 L
147.03 91.188 L
147.636 89.471 L
148.242 88.327 L
148.848 90.043 L
149.454 82.604 L
150.06 77.454 L
150.667 88.327 L
151.273 105.494 L
151.879 93.477 L
152.485 90.616 L
153.091 88.327 L
153.697 109.5 L
154.303 88.899 L
154.909 88.899 L
155.515 86.61 L
156.121 85.465 L
156.727 83.749 L
157.333 83.176 L
157.939 82.032 L
158.545 82.032 L
159.151 79.743 L
159.757 78.026 L
160.364 76.309 L
160.97 74.592 L
161.576 74.02 L
162.182 71.159 L
162.788 69.442 L
163.394 66.009 L
164 62.575 L
164.606 56.853 L
165.212 46.552 L
165.818 31.101 L
166.424 52.275 L
167.03 59.142 L
167.636 63.72 L
168.242 67.153 L
168.848 70.014 L
169.454 71.731 L
170.061 74.02 L
170.667 74.592 L
171.273 74.592 L
171.879 76.309 L
172.485 78.026 L
173.091 68.298 L
173.697 74.02 L
174.303 79.171 L
174.909 81.46 L
175.515 81.46 L
176.121 85.465 L
176.727 82.604 L
177.333 84.321 L
177.939 84.893 L
178.545 87.182 L
179.151 85.465 L
179.757 90.616 L
180.364 90.616 L
180.97 88.327 L
181.576 89.471 L
182.182 86.038 L
182.788 91.188 L
183.394 87.754 L
184 89.471 L
184.606 89.471 L
185.212 91.188 L
185.818 88.327 L
186.424 91.188 L
187.03 88.899 L
187.636 89.471 L
188.242 86.61 L
188.848 81.46 L
189.454 90.043 L
190.061 90.043 L
190.667 91.188 L
191.273 95.194 L
191.879 94.621 L
192.485 95.766 L
193.091 91.76 L
193.697 98.055 L
194.303 96.338 L
194.909 104.35 L
195.515 98.055 L
196.121 94.049 L
196.727 88.899 L
197.333 94.621 L
197.939 93.477 L
198.545 89.471 L
199.151 95.766 L
199.757 90.043 L
200.364 90.043 L
200.97 92.905 L
201.576 104.35 L
202.182 106.639 L
202.788 94.621 L
203.394 95.766 L
204 96.91 L
204.606 96.338 L
205.212 106.639 L
205.818 98.055 L
206.424 94.621 L
207.03 98.627 L
207.636 96.91 L
208.242 100.916 L
208.848 104.35 L
209.454 98.055 L
210.061 98.627 L
210.667 104.922 L
211.273 100.916 L
211.879 87.754 L
212.485 85.465 L
213.091 95.766 L
213.697 98.627 L
214.303 87.754 L
214.909 98.055 L
215.515 94.621 L
216.121 93.477 L
216.727 100.344 L
217.333 100.916 L
217.939 98.055 L
218.545 100.344 L
219.151 88.899 L
219.757 100.916 L
220.364 98.627 L
220.97 96.91 L
221.576 99.199 L
222.182 92.905 L
222.788 96.91 L
223.394 100.344 L
224 104.35 L
224.606 100.344 L
225.212 102.633 L
225.818 92.332 L
226.424 98.055 L
227.03 99.772 L
227.636 88.327 L
228.242 109.5 L
228.848 95.194 L
229.454 106.639 L
230.061 104.922 L
230.667 105.494 L
231.273 98.055 L
231.879 100.916 L
232.485 100.916 L
233.091 100.344 L
233.697 102.633 L
234.303 91.188 L
234.909 98.627 L
235.515 87.182 L
236.121 103.777 L
236.727 100.344 L
237.333 99.199 L
237.939 96.338 L
238.545 100.916 L
239.151 100.916 L
239.757 109.5 L
240.364 109.5 L
240.97 96.91 L
241.576 100.916 L
242.182 90.043 L
242.788 98.055 L
243.394 96.91 L
244 103.777 L
244.606 96.91 L
245.212 100.344 L
245.818 108.928 L
246.424 109.5 L
247.03 100.344 L
247.636 94.049 L
248.242 99.199 L
248.848 96.338 L
249.454 99.772 L
250.061 105.494 L
250.667 88.327 L
251.273 97.483 L
251.879 106.639 L
252.485 102.061 L
253.091 101.488 L
253.697 95.766 L
254.303 99.772 L
254.909 99.199 L
255.515 109.5 L
256.121 99.199 L
256.727 102.633 L
257.333 90.043 L
257.939 98.055 L
258.545 86.038 L
259.151 109.5 L
259.757 103.205 L
260.364 102.061 L
260.97 103.777 L
261.576 109.5 L
262.182 109.5 L
262.788 109.5 L
263.394 105.494 L
264 98.627 L
264.606 108.928 L
265.212 97.483 L
265.818 108.928 L
266.424 100.344 L
267.03 96.91 L
267.636 102.061 L
268.242 109.5 L
268.848 108.928 L
269.454 98.055 L
270.061 99.772 L
270.667 102.061 L
271.273 109.5 L
271.879 106.639 L
272.485 109.5 L
273.091 109.5 L
273.697 77.454 L
274.303 96.338 L
274.909 109.5 L
275.515 105.494 L
276.121 99.199 L
276.727 96.91 L
277.333 105.494 L
277.939 102.061 L
278.545 108.928 L
279.151 95.194 L
279.758 94.049 L
280.364 83.176 L
280.97 80.315 L
281.576 71.159 L
282.182 87.754 L
282.788 100.344 L
283.394 100.916 L
284 99.199 L
284.606 102.633 L
285.212 98.055 L
285.818 100.344 L
286.424 104.35 L
287.03 106.639 L
287.636 104.922 L
288.242 108.928 L
288.848 95.194 L
289.454 109.5 L
290.061 104.922 L
290.667 108.928 L
291.273 106.639 L
291.879 102.061 L
292.485 99.199 L
293.091 108.928 L
293.697 103.777 L
294.303 106.639 L
294.909 96.91 L
295.515 109.5 L
296.121 92.905 L
296.727 65.436 L
297.333 95.766 L
297.939 100.916 L
298.545 102.633 L
299.151 109.5 L
299.758 103.777 L
300.364 102.061 L
300.97 107.783 L
301.576 95.766 L
302.182 95.194 L
302.788 95.194 L
303.394 102.633 L
304 80.315 L
304.606 81.46 L
305.212 100.916 L
305.818 108.928 L
306.424 102.061 L
307.03 109.5 L
307.636 109.5 L
308.242 109.5 L
308.848 109.5 L
309.454 109.5 L
310.061 109.5 L
310.667 99.199 L
311.273 109.5 L
311.879 108.928 L
312.485 105.494 L
313.091 102.061 L
313.697 105.494 L
314.303 100.916 L
314.909 109.5 L
315.515 106.639 L
316.121 109.5 L
316.727 102.061 L
317.333 109.5 L
317.939 103.205 L
318.545 106.639 L
319.151 100.916 L
319.758 84.893 L
320.364 97.483 L
320.97 103.777 L
321.576 106.639 L
322.182 108.928 L
322.788 109.5 L
323.394 107.783 L
324 108.928 L
324.606 107.783 L
325.212 107.783 L
325.818 109.5 L
326.424 109.5 L
327.03 88.899 L
327.636 107.783 L
328.242 109.5 L
328.848 109.5 L
329.454 98.055 L
330.061 107.783 L
330.667 109.5 L
331.273 109.5 L
331.879 109.5 L
332.485 109.5 L
333.091 102.633 L
333.697 109.5 L
334.303 109.5 L
334.909 109.5 L
335.515 107.783 L
336.121 92.905 L
336.727 102.633 L
337.333 96.338 L
337.939 109.5 L
338.545 108.928 L
339.151 104.922 L
339.757 103.205 L
340.364 109.5 L
340.97 102.633 L
341.576 105.494 L
342.182 99.199 L
342.788 90.616 L
343.394 92.905 L
344 102.633 L
344.606 109.5 L
345.212 109.5 L
345.818 109.5 L
346.424 106.639 L
347.03 96.91 L
347.636 109.5 L
348.242 109.5 L
348.848 109.5 L
349.454 109.5 L
350.061 98.055 L
350.667 106.639 L
351.273 108.928 L
351.879 100.916 L
352.485 94.621 L
353.091 101.488 L
353.697 104.922 L
354.303 106.639 L
354.909 109.5 L
355.515 104.922 L
356.121 107.783 L
356.727 103.205 L
357.333 103.777 L
357.939 96.91 L
358.545 96.338 L
359.151 92.905 L
359.758 103.205 L
360.364 100.916 L
360.97 109.5 L
361.576 103.777 L
362.182 97.483 L
362.788 104.35 L
363.394 106.639 L
364 109.5 L
364.606 109.5 L
365.212 109.5 L
365.818 92.332 L
366.424 90.616 L
367.03 109.5 L
367.636 106.639 L
368.242 108.928 L
368.848 101.488 L
369.454 108.928 L
370.061 109.5 L
370.667 104.35 L
371.273 106.639 L
371.879 106.639 L
372.485 98.055 L
373.091 95.194 L
373.697 109.5 L
374.303 98.055 L
374.909 100.916 L
375.515 102.061 L
376.121 109.5 L
376.727 109.5 L
377.333 108.928 L
377.939 98.627 L
378.545 101.488 L
379.151 106.639 L
379.758 98.627 L
380.364 100.344 L
380.97 95.766 L
381.576 85.465 L
382.182 100.916 L
382.788 104.922 L
383.394 109.5 L
384 100.916 L
384.606 103.777 L
385.212 99.199 L
385.818 109.5 L
386.424 107.783 L
387.03 105.494 L
387.636 109.5 L
388.242 102.633 L
388.848 103.777 L
389.454 82.032 L
390.061 109.5 L
390.667 102.061 L
391.273 109.5 L
391.879 102.633 L
392.485 103.777 L
393.091 107.783 L
393.697 103.777 L
394.303 102.633 L
394.909 100.916 L
395.515 104.35 L
396.121 93.477 L
396.727 102.061 L
397.333 98.055 L
397.939 96.91 L
398.545 107.783 L
399.151 98.627 L
399.758 103.205 L
400.364 99.199 L
400.97 99.199 L
401.576 98.055 L
402.182 103.777 L
402.788 92.905 L
403.394 92.332 L
404 88.327 L
404.606 71.159 L
405.212 84.893 L
405.818 96.91 L
406.424 98.055 L
407.03 91.76 L
407.636 92.332 L
408.242 100.344 L
408.848 91.188 L
409.454 90.043 L
410.061 87.754 L
410.667 87.182 L
411.273 78.026 L
411.879 72.303 L
412.485 51.13 L
413.091 78.026 L
413.697 84.321 L
414.303 88.327 L
414.909 94.049 L
415.515 96.91 L
416.121 106.639 L
416.727 103.777 L
417.333 96.338 L
417.939 104.35 L
418.545 99.772 L
419.151 99.199 L
419.758 107.783 L
420.364 109.5 L
420.97 104.35 L
421.576 106.639 L
422.182 108.928 L
422.788 109.5 L
423.394 109.5 L
424 107.783 L
424.606 109.5 L
425.212 109.5 L
425.818 109.5 L
426.424 107.783 L
427.03 108.928 L
427.636 75.165 L
428.242 105.494 L
428.848 102.061 L
429.454 109.5 L
430.061 109.5 L
430.667 109.5 L
431.273 99.199 L
431.879 106.639 L
432.485 109.5 L
433.091 109.5 L
433.697 106.639 L
434.303 109.5 L
434.909 90.616 L
435.515 80.887 L
436.121 97.483 L
436.727 104.922 L
437.333 103.205 L
437.939 104.35 L
438.545 99.199 L
439.151 107.783 L
439.758 109.5 L
440.364 109.5 L
440.97 109.5 L
441.576 104.35 L
442.182 104.922 L
442.788 101.488 L
443.394 108.928 L
444 98.055 L
444.606 109.5 L
445.212 109.5 L
445.818 109.5 L
446.424 109.5 L
447.03 109.5 L
447.636 109.5 L
448.242 105.494 L
448.848 109.5 L
449.454 107.783 L
450.061 109.5 L
450.667 87.754 L
451.273 100.344 L
451.879 103.777 L
452.485 109.5 L
453.091 106.639 L
453.697 109.5 L
454.303 105.494 L
454.909 106.639 L
455.515 103.777 L
456.121 109.5 L
456.727 104.35 L
457.333 103.205 L
457.939 94.621 L
458.545 92.332 L
459.151 109.5 L
459.758 109.5 L
460.364 109.5 L
460.97 109.5 L
461.576 104.922 L
462.182 109.5 L
462.788 107.783 L
463.394 106.639 L
464 109.5 L
464.606 98.055 L
465.212 109.5 L
465.818 108.928 L
466.424 109.5 L
467.03 97.483 L
467.636 109.5 L
468.242 108.928 L
468.848 109.5 L
469.454 109.5 L
470.061 109.5 L
470.667 107.783 L
471.273 109.5 L
471.879 109.5 L
472.485 107.783 L
473.091 99.199 L
473.697 91.76 L
474.303 102.061 L
474.909 99.772 L
475.515 108.928 L
476.121 109.5 L
476.727 104.922 L
477.333 103.777 L
477.939 109.5 L
478.545 109.5 L
479.151 109.5 L
479.758 102.633 L
480.364 108.928 L
480.97 94.049 L
481.576 96.91 L
482.182 109.5 L
482.788 105.494 L
483.394 106.639 L
484 109.5 L
484.606 99.199 L
485.212 109.5 L
485.818 109.5 L
486.424 109.5 L
487.03 109.5 L
487.636 109.5 L
488.242 104.922 L
488.848 109.5 L
489.454 105.494 L
490.061 92.905 L
490.667 109.5 L
491.273 108.928 L
491.879 99.772 L
492.485 106.639 L
493.091 109.5 L
493.697 109.5 L
494.303 103.777 L
494.909 109.5 L
495.515 107.783 L
496.121 102.633 L
496.727 100.344 L
497.333 87.754 L
497.939 100.916 L
498.545 106.639 L
499.151 109.5 L
499.758 102.633 L
500.364 106.639 L
500.97 104.35 L
501.576 109.5 L
502.182 106.639 L
502.788 102.633 L
503.394 109.5 L
504 108.928 L
504.606 108.928 L
505.212 106.639 L
505.818 109.5 L
506.424 102.633 L
507.03 109.5 L
507.636 100.344 L
508.242 109.5 L
508.848 104.35 L
509.454 104.922 L
510.061 101.488 L
510.667 96.338 L
511.273 99.199 L
511.879 102.633 L
512.485 91.76 L
513.091 86.61 L
513.697 102.061 L
514.303 95.766 L
514.909 100.916 L
515.515 100.344 L
516.121 109.5 L
516.727 109.5 L
517.333 97.483 L
517.939 104.35 L
518.545 102.633 L
519.151 102.061 L
519.758 92.905 L
520.364 76.882 L
520.97 107.783 L
521.576 108.928 L
522.182 109.5 L
522.788 100.916 L
523.394 102.633 L
524 98.627 L
524.606 99.199 L
525.212 109.5 L
525.818 109.5 L
526.424 103.777 L
527.03 103.205 L
527.636 100.344 L
528.242 102.633 L
528.848 102.633 L
529.454 109.5 L
530.061 95.766 L
530.667 92.332 L
531.273 96.338 L
531.879 89.471 L
532.485 88.327 L
533.091 85.465 L
533.697 83.176 L
534.303 79.171 L
534.909 73.448 L
535.515 57.425 L
536.121 63.147 L
536.727 76.882 L
537.333 80.315 L
537.939 85.465 L
538.545 88.327 L
539.151 91.76 L
539.758 94.049 L
540.364 95.766 L
540.97 93.477 L
541.576 98.055 L
542.182 96.91 L
542.788 107.783 L
543.394 62.003 L
544 99.199 L
544.606 94.621 L
545.212 100.344 L
545.818 109.5 L
546.424 109.5 L
547.03 102.633 L
547.636 96.91 L
548.242 104.35 L
548.848 109.5 L
549.455 106.639 L
550.061 108.928 L
550.667 108.928 L
551.273 104.922 L
551.879 109.5 L
552.485 102.061 L
553.091 109.5 L
553.697 106.639 L
554.303 108.928 L
554.909 102.633 L
555.515 109.5 L
556.121 108.928 L
556.727 108.928 L
557.333 109.5 L
557.939 100.344 L
558.545 81.46 L
559.151 94.621 L
559.758 90.616 L
560.364 108.928 L
560.97 104.922 L
561.576 109.5 L
562.182 107.783 L
562.788 105.494 L
563.394 101.488 L
564 104.35 L
564.606 109.5 L
565.212 109.5 L
565.818 103.777 L
566.424 84.893 L
567.03 109.5 L
567.636 106.639 L
568.242 103.777 L
568.848 106.639 L
569.455 109.5 L
570.061 104.35 L
570.667 105.494 L
571.273 109.5 L
571.879 107.783 L
572.485 108.928 L
573.091 98.055 L
573.697 109.5 L
574.303 109.5 L
574.909 96.338 L
575.515 109.5 L
576.121 104.922 L
576.727 109.5 L
577.333 109.5 L
577.939 109.5 L
578.545 105.494 L
579.151 109.5 L
579.758 109.5 L
580.364 109.5 L
580.97 104.35 L
581.576 87.754 L
582.182 103.777 L
582.788 100.916 L
583.394 109.5 L
584 109.5 L
584.606 106.639 L
585.212 108.928 L
585.818 109.5 L
586.424 109.5 L
587.03 102.061 L
587.636 109.5 L
588.242 102.633 L
588.848 103.777 L
589.455 96.91 L
590.061 101.488 L
590.667 99.772 L
591.273 102.061 L
591.879 104.922 L
592.485 99.199 L
593.091 109.5 L
593.697 109.5 L
594.303 107.783 L
594.909 104.922 L
595.515 109.5 L
596.121 102.633 L
596.727 109.5 L
597.333 109.5 L
597.939 94.621 L
598.545 105.494 L
599.151 99.199 L
599.758 109.5 L
600.364 109.5 L
600.97 104.35 L
601.576 105.494 L
602.182 108.928 L
602.788 109.5 L
603.394 109.5 L
604 109.5 L
604.606 90.616 L
605.212 100.344 L
605.818 95.194 L
606.424 109.5 L
607.03 103.205 L
607.636 109.5 L
608.242 109.5 L
608.848 109.5 L
609.455 109.5 L
610.061 109.5 L
610.667 109.5 L
611.273 109.5 L
611.879 99.772 L
612.485 100.916 L
613.091 106.639 L
613.697 109.5 L
614.303 98.055 L
614.909 109.5 L
615.515 102.633 L
616.121 109.5 L
616.727 105.494 L
617.333 108.928 L
617.939 109.5 L
618.545 109.5 L
619.151 109.5 L
619.758 108.928 L
620.364 108.928 L
620.97 91.188 L
621.576 109.5 L
622.182 100.916 L
622.788 108.928 L
623.394 104.922 L
624 109.5 L
624.606 104.35 L
625.212 109.5 L
625.818 109.5 L
626.424 109.5 L
627.03 109.5 L
627.636 90.043 L
628.242 88.327 L
628.848 91.76 L
629.455 109.5 L
630.061 109.5 L
630.667 109.5 L
631.273 103.777 L
631.879 109.5 L
632.485 106.639 L
633.091 100.916 L
633.697 109.5 L
634.303 109.5 L
634.909 102.633 L
635.515 106.639 L
636.121 109.5 L
636.727 109.5 L
637.333 98.627 L
637.939 106.639 L
638.545 109.5 L
639.151 106.639 L
639.758 109.5 L
640.364 101.488 L
640.97 109.5 L
641.576 102.061 L
642.182 108.928 L
642.788 98.055 L
643.394 88.327 L
644 80.887 L
644.606 104.35 L
645.212 96.338 L
645.818 106.639 L
646.424 108.928 L
647.03 104.922 L
647.636 103.205 L
648.242 102.061 L
648.849 108.928 L
649.455 109.5 L
650.061 109.5 L
650.667 89.471 L
651.273 74.02 L
651.879 80.887 L
652.485 90.616 L
653.091 98.055 L
653.697 109.5 L
654.303 96.338 L
654.909 103.205 L
655.515 101.488 L
656.121 100.916 L
656.727 109.5 L
657.333 109.5 L
657.939 98.055 L
658.545 103.777 L
659.151 106.639 L
659.758 106.639 L
660.364 100.916 L
660.97 100.916 L
661.576 97.483 L
662.182 96.91 L
662.788 94.049 L
663.394 96.338 L
664 92.332 L
664.606 88.899 L
665.212 84.321 L
665.818 79.171 L
666.424 66.009 L
667.03 64.292 L
667.636 78.026 L
668.242 86.038 L
668.848 92.332 L
669.455 90.043 L
670.061 95.194 L
670.667 102.061 L
671.273 106.639 L
671.879 100.916 L
672.485 99.772 L
673.091 98.055 L
673.697 99.199 L
674.303 74.02 L
674.909 96.91 L
675.515 98.627 L
676.121 99.772 L
676.727 99.199 L
677.333 105.494 L
677.939 101.488 L
678.545 98.055 L
679.151 104.922 L
679.758 103.777 L
680.364 109.5 L
680.97 103.777 L
681.576 100.916 L
682.182 106.639 L
682.788 98.055 L
683.394 103.205 L
684 109.5 L
684.606 103.777 L
685.212 109.5 L
685.818 109.5 L
686.424 109.5 L
687.03 106.639 L
687.636 104.35 L
688.242 109.5 L
688.849 106.639 L
689.455 88.327 L
690.061 90.616 L
690.667 92.332 L
691.273 106.639 L
691.879 102.633 L
692.485 103.777 L
693.091 103.777 L
693.697 109.5 L
694.303 109.5 L
694.909 107.783 L
695.515 109.5 L
696.121 104.35 L
696.727 106.639 L
697.333 84.893 L
697.939 109.5 L
698.545 100.916 L
699.152 104.922 L
699.758 109.5 L
700.364 109.5 L
700.97 109.5 L
701.576 109.5 L
702.182 109.5 L
702.788 109.5 L
703.394 109.5 L
704 100.916 L
704.606 96.91 L
705.212 99.199 L
705.818 95.766 L
706.424 102.061 L
707.03 109.5 L
707.636 109.5 L
708.242 109.5 L
708.849 108.928 L
709.455 109.5 L
710.061 107.783 L
710.667 109.5 L
711.273 107.783 L
711.879 109.5 L
712.485 95.766 L
713.091 109.5 L
713.697 94.049 L
714.303 109.5 L
714.909 106.639 L
715.515 109.5 L
716.121 109.5 L
716.727 106.639 L
717.333 109.5 L
717.939 106.639 L
718.545 109.5 L
719.151 106.639 L
719.758 100.916 L
720.364 92.332 L
720.97 102.633 L
721.576 104.35 L
722.182 102.633 L
722.788 109.5 L
723.394 109.5 L
724 109.5 L
S
GR
GS
[1 0 0 1 165.81807 31.10116] CT
1 0 0 RC
10.0 ML
0.5 LW
N
2.5 -0.5 M
2.5 -2.157 1.157 -3.5 -0.5 -3.5 C
-2.157 -3.5 -3.5 -2.157 -3.5 -0.5 C
-3.5 1.157 -2.157 2.5 -0.5 2.5 C
1.157 2.5 2.5 1.157 2.5 -0.5 C
S
GR
GS
[1 0 0 1 288.84842 95.19364] CT
1 0 0 RC
10.0 ML
0.5 LW
N
2.5 -0.5 M
2.5 -2.157 1.157 -3.5 -0.5 -3.5 C
-2.157 -3.5 -3.5 -2.157 -3.5 -0.5 C
-3.5 1.157 -2.157 2.5 -0.5 2.5 C
1.157 2.5 2.5 1.157 2.5 -0.5 C
S
GR
GS
[1 0 0 1 411.87872 72.30347] CT
1 0 0 RC
10.0 ML
0.5 LW
N
2.5 -0.5 M
2.5 -2.157 1.157 -3.5 -0.5 -3.5 C
-2.157 -3.5 -3.5 -2.157 -3.5 -0.5 C
-3.5 1.157 -2.157 2.5 -0.5 2.5 C
1.157 2.5 2.5 1.157 2.5 -0.5 C
S
GR
GS
[1 0 0 1 534.90906 73.44798] CT
1 0 0 RC
10.0 ML
0.5 LW
N
2.5 -0.5 M
2.5 -2.157 1.157 -3.5 -0.5 -3.5 C
-2.157 -3.5 -3.5 -2.157 -3.5 -0.5 C
-3.5 1.157 -2.157 2.5 -0.5 2.5 C
1.157 2.5 2.5 1.157 2.5 -0.5 C
S
GR
GS
[1 0 0 1 657.33331 109.5] CT
1 0 0 RC
10.0 ML
0.5 LW
N
2.5 -0.5 M
2.5 -2.157 1.157 -3.5 -0.5 -3.5 C
-2.157 -3.5 -3.5 -2.157 -3.5 -0.5 C
-3.5 1.157 -2.157 2.5 -0.5 2.5 C
1.157 2.5 2.5 1.157 2.5 -0.5 C
S
GR
GS
[1 0 0 1 724 109.5] CT
1 0 0 RC
10.0 ML
0.5 LW
N
2.5 -0.5 M
2.5 -2.157 1.157 -3.5 -0.5 -3.5 C
-2.157 -3.5 -3.5 -2.157 -3.5 -0.5 C
-3.5 1.157 -2.157 2.5 -0.5 2.5 C
1.157 2.5 2.5 1.157 2.5 -0.5 C
S
GR
GS
[1 0 0 1 724 109.5] CT
1 0 0 RC
10.0 ML
0.5 LW
N
2.5 -0.5 M
2.5 -2.157 1.157 -3.5 -0.5 -3.5 C
-2.157 -3.5 -3.5 -2.157 -3.5 -0.5 C
-3.5 1.157 -2.157 2.5 -0.5 2.5 C
1.157 2.5 2.5 1.157 2.5 -0.5 C
S
GR
GS
[1 0 0 1 724 109.5] CT
1 0 0 RC
10.0 ML
0.5 LW
N
2.5 -0.5 M
2.5 -2.157 1.157 -3.5 -0.5 -3.5 C
-2.157 -3.5 -3.5 -2.157 -3.5 -0.5 C
-3.5 1.157 -2.157 2.5 -0.5 2.5 C
1.157 2.5 2.5 1.157 2.5 -0.5 C
S
GR
GS
[1 0 0 1 724 109.5] CT
1 0 0 RC
10.0 ML
0.5 LW
N
2.5 -0.5 M
2.5 -2.157 1.157 -3.5 -0.5 -3.5 C
-2.157 -3.5 -3.5 -2.157 -3.5 -0.5 C
-3.5 1.157 -2.157 2.5 -0.5 2.5 C
1.157 2.5 2.5 1.157 2.5 -0.5 C
S
GR
GS
[1 0 0 1 724 109.5] CT
1 0 0 RC
10.0 ML
0.5 LW
N
2.5 -0.5 M
2.5 -2.157 1.157 -3.5 -0.5 -3.5 C
-2.157 -3.5 -3.5 -2.157 -3.5 -0.5 C
-3.5 1.157 -2.157 2.5 -0.5 2.5 C
1.157 2.5 2.5 1.157 2.5 -0.5 C
S
GR
GS
[1 0 0 1 724 109.5] CT
1 0 0 RC
10.0 ML
0.5 LW
N
2.5 -0.5 M
2.5 -2.157 1.157 -3.5 -0.5 -3.5 C
-2.157 -3.5 -3.5 -2.157 -3.5 -0.5 C
-3.5 1.157 -2.157 2.5 -0.5 2.5 C
1.157 2.5 2.5 1.157 2.5 -0.5 C
S
GR
%%Trailer
%%Pages: 1
%%EOF
