Record Length,1.024000e+03,,          0.00000,  48.23090,
Sample Interval,4.932134e-01,,          0.49321,  51.03090,
Trigger Point,0.000000000000e+00,,          0.98643,  44.23090,
,,,          1.47964,  -5.76910,
,,,          1.97285,  -7.36910,
,,,          2.46607,  -4.16910,
Source,MATH,,          2.95928,  -0.16910,
Vertical Units,dB,,          3.45249,   0.23090,
Vertical Scale,1.000000e+01,,          3.94571,  -0.16910,
Vertical Offset,0.000000e+00,,          4.43892,  -7.36910,
Horizontal Units,Hz,,          4.93213, -20.96910,
Horizontal Scale,5.050505e+01,,          5.42535, -18.56910,
Pt Fmt,Y,,          5.91856, -11.36910,
Yzero,1.903090e+01,,          6.41177,  -3.36910,
Probe Atten,1.000000e+00,,          6.90499,  -1.36910,
Firmware Version,FV:v10.20,,          7.39820,  -1.76910,
,,,7.89141,  -7.36910,
,,,8.38462, -10.16910,
,,,8.87783,  -6.16910,
,,,9.37104,  -6.16910,
,,,9.86425,  -7.36910,
,,,10.35746,  -7.36910,
,,,10.85067,  -7.36910,
,,,11.34388, -12.56910,
,,,11.83709, -14.56910,
,,,12.33030, -14.56910,
,,,12.82351, -14.56910,
,,,13.31672, -11.76910,
,,,13.80993,  -9.36910,
,,,14.30314,  -8.96910,
,,,14.79635,  -8.96910,
,,,15.28956, -11.36910,
,,,15.78277, -15.36910,
,,,16.27598,  -8.96910,
,,,16.76919,  -8.96910,
,,,17.26240,  -9.36910,
,,,17.75561,  -9.36910,
,,,18.24882,  -2.16910,
,,,18.74203,   3.83090,
,,,19.23524,   4.23090,
,,,19.72845,   2.23090,
,,,20.22166,  -5.36910,
,,,20.71487,   0.63090,
,,,21.20808,   3.83090,
,,,21.70129,   1.03090,
,,,22.19450,  -0.16910,
,,,22.68771, -20.96910,
,,,23.18092,  -2.56910,
,,,23.67413,   9.83090,
,,,24.16734,  28.23090,
,,,24.66055,  31.83090,
,,,25.15376,  32.23090,
,,,25.64697,  30.63090,
,,,26.14018,  19.83090,
,,,26.63339,   3.43090,
,,,27.12660, -14.56910,
,,,27.61981,  -4.16910,
,,,28.11302,  -8.56910,
,,,28.60623,  -8.96910,
,,,29.09944,  -5.36910,
,,,29.59265,  -5.36910,
,,,30.08586,   5.03090,
,,,30.57907,   7.03090,
,,,31.07228,   7.03090,
,,,31.56549,   2.63090,
,,,32.05870, -11.76910,
,,,32.55191,  -8.96910,
,,,33.04512,  -7.36910,
,,,33.53833,  -7.36910,
,,,34.03154, -10.16910,
,,,34.52475,  -7.36910,
,,,35.01796,  -6.16910,
,,,35.51117,   3.83090,
,,,36.00438,   8.23090,
,,,36.49759,   7.83090,
,,,36.99080,   6.23090,
,,,37.48401,  -7.36910,
,,,37.97722,  -7.36910,
,,,38.47043, -10.16910,
,,,38.96364, -10.16910,
,,,39.45685, -10.16910,
,,,39.95006, -20.96910,
,,,40.44327, -12.56910,
,,,40.93648,  -8.96910,
,,,41.42969,   2.23090,
,,,41.92290,   5.03090,
,,,42.41611,   8.23090,
,,,42.90932,   7.83090,
,,,43.40253,   4.23090,
,,,43.89574,   2.23090,
,,,44.38895,  -6.16910,
,,,44.88216,  -4.16910,
,,,45.37537,  -4.16910,
,,,45.86858,  -3.76910,
,,,46.36179,  -8.56910,
,,,46.85500,  -7.36910,
,,,47.34821,  -4.96910,
,,,47.84142,  -7.36910,
,,,48.33463, -15.36910,
,,,48.82784, -11.76910,
,,,49.32105,  -8.56910,
,,,49.81426, -12.56910,
,,,50.30747,  -8.96910,
,,,50.80068,  -2.56910,
,,,51.29389,  -1.76910,
,,,51.78710,  -1.76910,
,,,52.28031,  -5.36910,
,,,52.77352,  -8.56910,
,,,53.26673,  -8.96910,
,,,53.75994,  -8.56910,
,,,54.25315,  -5.76910,
,,,54.74636,  -8.96910,
,,,55.23957,  -7.36910,
,,,55.73278,  -4.96910,
,,,56.22599,  -6.16910,
,,,56.71920, -14.56910,
,,,57.21241,  -7.36910,
,,,57.70562,  -7.36910,
,,,58.19883, -11.76910,
,,,58.69204, -11.36910,
,,,59.18525,  -5.36910,
,,,59.67846, -14.56910,
,,,60.17167, -14.56910,
,,,60.66488,  -6.56910,
,,,61.15809, -10.16910,
,,,61.65130, -11.76910,
,,,62.14451, -14.56910,
,,,62.63772, -12.56910,
,,,63.13093, -11.76910,
,,,63.62414,  -0.56910,
,,,64.11735,   7.03090,
,,,64.61056,   8.23090,
,,,65.10377,   7.83090,
,,,65.59698,   4.23090,
,,,66.09019,  -0.96910,
,,,66.58340,   1.83090,
,,,67.07661,   3.43090,
,,,67.56982,   3.43090,
,,,68.06303,  -1.36910,
,,,68.55624, -10.16910,
,,,69.04945, -15.36910,
,,,69.54266, -18.56910,
,,,70.03587, -18.56910,
,,,70.52908, -15.36910,
,,,71.02229, -14.56910,
,,,71.51550, -11.36910,
,,,72.00871,  -0.56910,
,,,72.50192,   1.43090,
,,,72.99513,   2.23090,
,,,73.48834,   0.23090,
,,,73.98155,  -3.36910,
,,,74.47476,  -2.16910,
,,,74.96797,  -1.36910,
,,,75.46118,  -3.36910,
,,,75.95439, -10.16910,
,,,76.44760,  -7.36910,
,,,76.94081,  -3.76910,
,,,77.43402,  -4.56910,
,,,77.92723, -15.36910,
,,,78.42044,  -7.36910,
,,,78.91365,  -4.96910,
,,,79.40686, -12.56910,
,,,79.90007,  -8.96910,
,,,80.39328,  -4.16910,
,,,80.88649, -11.76910,
,,,81.37970,  -6.96910,
,,,81.87291,  -8.56910,
,,,82.36612,  -9.36910,
,,,82.85933,  -1.76910,
,,,83.35254,  -0.16910,
,,,83.84575,  -4.56910,
,,,84.33896,  -6.96910,
,,,84.83217,  -4.96910,
,,,85.32538,   7.83090,
,,,85.81859,  13.43090,
,,,86.31180,  13.83090,
,,,86.80501,  13.03090,
,,,87.29822,   6.23090,
,,,87.79143,  -3.36910,
,,,88.28464,  -1.76910,
,,,88.77785,  -4.96910,
,,,89.27106, -15.36910,
,,,89.76427,  -7.36910,
,,,90.25748,  -4.56910,
,,,90.75069,  -7.36910,
,,,91.24390,   2.63090,
,,,91.73711,   4.63090,
,,,92.23032,   4.63090,
,,,92.72353,   1.83090,
,,,93.21674, -14.56910,
,,,93.70995, -11.36910,
,,,94.20316, -11.36910,
,,,94.69637,  -8.56910,
,,,95.18958,  -8.96910,
,,,95.68279,  -7.36910,
,,,96.17600, -10.16910,
,,,96.66921,  -8.56910,
,,,97.16242,   3.83090,
,,,97.65563,   4.63090,
,,,98.14884,   2.63090,
,,,98.64205,  -7.36910,
,,,99.13526,  -5.36910,
,,,99.62847,  -4.96910,
,,,100.12168,  -8.96910,
,,,100.61489,  -7.36910,
,,,101.10810,  -4.56910,
,,,101.60131,  -2.16910,
,,,102.09452,  -7.36910,
,,,102.58773,   6.23090,
,,,103.08094,  11.03090,
,,,103.57415,  11.43090,
,,,104.06736,   9.83090,
,,,104.56057,   1.03090,
,,,105.05378,  -8.96910,
,,,105.54699,  -8.56910,
,,,106.04020,  -0.56910,
,,,106.53341,  -0.56910,
,,,107.02662,  -5.36910,
,,,107.51983, -20.96910,
,,,108.01304,  -5.76910,
,,,108.50625, -18.56910,
,,,108.99946,  -4.56910,
,,,109.49267,  -0.56910,
,,,109.98588,  -2.96910,
,,,110.47909,  -8.96910,
,,,110.97230, -15.36910,
,,,111.46551, -12.56910,
,,,111.95872,  -7.36910,
,,,112.45193,  -8.96910,
,,,112.94514,  -6.96910,
,,,113.43835,  -8.96910,
,,,113.93156,  -7.36910,
,,,114.42477,  -4.16910,
,,,114.91798,  -7.36910,
,,,115.41119, -11.36910,
,,,115.90440,  -8.96910,
,,,116.39761,  -0.96910,
,,,116.89082,  -2.96910,
,,,117.38403,  -7.36910,
,,,117.87724, -15.36910,
,,,118.37045,  -1.76910,
,,,118.86366,  -0.16910,
,,,119.35687,  -1.76910,
,,,119.85008,  -3.36910,
,,,120.34329,  -8.96910,
,,,120.83650,  -7.36910,
,,,121.32971,  -7.36910,
,,,121.82292, -11.36910,
,,,122.31613,  -0.56910,
,,,122.80934,   2.63090,
,,,123.30255,   2.63090,
,,,123.79576,  -6.16910,
,,,124.28897, -20.96910,
,,,124.78218,  -8.56910,
,,,125.27539,  -7.36910,
,,,125.76860,  -5.36910,
,,,126.26181,  -6.56910,
,,,126.75502,  -8.96910,
,,,127.24823, -20.96910,
,,,127.74144, -20.96910,
,,,128.23465, -18.56910,
,,,128.72786, -14.56910,
,,,129.22107, -15.36910,
,,,129.71428, -20.96910,
,,,130.20749, -20.96910,
,,,130.70070, -15.36910,
,,,131.19391, -11.36910,
,,,131.68712,  -8.56910,
,,,132.18033, -14.56910,
,,,132.67354, -18.56910,
,,,133.16675, -11.36910,
,,,133.65996,  -5.76910,
,,,134.15317,  -5.76910,
,,,134.64638, -10.16910,
,,,135.13959, -11.36910,
,,,135.63280,  -7.36910,
,,,136.12601, -10.16910,
,,,136.61922, -18.56910,
,,,137.11243,  -8.96910,
,,,137.60564,  -7.36910,
,,,138.09885,  -4.16910,
,,,138.59206,  -6.96910,
,,,139.08527, -14.56910,
,,,139.57848, -11.36910,
,,,140.07169,  -3.36910,
,,,140.56490,  -0.56910,
,,,141.05811,  -6.56910,
,,,141.55132,  -7.36910,
,,,142.04453,  -2.96910,
,,,142.53774,  -1.36910,
,,,143.03095,  -3.76910,
,,,143.52416,  -6.96910,
,,,144.01737, -10.16910,
,,,144.51058,  -8.96910,
,,,145.00379, -12.56910,
,,,145.49700,  -3.76910,
,,,145.99021,   3.83090,
,,,146.48342,   6.63090,
,,,146.97663,   9.43090,
,,,147.46984,   8.63090,
,,,147.96305,   3.83090,
,,,148.45626,  -1.76910,
,,,148.94947,  -8.56910,
,,,149.44268,  -2.56910,
,,,149.93589,  -6.56910,
,,,150.42910,  -6.56910,
,,,150.92231,  -5.36910,
,,,151.41552,  -6.56910,
,,,151.90873, -10.16910,
,,,152.40194,   1.43090,
,,,152.89515,   7.83090,
,,,153.38836,   8.23090,
,,,153.88157,   7.43090,
,,,154.37478,  -1.36910,
,,,154.86799, -11.76910,
,,,155.36120, -10.16910,
,,,155.85441,   1.43090,
,,,156.34762,   6.63090,
,,,156.84083,   6.63090,
,,,157.33404,   5.83090,
,,,157.82725,  -1.36910,
,,,158.32046,  -2.96910,
,,,158.81367,   1.43090,
,,,159.30688,   0.63090,
,,,159.80009,  -2.96910,
,,,160.29330, -10.16910,
,,,160.78651,  -6.16910,
,,,161.27972,  -4.96910,
,,,161.77293,  -6.16910,
,,,162.26614,  -2.16910,
,,,162.75935,   1.03090,
,,,163.25256,   1.03090,
,,,163.74577,  20.23090,
,,,164.23898,  27.43090,
,,,164.73219,  28.23090,
,,,165.22540,  27.83090,
,,,165.71861,  21.83090,
,,,166.21182,  -3.36910,
,,,166.70503,  -8.56910,
,,,167.19824,  -4.96910,
,,,167.69145,  -3.36910,
,,,168.18466,  -4.16910,
,,,168.67787,  -4.16910,
,,,169.17108,  -8.96910,
,,,169.66429, -12.56910,
,,,170.15750,  -6.56910,
,,,170.65071,  -3.76910,
,,,171.14392,  -7.36910,
,,,171.63713,  -8.56910,
,,,172.13034,  -4.56910,
,,,172.62355,  -7.36910,
,,,173.11676, -14.56910,
,,,173.60997, -15.36910,
,,,174.10318,  -8.96910,
,,,174.59639,  -6.96910,
,,,175.08960,  -7.36910,
,,,175.58281, -14.56910,
,,,176.07602, -14.56910,
,,,176.56923,  -8.56910,
,,,177.06244, -10.16910,
,,,177.55565, -10.16910,
,,,178.04886, -14.56910,
,,,178.54207, -15.36910,
,,,179.03528, -15.36910,
,,,179.52849, -12.56910,
,,,180.02170,  -7.36910,
,,,180.51491,  -6.56910,
,,,181.00812,  -7.36910,
,,,181.50133, -10.16910,
,,,181.99454,  -7.36910,
,,,182.48775,  -0.16910,
,,,182.98096,  -0.16910,
,,,183.47417,  -3.76910,
,,,183.96738, -15.36910,
,,,184.46059,  -6.56910,
,,,184.95380,  -9.36910,
,,,185.44701,  -4.56910,
,,,185.94022,  -0.96910,
,,,186.43343,   0.23090,
,,,186.92664,  -1.36910,
,,,187.41985,  -8.56910,
,,,187.91306, -14.56910,
,,,188.40627,  -9.36910,
,,,188.89948,  -5.76910,
,,,189.39269,  -0.96910,
,,,189.88590,  -0.56910,
,,,190.37911,  -0.56910,
,,,190.87232,  -6.16910,
,,,191.36553, -14.56910,
,,,191.85874, -20.96910,
,,,192.35195,  -4.56910,
,,,192.84516,   0.23090,
,,,193.33837,   0.23090,
,,,193.83158,  -1.36910,
,,,194.32479, -11.76910,
,,,194.81800,  -9.36910,
,,,195.31121,  -8.96910,
,,,195.80442,  -5.76910,
,,,196.29763,  -5.76910,
,,,196.79084,  -8.96910,
,,,197.28405, -11.36910,
,,,197.77726,  -7.36910,
,,,198.27047,  -0.96910,
,,,198.76368,  -0.96910,
,,,199.25689,  -2.56910,
,,,199.75010,  -7.36910,
,,,200.24331,  -7.36910,
,,,200.73652,  -7.36910,
,,,201.22973,  -8.96910,
,,,201.72294,  -7.36910,
,,,202.21615,  -5.76910,
,,,202.70936,  -2.96910,
,,,203.20257,  -7.36910,
,,,203.69578,   6.23090,
,,,204.18899,  10.23090,
,,,204.68220,  11.43090,
,,,205.17541,   9.83090,
,,,205.66862,   1.43090,
,,,206.16183,  -8.96910,
,,,206.65504,  -8.56910,
,,,207.14825,  -8.96910,
,,,207.64146, -11.76910,
,,,208.13467,  -7.36910,
,,,208.62788,  -0.16910,
,,,209.12109,   1.43090,
,,,209.61430,   0.63090,
,,,210.10751,  -3.36910,
,,,210.60072,  -4.16910,
,,,211.09393,  -4.56910,
,,,211.58714,  -4.16910,
,,,212.08035,  -4.96910,
,,,212.57356, -14.56910,
,,,213.06677, -11.76910,
,,,213.55998,   5.83090,
,,,214.05319,  17.83090,
,,,214.54640,  19.43090,
,,,215.03961,  19.83090,
,,,215.53282,  16.63090,
,,,216.02603,   2.63090,
,,,216.51924,  -8.96910,
,,,217.01245,  -5.36910,
,,,217.50566,  -6.16910,
,,,217.99887,  -6.96910,
,,,218.49208,  -5.36910,
,,,218.98529,  -6.96910,
,,,219.47850,  -6.16910,
,,,219.97171,   1.43090,
,,,220.46492,   3.03090,
,,,220.95813,   2.63090,
,,,221.45134, -10.16910,
,,,221.94455,  -0.96910,
,,,222.43776,   0.23090,
,,,222.93097,   1.03090,
,,,223.42418,  -0.16910,
,,,223.91739,  -7.36910,
,,,224.41060,  -8.96910,
,,,224.90381,  -5.36910,
,,,225.39702,   7.03090,
,,,225.89023,   9.83090,
,,,226.38344,   9.83090,
,,,226.87665,   6.63090,
,,,227.36986,  -6.16910,
,,,227.86307,  -8.96910,
,,,228.35628, -18.56910,
,,,228.84949, -18.56910,
,,,229.34270, -15.36910,
,,,229.83591, -12.56910,
,,,230.32912, -11.36910,
,,,230.82233,  -1.36910,
,,,231.31554,   3.43090,
,,,231.80875,   5.03090,
,,,232.30196,   6.23090,
,,,232.79517,   4.23090,
,,,233.28838,   1.43090,
,,,233.78159,  -0.16910,
,,,234.27480,  -4.16910,
,,,234.76801,  -4.16910,
,,,235.26122, -10.16910,
,,,235.75443,  -4.16910,
,,,236.24764,  -2.16910,
,,,236.74085,  -0.56910,
,,,237.23406,  -3.36910,
,,,237.72727,  -4.96910,
,,,238.22048,  -2.96910,
,,,238.71369,  -5.76910,
,,,239.20690,  -9.36910,
,,,239.70011, -11.36910,
,,,240.19332,  -9.36910,
,,,240.68653,  -5.36910,
,,,241.17974,  -7.36910,
,,,241.67295,  -8.96910,
,,,242.16616, -11.36910,
,,,242.65937,  -5.76910,
,,,243.15258,  -5.36910,
,,,243.64579,  -7.36910,
,,,244.13900, -11.76910,
,,,244.63221, -14.56910,
,,,245.12542,  -8.96910,
,,,245.61863, -14.56910,
,,,246.11184, -11.36910,
,,,246.60505,  -1.36910,
,,,247.09826,   3.03090,
,,,247.59147,   2.63090,
,,,248.08468,   3.03090,
,,,248.57789,  -0.56910,
,,,249.07110,  -7.36910,
,,,249.56431, -10.16910,
,,,250.05752, -20.96910,
,,,250.55073, -14.56910,
,,,251.04394, -14.56910,
,,,251.53715, -11.36910,
,,,252.03036, -11.36910,
,,,252.52357,  -8.56910,
,,,253.01678,  -3.76910,
,,,253.50999,  11.03090,
,,,254.00320,  19.03090,
,,,254.49641,  19.83090,
,,,254.98962,  19.83090,
,,,255.48283,  14.23090,
,,,255.97604,  -1.76910,
,,,256.46925,  -2.96910,
,,,256.96246, -11.36910,
,,,257.45567,  -7.36910,
,,,257.94888,  -1.36910,
,,,258.44209,  -0.56910,
,,,258.93530,  -9.36910,
,,,259.42851,  -7.36910,
,,,259.92172,  -3.36910,
,,,260.41493,  -3.76910,
,,,260.90814,  -3.76910,
,,,261.40135, -15.36910,
,,,261.89456,  -4.56910,
,,,262.38777,  -2.96910,
,,,262.88098,  -1.76910,
,,,263.37419,  -5.36910,
,,,263.86740, -11.36910,
,,,264.36061,  -5.76910,
,,,264.85382,  -5.36910,
,,,265.34703,  -4.96910,
,,,265.84024,  -8.56910,
,,,266.33345,  -9.36910,
,,,266.82666,  -8.96910,
,,,267.31987,  -8.56910,
,,,267.81308, -10.16910,
,,,268.30629,  -8.96910,
,,,268.79950,  -9.36910,
,,,269.29271, -15.36910,
,,,269.78592,  -0.56910,
,,,270.27913,   0.23090,
,,,270.77234,  -2.16910,
,,,271.26555, -15.36910,
,,,271.75876,  -6.16910,
,,,272.25197, -14.56910,
,,,272.74518,  -8.96910,
,,,273.23839,  -4.56910,
,,,273.73160,  -8.96910,
,,,274.22481,  -8.96910,
,,,274.71802,  -1.36910,
,,,275.21123,  11.43090,
,,,275.70444,  15.43090,
,,,276.19765,  15.03090,
,,,276.69086,  13.43090,
,,,277.18407,   4.23090,
,,,277.67728,  -7.36910,
,,,278.17049, -10.16910,
,,,278.66370, -14.56910,
,,,279.15691,  -6.16910,
,,,279.65012,  -2.56910,
,,,280.14333,  -2.56910,
,,,280.63654,  -1.36910,
,,,281.12975,   3.83090,
,,,281.62296,   4.63090,
,,,282.11617,   3.83090,
,,,282.60938,   0.23090,
,,,283.10259, -15.36910,
,,,283.59580, -15.36910,
,,,284.08901, -15.36910,
,,,284.58222, -14.56910,
,,,285.07543, -18.56910,
,,,285.56864, -15.36910,
,,,286.06185, -15.36910,
,,,286.55506,  -1.76910,
,,,287.04827,   4.63090,
,,,287.54148,   3.83090,
,,,288.03469,  -0.96910,
,,,288.52790,  -8.96910,
,,,289.02111,  -0.56910,
,,,289.51432,  -5.36910,
,,,290.00753,  -7.36910,
,,,290.50074,  -7.36910,
,,,290.99395,  -7.36910,
,,,291.48716,  -8.96910,
,,,291.98037,  -2.56910,
,,,292.47358,   7.43090,
,,,292.96679,   9.83090,
,,,293.46000,  11.43090,
,,,293.95321,   9.83090,
,,,294.44642,   3.83090,
,,,294.93963,  -0.96910,
,,,295.43284,   0.23090,
,,,295.92605,   6.63090,
,,,296.41926,   8.63090,
,,,296.91247,   9.43090,
,,,297.40568,   6.23090,
,,,297.89889,  -6.56910,
,,,298.39210,  -9.36910,
,,,298.88531,  -1.36910,
,,,299.37852,  -2.56910,
,,,299.87173, -10.16910,
,,,300.36494,  -4.96910,
,,,300.85815,  -3.76910,
,,,301.35136, -20.96910,
,,,301.84457,  -2.96910,
,,,302.33778,   1.83090,
,,,302.83099,   1.83090,
,,,303.32420,  -2.16910,
,,,303.81741,  -7.36910,
,,,304.31062,  -8.96910,
,,,304.80383, -11.36910,
,,,305.29704, -11.36910,
,,,305.79025,  -9.36910,
,,,306.28346,  -8.96910,
,,,306.77667, -10.16910,
,,,307.26988, -11.36910,
,,,307.76309, -11.76910,
,,,308.25630, -14.56910,
,,,308.74951, -15.36910,
,,,309.24272, -14.56910,
,,,309.73593, -12.56910,
,,,310.22914,  -7.36910,
,,,310.72235,  -5.76910,
,,,311.21556, -12.56910,
,,,311.70877,  -1.76910,
,,,312.20198,   1.83090,
,,,312.69519,   3.03090,
,,,313.18840,  -1.36910,
,,,313.68161, -20.96910,
,,,314.17482,  -8.96910,
,,,314.66803,  -7.36910,
,,,315.16124,  -6.96910,
,,,315.65445,  -8.96910,
,,,316.14766,  -8.56910,
,,,316.64087, -10.16910,
,,,317.13408, -18.56910,
,,,317.62729, -15.36910,
,,,318.12050, -15.36910,
,,,318.61371, -11.76910,
,,,319.10692, -11.36910,
,,,319.60013,  -6.96910,
,,,320.09334,  -6.16910,
,,,320.58655,  -3.76910,
,,,321.07976,  -2.96910,
,,,321.57297,  -4.56910,
,,,322.06618,  -5.36910,
,,,322.55939,  -7.36910,
,,,323.05260, -20.96910,
,,,323.54581, -18.56910,
,,,324.03902, -15.36910,
,,,324.53223, -20.96910,
,,,325.02544, -11.36910,
,,,325.51865,  -6.96910,
,,,326.01186,  -9.36910,
,,,326.50507, -11.76910,
,,,326.99828, -18.56910,
,,,327.49149, -14.56910,
,,,327.98470,  -6.96910,
,,,328.47791,  -6.16910,
,,,328.97112,  -2.16910,
,,,329.46433,  -2.16910,
,,,329.95754,  -1.36910,
,,,330.45075,  -6.16910,
,,,330.94396,  -7.36910,
,,,331.43717,  -2.16910,
,,,331.93038,  -4.56910,
,,,332.42359, -10.16910,
,,,332.91680,  -5.36910,
,,,333.41001,  -1.36910,
,,,333.90322,  -2.56910,
,,,334.39643,  -3.76910,
,,,334.88964,  -4.96910,
,,,335.38285,  -2.96910,
,,,335.87606,  -0.96910,
,,,336.36927,   3.43090,
,,,336.86248,   8.23090,
,,,337.35569,   7.83090,
,,,337.84890,   5.83090,
,,,338.34211,   0.23090,
,,,338.83532,  -8.96910,
,,,339.32853,  -8.56910,
,,,339.82174,  -5.36910,
,,,340.31495,  -2.96910,
,,,340.80816,  -5.76910,
,,,341.30137,  -6.16910,
,,,341.79458,  -5.76910,
,,,342.28779,  -4.56910,
,,,342.78100,   4.23090,
,,,343.27421,   6.23090,
,,,343.76742,   5.03090,
,,,344.26063,  -4.56910,
,,,344.75384, -11.76910,
,,,345.24705, -10.16910,
,,,345.74026,  -2.16910,
,,,346.23347,  -1.36910,
,,,346.72668,  -3.76910,
,,,347.21989,  -5.36910,
,,,347.71310,  -5.76910,
,,,348.20631,   3.83090,
,,,348.69952,   4.63090,
,,,349.19273,   3.03090,
,,,349.68594,  -3.76910,
,,,350.17915, -12.56910,
,,,350.67236, -10.16910,
,,,351.16557,  -2.16910,
,,,351.65878,   1.43090,
,,,352.15199,   1.43090,
,,,352.64520,  -1.36910,
,,,353.13841,   1.43090,
,,,353.63162,  17.03090,
,,,354.12483,  21.43090,
,,,354.61804,  21.43090,
,,,355.11125,  20.23090,
,,,355.60446,  11.83090,
,,,356.09767, -15.36910,
,,,356.59088,  -4.96910,
,,,357.08409,  -3.76910,
,,,357.57730,  -2.16910,
,,,358.07051,  -2.16910,
,,,358.56372,  -1.36910,
,,,359.05693,  -7.36910,
,,,359.55014,  -6.96910,
,,,360.04335,  -0.56910,
,,,360.53656,  -1.36910,
,,,361.02977,  -8.96910,
,,,361.52298,  -5.76910,
,,,362.01619,  -3.36910,
,,,362.50940,  -5.76910,
,,,363.00261, -11.36910,
,,,363.49582,  -8.96910,
,,,363.98903, -10.16910,
,,,364.48224, -11.36910,
,,,364.97545, -14.56910,
,,,365.46866, -11.76910,
,,,365.96187,  -5.36910,
,,,366.45508,  -3.76910,
,,,366.94829, -12.56910,
,,,367.44150,  -8.56910,
,,,367.93471,  -5.36910,
,,,368.42792,  -4.16910,
,,,368.92113,  -7.36910,
,,,369.41434, -11.76910,
,,,369.90755,  -6.96910,
,,,370.40076,  -8.96910,
,,,370.89397, -14.56910,
,,,371.38718, -12.56910,
,,,371.88039,  -5.36910,
,,,372.37360,  -1.36910,
,,,372.86681,  -2.16910,
,,,373.36002,  -4.16910,
,,,373.85323, -14.56910,
,,,374.34644,  -7.36910,
,,,374.83965, -10.16910,
,,,375.33286,  -7.36910,
,,,375.82607,  -3.76910,
,,,376.31928,  -1.76910,
,,,376.81249,  -2.96910,
,,,377.30570, -15.36910,
,,,377.79891, -20.96910,
,,,378.29212, -15.36910,
,,,378.78533, -15.36910,
,,,379.27854,  -5.76910,
,,,379.77175,  -7.36910,
,,,380.26496,  -8.96910,
,,,380.75817, -20.96910,
,,,381.25138, -20.96910,
,,,381.74459, -14.56910,
,,,382.23780,  -1.36910,
,,,382.73101,   1.03090,
,,,383.22422,   1.03090,
,,,383.71743,  -1.36910,
,,,384.21064, -18.56910,
,,,384.70385, -11.36910,
,,,385.19706,   2.63090,
,,,385.69027,   9.43090,
,,,386.18348,   9.83090,
,,,386.67669,   8.63090,
,,,387.16990,   3.83090,
,,,387.66311, -11.36910,
,,,388.15632,  -5.36910,
,,,388.64953, -10.16910,
,,,389.14274,  -8.96910,
,,,389.63595,  -8.56910,
,,,390.12916,  -2.56910,
,,,390.62237,  -4.96910,
,,,391.11558, -14.56910,
,,,391.60879,  -8.96910,
,,,392.10200, -10.16910,
,,,392.59521,  -6.56910,
,,,393.08842,   1.03090,
,,,393.58163,  13.83090,
,,,394.07484,  15.43090,
,,,394.56805,  15.43090,
,,,395.06126,  12.63090,
,,,395.55447,   0.23090,
,,,396.04768,  -8.96910,
,,,396.54089,  -7.36910,
,,,397.03410,  -4.16910,
,,,397.52731,  -0.96910,
,,,398.02052,   4.23090,
,,,398.51373,   4.63090,
,,,399.00694,   1.43090,
,,,399.50015,  -3.76910,
,,,399.99336,  -3.76910,
,,,400.48657,   0.63090,
,,,400.97978,  -0.16910,
,,,401.47299,   0.23090,
,,,401.96620,  -0.56910,
,,,402.45941,  -4.56910,
,,,402.95262,  -4.96910,
,,,403.44583,   5.83090,
,,,403.93904,  14.23090,
,,,404.43225,  14.63090,
,,,404.92546,  14.63090,
,,,405.41867,   8.63090,
,,,405.91188, -11.36910,
,,,406.40509, -11.76910,
,,,406.89830, -12.56910,
,,,407.39151,  -8.96910,
,,,407.88472, -12.56910,
,,,408.37793, -12.56910,
,,,408.87114, -20.96910,
,,,409.36435,  -5.76910,
,,,409.85756,  -2.16910,
,,,410.35077,  -3.36910,
,,,410.84398,  -5.76910,
,,,411.33719, -11.76910,
,,,411.83040,  -0.96910,
,,,412.32361,  -1.76910,
,,,412.81682,  -2.56910,
,,,413.31003,  -5.76910,
,,,413.80324,  -7.36910,
,,,414.29645,  -2.96910,
,,,414.78966,   1.43090,
,,,415.28287,  10.63090,
,,,415.77608,  11.83090,
,,,416.26929,  11.83090,
,,,416.76250,   7.43090,
,,,417.25571, -11.76910,
,,,417.74892,  -8.96910,
,,,418.24213,  -6.16910,
,,,418.73534,  -3.36910,
,,,419.22855,  -6.16910,
,,,419.72176,  -5.36910,
,,,420.21497,  -8.56910,
,,,420.70818,  -1.36910,
,,,421.20139,   2.23090,
,,,421.69460,   3.43090,
,,,422.18781,   5.03090,
,,,422.68102,   0.63090,
,,,423.17423,  -2.16910,
,,,423.66744,  -2.16910,
,,,424.16065,  -5.36910,
,,,424.65386,  -7.36910,
,,,425.14707,   3.83090,
,,,425.64028,   8.63090,
,,,426.13349,   9.03090,
,,,426.62670,   8.63090,
,,,427.11991,   4.23090,
,,,427.61312,   1.43090,
,,,428.10633,   2.63090,
,,,428.59954,   0.23090,
,,,429.09275,  -2.16910,
,,,429.58596,  -9.36910,
,,,430.07917,  -8.96910,
,,,430.57238,  -8.96910,
,,,431.06559,  -5.76910,
,,,431.55880,  -3.36910,
,,,432.05201,  -2.16910,
,,,432.54522,  -2.96910,
,,,433.03843,  -8.56910,
,,,433.53164,   1.43090,
,,,434.02485,   3.03090,
,,,434.51806,   1.43090,
,,,435.01127,  -7.36910,
,,,435.50448, -14.56910,
,,,435.99769, -11.36910,
,,,436.49090,  -0.96910,
,,,436.98411,   0.63090,
,,,437.47732,  -1.36910,
,,,437.97053,  -7.36910,
,,,438.46374, -14.56910,
,,,438.95695, -20.96910,
,,,439.45016,  -9.36910,
,,,439.94337,  -1.36910,
,,,440.43658,   0.23090,
,,,440.92979,  -1.76910,
,,,441.42300,  -4.16910,
,,,441.91621,  -7.36910,
,,,442.40942, -10.16910,
,,,442.90263, -11.76910,
,,,443.39584,  -5.36910,
,,,443.88905,   0.23090,
,,,444.38226,  -0.16910,
,,,444.87547,   0.23090,
,,,445.36868,  -6.16910,
,,,445.86189,  -7.36910,
,,,446.35510,  -9.36910,
,,,446.84831,  -1.36910,
,,,447.34152,   0.23090,
,,,447.83473,   0.63090,
,,,448.32794,  -0.96910,
,,,448.82115, -10.16910,
,,,449.31436, -20.96910,
,,,449.80757, -18.56910,
,,,450.30078, -18.56910,
,,,450.79399, -14.56910,
,,,451.28720,  -2.16910,
,,,451.78041,   1.43090,
,,,452.27362,   1.03090,
,,,452.76683,   1.03090,
,,,453.26004,  -5.76910,
,,,453.75325, -14.56910,
,,,454.24646, -10.16910,
,,,454.73967,  -6.56910,
,,,455.23288, -11.36910,
,,,455.72609, -14.56910,
,,,456.21930,  -8.96910,
,,,456.71251,  -5.76910,
,,,457.20572,  -4.56910,
,,,457.69893, -20.96910,
,,,458.19214, -15.36910,
,,,458.68535, -14.56910,
,,,459.17856,  -5.36910,
,,,459.67177,   2.23090,
,,,460.16498,   3.03090,
,,,460.65819,   0.23090,
,,,461.15140, -14.56910,
,,,461.64461,  -2.96910,
,,,462.13782,  -2.56910,
,,,462.63103,  -5.36910,
,,,463.12424,  -4.96910,
,,,463.61745,  -6.96910,
,,,464.11066, -11.36910,
,,,464.60387,   3.03090,
,,,465.09708,  15.03090,
,,,465.59029,  17.43090,
,,,466.08350,  17.03090,
,,,466.57671,  14.23090,
,,,467.06992,   0.63090,
,,,467.56313, -14.56910,
,,,468.05634,  -1.36910,
,,,468.54955,   0.23090,
,,,469.04276,   0.23090,
,,,469.53597,  -6.16910,
,,,470.02918, -11.76910,
,,,470.52239,  -6.96910,
,,,471.01560,   1.03090,
,,,471.50881,   1.43090,
,,,472.00202,   0.23090,
,,,472.49523,  -8.96910,
,,,472.98844, -15.36910,
,,,473.48165, -12.56910,
,,,473.97486,  -5.76910,
,,,474.46807,  -5.76910,
,,,474.96128, -15.36910,
,,,475.45449, -15.36910,
,,,475.94770,  -2.96910,
,,,476.44091,   6.63090,
,,,476.93412,   8.63090,
,,,477.42733,   9.03090,
,,,477.92054,   7.43090,
,,,478.41375,  -1.36910,
,,,478.90696, -18.56910,
,,,479.40017, -15.36910,
,,,479.89338,  -4.16910,
,,,480.38659,  -3.76910,
,,,480.87980,  -3.36910,
,,,481.37301,  -4.96910,
,,,481.86622,  -2.16910,
,,,482.35943,   8.23090,
,,,482.85264,   6.23090,
,,,483.34585,  -4.16910,
,,,483.83906,   7.83090,
,,,484.33227,  11.43090,
,,,484.82548,   8.63090,
,,,485.31869,  -4.96910,
,,,485.81190,  -9.36910,
,,,486.30511, -10.16910,
,,,486.79832,  -6.16910,
,,,487.29153,  -5.76910,
,,,487.78474, -20.96910,
,,,488.27795,  -4.16910,
,,,488.77116,   1.83090,
,,,489.26437,   1.43090,
,,,489.75758,  -4.16910,
,,,490.25079,  -7.36910,
,,,490.74400,  -6.96910,
,,,491.23721,  -2.16910,
,,,491.73042,  -3.36910,
,,,492.22363,  -6.96910,
,,,492.71684, -11.36910,
,,,493.21005, -20.96910,
,,,493.70326, -18.56910,
,,,494.19647, -14.56910,
,,,494.68968, -14.56910,
,,,495.18289, -20.96910,
,,,495.67610, -15.36910,
,,,496.16931,  -8.56910,
,,,496.66252, -10.16910,
,,,497.15573, -15.36910,
,,,497.64894, -11.36910,
,,,498.14215,  -7.36910,
,,,498.63536,  -8.56910,
,,,499.12857,  -4.96910,
,,,499.62178,  -4.96910,
,,,500.11499,  -7.36910,
,,,500.60820,  -6.16910,
,,,501.10141, -10.16910,
,,,501.59462,  -6.16910,
,,,502.08783,  -4.16910,
,,,502.58104,  -5.36910,
,,,503.07425, -18.56910,
,,,503.56746, -18.56910,
,,,504.06067, -10.16910,
,,,504.55388, -10.16910,
