%!PS-Adobe-3.0 EPSF-3.0
%%Creator: (MATLAB, The Mathworks, Inc. Version 9.1.0.441655 \(R2016b\). Operating System: Mac OS X)
%%Title: ./plots_sinus_fein_n0_f.eps
%%CreationDate: 2016-12-06T16:46:56
%%Pages: (atend)
%%BoundingBox:    70     0   728   130
%%LanguageLevel: 2
%%EndComments
%%BeginProlog
%%BeginResource: procset (Apache XML Graphics Std ProcSet) 1.2 0
%%Version: 1.2 0
%%Copyright: (Copyright 2001-2003,2010 The Apache Software Foundation. License terms: http://www.apache.org/licenses/LICENSE-2.0)
/bd{bind def}bind def
/ld{load def}bd
/GR/grestore ld
/M/moveto ld
/LJ/setlinejoin ld
/C/curveto ld
/f/fill ld
/LW/setlinewidth ld
/GC/setgray ld
/t/show ld
/N/newpath ld
/CT/concat ld
/cp/closepath ld
/S/stroke ld
/L/lineto ld
/CC/setcmykcolor ld
/A/ashow ld
/GS/gsave ld
/RC/setrgbcolor ld
/RM/rmoveto ld
/ML/setmiterlimit ld
/re {4 2 roll M
1 index 0 rlineto
0 exch rlineto
neg 0 rlineto
cp } bd
/_ctm matrix def
/_tm matrix def
/BT { _ctm currentmatrix pop matrix _tm copy pop 0 0 moveto } bd
/ET { _ctm setmatrix } bd
/iTm { _ctm setmatrix _tm concat } bd
/Tm { _tm astore pop iTm 0 0 moveto } bd
/ux 0.0 def
/uy 0.0 def
/F {
  /Tp exch def
  /Tf exch def
  Tf findfont Tp scalefont setfont
  /cf Tf def  /cs Tp def
} bd
/ULS {currentpoint /uy exch def /ux exch def} bd
/ULE {
  /Tcx currentpoint pop def
  gsave
  newpath
  cf findfont cs scalefont dup
  /FontMatrix get 0 get /Ts exch def /FontInfo get dup
  /UnderlinePosition get Ts mul /To exch def
  /UnderlineThickness get Ts mul /Tt exch def
  ux uy To add moveto  Tcx uy To add lineto
  Tt setlinewidth stroke
  grestore
} bd
/OLE {
  /Tcx currentpoint pop def
  gsave
  newpath
  cf findfont cs scalefont dup
  /FontMatrix get 0 get /Ts exch def /FontInfo get dup
  /UnderlinePosition get Ts mul /To exch def
  /UnderlineThickness get Ts mul /Tt exch def
  ux uy To add cs add moveto Tcx uy To add cs add lineto
  Tt setlinewidth stroke
  grestore
} bd
/SOE {
  /Tcx currentpoint pop def
  gsave
  newpath
  cf findfont cs scalefont dup
  /FontMatrix get 0 get /Ts exch def /FontInfo get dup
  /UnderlinePosition get Ts mul /To exch def
  /UnderlineThickness get Ts mul /Tt exch def
  ux uy To add cs 10 mul 26 idiv add moveto Tcx uy To add cs 10 mul 26 idiv add lineto
  Tt setlinewidth stroke
  grestore
} bd
/QT {
/Y22 exch store
/X22 exch store
/Y21 exch store
/X21 exch store
currentpoint
/Y21 load 2 mul add 3 div exch
/X21 load 2 mul add 3 div exch
/X21 load 2 mul /X22 load add 3 div
/Y21 load 2 mul /Y22 load add 3 div
/X22 load /Y22 load curveto
} bd
/SSPD {
dup length /d exch dict def
{
/v exch def
/k exch def
currentpagedevice k known {
/cpdv currentpagedevice k get def
v cpdv ne {
/upd false def
/nullv v type /nulltype eq def
/nullcpdv cpdv type /nulltype eq def
nullv nullcpdv or
{
/upd true def
} {
/sametype v type cpdv type eq def
sametype {
v type /arraytype eq {
/vlen v length def
/cpdvlen cpdv length def
vlen cpdvlen eq {
0 1 vlen 1 sub {
/i exch def
/obj v i get def
/cpdobj cpdv i get def
obj cpdobj ne {
/upd true def
exit
} if
} for
} {
/upd true def
} ifelse
} {
v type /dicttype eq {
v {
/dv exch def
/dk exch def
/cpddv cpdv dk get def
dv cpddv ne {
/upd true def
exit
} if
} forall
} {
/upd true def
} ifelse
} ifelse
} if
} ifelse
upd true eq {
d k v put
} if
} if
} if
} forall
d length 0 gt {
d setpagedevice
} if
} bd
/RE { % /NewFontName [NewEncodingArray] /FontName RE -
  findfont dup length dict begin
  {
    1 index /FID ne
    {def} {pop pop} ifelse
  } forall
  /Encoding exch def
  /FontName 1 index def
  currentdict definefont pop
  end
} bind def
%%EndResource
%%BeginResource: procset (Apache XML Graphics EPS ProcSet) 1.0 0
%%Version: 1.0 0
%%Copyright: (Copyright 2002-2003 The Apache Software Foundation. License terms: http://www.apache.org/licenses/LICENSE-2.0)
/BeginEPSF { %def
/b4_Inc_state save def         % Save state for cleanup
/dict_count countdictstack def % Count objects on dict stack
/op_count count 1 sub def      % Count objects on operand stack
userdict begin                 % Push userdict on dict stack
/showpage { } def              % Redefine showpage, { } = null proc
0 setgray 0 setlinecap         % Prepare graphics state
1 setlinewidth 0 setlinejoin
10 setmiterlimit [ ] 0 setdash newpath
/languagelevel where           % If level not equal to 1 then
{pop languagelevel             % set strokeadjust and
1 ne                           % overprint to their defaults.
{false setstrokeadjust false setoverprint
} if
} if
} bd
/EndEPSF { %def
count op_count sub {pop} repeat            % Clean up stacks
countdictstack dict_count sub {end} repeat
b4_Inc_state restore
} bd
%%EndResource
%FOPBeginFontDict
%%IncludeResource: font Courier-Bold
%%IncludeResource: font Helvetica
%%IncludeResource: font Courier-BoldOblique
%%IncludeResource: font Courier-Oblique
%%IncludeResource: font Times-Roman
%%IncludeResource: font Helvetica-BoldOblique
%%IncludeResource: font Helvetica-Bold
%%IncludeResource: font Helvetica-Oblique
%%IncludeResource: font Times-BoldItalic
%%IncludeResource: font Courier
%%IncludeResource: font Times-Italic
%%IncludeResource: font Times-Bold
%%IncludeResource: font Symbol
%%IncludeResource: font ZapfDingbats
%FOPEndFontDict
%%BeginResource: encoding WinAnsiEncoding
/WinAnsiEncoding [
/.notdef /.notdef /.notdef /.notdef /.notdef
/.notdef /.notdef /.notdef /.notdef /.notdef
/.notdef /.notdef /.notdef /.notdef /.notdef
/.notdef /.notdef /.notdef /.notdef /.notdef
/.notdef /.notdef /.notdef /.notdef /.notdef
/.notdef /.notdef /.notdef /.notdef /.notdef
/.notdef /.notdef /space /exclam /quotedbl
/numbersign /dollar /percent /ampersand /quotesingle
/parenleft /parenright /asterisk /plus /comma
/hyphen /period /slash /zero /one
/two /three /four /five /six
/seven /eight /nine /colon /semicolon
/less /equal /greater /question /at
/A /B /C /D /E
/F /G /H /I /J
/K /L /M /N /O
/P /Q /R /S /T
/U /V /W /X /Y
/Z /bracketleft /backslash /bracketright /asciicircum
/underscore /quoteleft /a /b /c
/d /e /f /g /h
/i /j /k /l /m
/n /o /p /q /r
/s /t /u /v /w
/x /y /z /braceleft /bar
/braceright /asciitilde /bullet /Euro /bullet
/quotesinglbase /florin /quotedblbase /ellipsis /dagger
/daggerdbl /circumflex /perthousand /Scaron /guilsinglleft
/OE /bullet /Zcaron /bullet /bullet
/quoteleft /quoteright /quotedblleft /quotedblright /bullet
/endash /emdash /asciitilde /trademark /scaron
/guilsinglright /oe /bullet /zcaron /Ydieresis
/space /exclamdown /cent /sterling /currency
/yen /brokenbar /section /dieresis /copyright
/ordfeminine /guillemotleft /logicalnot /sfthyphen /registered
/macron /degree /plusminus /twosuperior /threesuperior
/acute /mu /paragraph /middot /cedilla
/onesuperior /ordmasculine /guillemotright /onequarter /onehalf
/threequarters /questiondown /Agrave /Aacute /Acircumflex
/Atilde /Adieresis /Aring /AE /Ccedilla
/Egrave /Eacute /Ecircumflex /Edieresis /Igrave
/Iacute /Icircumflex /Idieresis /Eth /Ntilde
/Ograve /Oacute /Ocircumflex /Otilde /Odieresis
/multiply /Oslash /Ugrave /Uacute /Ucircumflex
/Udieresis /Yacute /Thorn /germandbls /agrave
/aacute /acircumflex /atilde /adieresis /aring
/ae /ccedilla /egrave /eacute /ecircumflex
/edieresis /igrave /iacute /icircumflex /idieresis
/eth /ntilde /ograve /oacute /ocircumflex
/otilde /odieresis /divide /oslash /ugrave
/uacute /ucircumflex /udieresis /yacute /thorn
/ydieresis
] def
%%EndResource
%FOPBeginFontReencode
/Courier-Bold findfont
dup length dict begin
  {1 index /FID ne {def} {pop pop} ifelse} forall
  /Encoding WinAnsiEncoding def
  currentdict
end
/Courier-Bold exch definefont pop
/Helvetica findfont
dup length dict begin
  {1 index /FID ne {def} {pop pop} ifelse} forall
  /Encoding WinAnsiEncoding def
  currentdict
end
/Helvetica exch definefont pop
/Courier-BoldOblique findfont
dup length dict begin
  {1 index /FID ne {def} {pop pop} ifelse} forall
  /Encoding WinAnsiEncoding def
  currentdict
end
/Courier-BoldOblique exch definefont pop
/Courier-Oblique findfont
dup length dict begin
  {1 index /FID ne {def} {pop pop} ifelse} forall
  /Encoding WinAnsiEncoding def
  currentdict
end
/Courier-Oblique exch definefont pop
/Times-Roman findfont
dup length dict begin
  {1 index /FID ne {def} {pop pop} ifelse} forall
  /Encoding WinAnsiEncoding def
  currentdict
end
/Times-Roman exch definefont pop
/Helvetica-BoldOblique findfont
dup length dict begin
  {1 index /FID ne {def} {pop pop} ifelse} forall
  /Encoding WinAnsiEncoding def
  currentdict
end
/Helvetica-BoldOblique exch definefont pop
/Helvetica-Bold findfont
dup length dict begin
  {1 index /FID ne {def} {pop pop} ifelse} forall
  /Encoding WinAnsiEncoding def
  currentdict
end
/Helvetica-Bold exch definefont pop
/Helvetica-Oblique findfont
dup length dict begin
  {1 index /FID ne {def} {pop pop} ifelse} forall
  /Encoding WinAnsiEncoding def
  currentdict
end
/Helvetica-Oblique exch definefont pop
/Times-BoldItalic findfont
dup length dict begin
  {1 index /FID ne {def} {pop pop} ifelse} forall
  /Encoding WinAnsiEncoding def
  currentdict
end
/Times-BoldItalic exch definefont pop
/Courier findfont
dup length dict begin
  {1 index /FID ne {def} {pop pop} ifelse} forall
  /Encoding WinAnsiEncoding def
  currentdict
end
/Courier exch definefont pop
/Times-Italic findfont
dup length dict begin
  {1 index /FID ne {def} {pop pop} ifelse} forall
  /Encoding WinAnsiEncoding def
  currentdict
end
/Times-Italic exch definefont pop
/Times-Bold findfont
dup length dict begin
  {1 index /FID ne {def} {pop pop} ifelse} forall
  /Encoding WinAnsiEncoding def
  currentdict
end
/Times-Bold exch definefont pop
%FOPEndFontReencode
%%EndProlog
%%Page: 1 1
%%PageBoundingBox: 0 0 800 140
%%BeginPageSetup
[1 0 0 -1 0 140] CT
%%EndPageSetup
GS
1 GC
N
0 0 800 140 re
f
GR
GS
1 GC
N
0 0 800 140 re
f
GR
GS
1 GC
N
104 109.5 M
724 109.5 L
724 10.5 L
104 10.5 L
cp
f
GR
GS
0.149 GC
2 setlinecap
1 LJ
0.5 LW
N
104 109.5 M
724 109.5 L
S
GR
GS
0.149 GC
2 setlinecap
1 LJ
0.5 LW
N
104 10.5 M
724 10.5 L
S
GR
GS
0.149 GC
2 setlinecap
1 LJ
0.5 LW
N
104 109.5 M
104 103.3 L
S
GR
GS
0.149 GC
2 setlinecap
1 LJ
0.5 LW
N
165.44 109.5 M
165.44 103.3 L
S
GR
GS
0.149 GC
2 setlinecap
1 LJ
0.5 LW
N
226.881 109.5 M
226.881 103.3 L
S
GR
GS
0.149 GC
2 setlinecap
1 LJ
0.5 LW
N
288.321 109.5 M
288.321 103.3 L
S
GR
GS
0.149 GC
2 setlinecap
1 LJ
0.5 LW
N
349.762 109.5 M
349.762 103.3 L
S
GR
GS
0.149 GC
2 setlinecap
1 LJ
0.5 LW
N
411.202 109.5 M
411.202 103.3 L
S
GR
GS
0.149 GC
2 setlinecap
1 LJ
0.5 LW
N
472.642 109.5 M
472.642 103.3 L
S
GR
GS
0.149 GC
2 setlinecap
1 LJ
0.5 LW
N
534.083 109.5 M
534.083 103.3 L
S
GR
GS
0.149 GC
2 setlinecap
1 LJ
0.5 LW
N
595.523 109.5 M
595.523 103.3 L
S
GR
GS
0.149 GC
2 setlinecap
1 LJ
0.5 LW
N
656.964 109.5 M
656.964 103.3 L
S
GR
GS
0.149 GC
2 setlinecap
1 LJ
0.5 LW
N
718.404 109.5 M
718.404 103.3 L
S
GR
GS
0.149 GC
2 setlinecap
1 LJ
0.5 LW
N
104 10.5 M
104 16.7 L
S
GR
GS
0.149 GC
2 setlinecap
1 LJ
0.5 LW
N
165.44 10.5 M
165.44 16.7 L
S
GR
GS
0.149 GC
2 setlinecap
1 LJ
0.5 LW
N
226.881 10.5 M
226.881 16.7 L
S
GR
GS
0.149 GC
2 setlinecap
1 LJ
0.5 LW
N
288.321 10.5 M
288.321 16.7 L
S
GR
GS
0.149 GC
2 setlinecap
1 LJ
0.5 LW
N
349.762 10.5 M
349.762 16.7 L
S
GR
GS
0.149 GC
2 setlinecap
1 LJ
0.5 LW
N
411.202 10.5 M
411.202 16.7 L
S
GR
GS
0.149 GC
2 setlinecap
1 LJ
0.5 LW
N
472.642 10.5 M
472.642 16.7 L
S
GR
GS
0.149 GC
2 setlinecap
1 LJ
0.5 LW
N
534.083 10.5 M
534.083 16.7 L
S
GR
GS
0.149 GC
2 setlinecap
1 LJ
0.5 LW
N
595.523 10.5 M
595.523 16.7 L
S
GR
GS
0.149 GC
2 setlinecap
1 LJ
0.5 LW
N
656.964 10.5 M
656.964 16.7 L
S
GR
GS
0.149 GC
2 setlinecap
1 LJ
0.5 LW
N
718.404 10.5 M
718.404 16.7 L
S
GR
GS
[1 0 0 1 104 113.5] CT
0.149 GC
/Helvetica 10 F
GS
[1 0 0 1 0 0] CT
-3 10 moveto 
1 -1 scale
(0) t 
GR
GR
GS
[1 0 0 1 165.44041 113.5] CT
0.149 GC
/Helvetica 10 F
GS
[1 0 0 1 0 0] CT
-6 10 moveto 
1 -1 scale
(50) t 
GR
GR
GS
[1 0 0 1 226.88083 113.5] CT
0.149 GC
/Helvetica 10 F
GS
[1 0 0 1 0 0] CT
-8.5 10 moveto 
1 -1 scale
(100) t 
GR
GR
GS
[1 0 0 1 288.32126 113.5] CT
0.149 GC
/Helvetica 10 F
GS
[1 0 0 1 0 0] CT
-8.5 10 moveto 
1 -1 scale
(150) t 
GR
GR
GS
[1 0 0 1 349.76166 113.5] CT
0.149 GC
/Helvetica 10 F
GS
[1 0 0 1 0 0] CT
-8.5 10 moveto 
1 -1 scale
(200) t 
GR
GR
GS
[1 0 0 1 411.20209 113.5] CT
0.149 GC
/Helvetica 10 F
GS
[1 0 0 1 0 0] CT
-8.5 10 moveto 
1 -1 scale
(250) t 
GR
GR
GS
[1 0 0 1 472.64249 113.5] CT
0.149 GC
/Helvetica 10 F
GS
[1 0 0 1 0 0] CT
-8.5 10 moveto 
1 -1 scale
(300) t 
GR
GR
GS
[1 0 0 1 534.08289 113.5] CT
0.149 GC
/Helvetica 10 F
GS
[1 0 0 1 0 0] CT
-8.5 10 moveto 
1 -1 scale
(350) t 
GR
GR
GS
[1 0 0 1 595.52332 113.5] CT
0.149 GC
/Helvetica 10 F
GS
[1 0 0 1 0 0] CT
-8.5 10 moveto 
1 -1 scale
(400) t 
GR
GR
GS
[1 0 0 1 656.96375 113.5] CT
0.149 GC
/Helvetica 10 F
GS
[1 0 0 1 0 0] CT
-8.5 10 moveto 
1 -1 scale
(450) t 
GR
GR
GS
[1 0 0 1 718.40417 113.5] CT
0.149 GC
/Helvetica 10 F
GS
[1 0 0 1 0 0] CT
-8.5 10 moveto 
1 -1 scale
(500) t 
GR
GR
GS
[1 0 0 1 414.00031 127] CT
0.149 GC
/Helvetica 11 F
GS
[1 0 0 1 0 0] CT
-37 11 moveto 
1 -1 scale
(Frequency [Hz]) t 
GR
GR
GS
0.149 GC
2 setlinecap
1 LJ
0.5 LW
N
104 109.5 M
104 10.5 L
S
GR
GS
0.149 GC
2 setlinecap
1 LJ
0.5 LW
N
724 109.5 M
724 10.5 L
S
GR
GS
0.149 GC
2 setlinecap
1 LJ
0.5 LW
N
104 108.167 M
110.2 108.167 L
S
GR
GS
0.149 GC
2 setlinecap
1 LJ
0.5 LW
N
104 80.667 M
110.2 80.667 L
S
GR
GS
0.149 GC
2 setlinecap
1 LJ
0.5 LW
N
104 53.167 M
110.2 53.167 L
S
GR
GS
0.149 GC
2 setlinecap
1 LJ
0.5 LW
N
104 25.667 M
110.2 25.667 L
S
GR
GS
0.149 GC
2 setlinecap
1 LJ
0.5 LW
N
724 108.167 M
717.8 108.167 L
S
GR
GS
0.149 GC
2 setlinecap
1 LJ
0.5 LW
N
724 80.667 M
717.8 80.667 L
S
GR
GS
0.149 GC
2 setlinecap
1 LJ
0.5 LW
N
724 53.167 M
717.8 53.167 L
S
GR
GS
0.149 GC
2 setlinecap
1 LJ
0.5 LW
N
724 25.667 M
717.8 25.667 L
S
GR
GS
[1 0 0 1 100 108.16749] CT
0.149 GC
/Helvetica 10 F
GS
[1 0 0 1 0 0] CT
-16 3.5 moveto 
1 -1 scale
(-20) t 
GR
GR
GS
[1 0 0 1 100 80.66749] CT
0.149 GC
/Helvetica 10 F
GS
[1 0 0 1 0 0] CT
-6 3.5 moveto 
1 -1 scale
(0) t 
GR
GR
GS
[1 0 0 1 100 53.16749] CT
0.149 GC
/Helvetica 10 F
GS
[1 0 0 1 0 0] CT
-12 3.5 moveto 
1 -1 scale
(20) t 
GR
GR
GS
[1 0 0 1 100 25.66749] CT
0.149 GC
/Helvetica 10 F
GS
[1 0 0 1 0 0] CT
-12 3.5 moveto 
1 -1 scale
(40) t 
GR
GR
GS
[0 -1 1 0 81.5 59.99995] CT
0.149 GC
/Helvetica 11 F
GS
[1 0 0 1 0 0] CT
-38 -3 moveto 
1 -1 scale
(Magnitude [dB]) t 
GR
GR
GS
0 0.447 0.741 RC
1 LJ
0.5 LW
N
104 14.35 M
104.606 10.5 L
105.212 19.85 L
105.818 88.6 L
106.424 90.8 L
107.03 86.4 L
107.636 80.9 L
108.242 80.35 L
108.849 80.9 L
109.455 90.8 L
110.061 109.5 L
110.667 106.2 L
111.273 96.3 L
111.879 85.3 L
112.485 82.55 L
113.091 83.1 L
113.697 90.8 L
114.303 94.65 L
114.909 89.15 L
115.515 89.15 L
116.121 90.8 L
116.727 90.8 L
117.333 90.8 L
117.939 97.95 L
118.546 100.7 L
119.152 100.7 L
119.758 100.7 L
120.364 96.85 L
120.97 93.55 L
121.576 93 L
122.182 93 L
122.788 96.3 L
123.394 101.8 L
124 93 L
124.606 93 L
125.212 93.55 L
125.818 93.55 L
126.424 83.65 L
127.03 75.4 L
127.636 74.85 L
128.242 77.6 L
128.849 88.05 L
129.455 79.8 L
130.061 75.4 L
130.667 79.25 L
131.273 80.9 L
131.879 109.5 L
132.485 84.2 L
133.091 67.15 L
133.697 41.85 L
134.303 36.9 L
134.909 36.35 L
135.515 38.55 L
136.121 53.4 L
136.727 75.95 L
137.333 100.7 L
137.939 86.4 L
138.546 92.45 L
139.152 93 L
139.758 88.05 L
140.364 88.05 L
140.97 73.75 L
141.576 71 L
142.182 71 L
142.788 77.05 L
143.394 96.85 L
144 93 L
144.606 90.8 L
145.212 90.8 L
145.818 94.65 L
146.424 90.8 L
147.03 89.15 L
147.636 75.4 L
148.242 69.35 L
148.849 69.9 L
149.455 72.1 L
150.061 90.8 L
150.667 90.8 L
151.273 94.65 L
151.879 94.65 L
152.485 94.65 L
153.091 109.5 L
153.697 97.95 L
154.303 93 L
154.909 77.6 L
155.515 73.75 L
156.121 69.35 L
156.727 69.9 L
157.333 74.85 L
157.939 77.6 L
158.546 89.15 L
159.152 86.4 L
159.758 86.4 L
160.364 85.85 L
160.97 92.45 L
161.576 90.8 L
162.182 87.5 L
162.788 90.8 L
163.394 101.8 L
164 96.85 L
164.606 92.45 L
165.212 97.95 L
165.818 93 L
166.424 84.2 L
167.03 83.1 L
167.636 83.1 L
168.242 88.05 L
168.849 92.45 L
169.455 93 L
170.061 92.45 L
170.667 88.6 L
171.273 93 L
171.879 90.8 L
172.485 87.5 L
173.091 89.15 L
173.697 100.7 L
174.303 90.8 L
174.909 90.8 L
175.515 96.85 L
176.121 96.3 L
176.727 88.05 L
177.333 100.7 L
177.939 100.7 L
178.546 89.7 L
179.152 94.65 L
179.758 96.85 L
180.364 100.7 L
180.97 97.95 L
181.576 96.85 L
182.182 81.45 L
182.788 71 L
183.394 69.35 L
184 69.9 L
184.606 74.85 L
185.212 82 L
185.818 78.15 L
186.424 75.95 L
187.03 75.95 L
187.636 82.55 L
188.242 94.65 L
188.849 101.8 L
189.455 106.2 L
190.061 106.2 L
190.667 101.8 L
191.273 100.7 L
191.879 96.3 L
192.485 81.45 L
193.091 78.7 L
193.697 77.6 L
194.303 80.35 L
194.909 85.3 L
195.515 83.65 L
196.121 82.55 L
196.727 85.3 L
197.333 94.65 L
197.939 90.8 L
198.546 85.85 L
199.152 86.95 L
199.758 101.8 L
200.364 90.8 L
200.97 87.5 L
201.576 97.95 L
202.182 93 L
202.788 86.4 L
203.394 96.85 L
204 90.25 L
204.606 92.45 L
205.212 93.55 L
205.818 83.1 L
206.424 80.9 L
207.03 86.95 L
207.636 90.25 L
208.242 87.5 L
208.849 69.9 L
209.455 62.2 L
210.061 61.65 L
210.667 62.75 L
211.273 72.1 L
211.879 85.3 L
212.485 83.1 L
213.091 87.5 L
213.697 101.8 L
214.303 90.8 L
214.909 86.95 L
215.515 90.8 L
216.121 77.05 L
216.727 74.3 L
217.333 74.3 L
217.939 78.15 L
218.546 100.7 L
219.152 96.3 L
219.758 96.3 L
220.364 92.45 L
220.97 93 L
221.576 90.8 L
222.182 94.65 L
222.788 92.45 L
223.394 75.4 L
224 74.3 L
224.606 77.05 L
225.212 90.8 L
225.818 88.05 L
226.424 87.5 L
227.03 93 L
227.636 90.8 L
228.242 86.95 L
228.849 83.65 L
229.455 90.8 L
230.061 72.1 L
230.667 65.5 L
231.273 64.95 L
231.879 67.15 L
232.485 79.25 L
233.091 93 L
233.697 92.45 L
234.303 81.45 L
234.909 81.45 L
235.515 88.05 L
236.121 109.5 L
236.727 88.6 L
237.333 106.2 L
237.939 86.95 L
238.546 81.45 L
239.152 84.75 L
239.758 93 L
240.364 101.8 L
240.97 97.95 L
241.576 90.8 L
242.182 93 L
242.788 90.25 L
243.394 93 L
244 90.8 L
244.606 86.4 L
245.212 90.8 L
245.818 96.3 L
246.424 93 L
247.03 82 L
247.636 84.75 L
248.242 90.8 L
248.849 101.8 L
249.455 83.1 L
250.061 80.9 L
250.667 83.1 L
251.273 85.3 L
251.879 93 L
252.485 90.8 L
253.091 90.8 L
253.697 96.3 L
254.303 81.45 L
254.909 77.05 L
255.515 77.05 L
256.121 89.15 L
256.727 109.5 L
257.333 92.45 L
257.939 90.8 L
258.546 88.05 L
259.152 89.7 L
259.758 93 L
260.364 109.5 L
260.97 109.5 L
261.576 106.2 L
262.182 100.7 L
262.788 101.8 L
263.394 109.5 L
264 109.5 L
264.606 101.8 L
265.212 96.3 L
265.818 92.45 L
266.424 100.7 L
267.03 106.2 L
267.636 96.3 L
268.242 88.6 L
268.849 88.6 L
269.455 94.65 L
270.061 96.3 L
270.667 90.8 L
271.273 94.65 L
271.879 106.2 L
272.485 93 L
273.091 90.8 L
273.697 86.4 L
274.303 90.25 L
274.909 100.7 L
275.515 96.3 L
276.121 85.3 L
276.727 81.45 L
277.333 89.7 L
277.939 90.8 L
278.546 84.75 L
279.152 82.55 L
279.758 85.85 L
280.364 90.25 L
280.97 94.65 L
281.576 93 L
282.182 97.95 L
282.788 85.85 L
283.394 75.4 L
284 71.55 L
284.606 67.7 L
285.212 68.8 L
285.818 75.4 L
286.424 83.1 L
287.03 92.45 L
287.636 84.2 L
288.242 89.7 L
288.849 89.7 L
289.455 88.05 L
290.061 89.7 L
290.667 94.65 L
291.273 78.7 L
291.879 69.9 L
292.485 69.35 L
293.091 70.45 L
293.697 82.55 L
294.303 96.85 L
294.909 94.65 L
295.515 78.7 L
296.121 71.55 L
296.727 71.55 L
297.333 72.65 L
297.939 82.55 L
298.546 84.75 L
299.152 78.7 L
299.758 79.8 L
300.364 84.75 L
300.97 94.65 L
301.576 89.15 L
302.182 87.5 L
302.788 89.15 L
303.394 83.65 L
304 79.25 L
304.606 79.25 L
305.212 52.85 L
305.818 42.95 L
306.424 41.85 L
307.03 42.4 L
307.636 50.65 L
308.242 85.3 L
308.849 92.45 L
309.455 87.5 L
310.061 85.3 L
310.667 86.4 L
311.273 86.4 L
311.879 93 L
312.485 97.95 L
313.091 89.7 L
313.697 85.85 L
314.303 90.8 L
314.909 92.45 L
315.515 86.95 L
316.121 90.8 L
316.727 100.7 L
317.333 101.8 L
317.939 93 L
318.546 90.25 L
319.152 90.8 L
319.758 100.7 L
320.364 100.7 L
320.97 92.45 L
321.576 94.65 L
322.182 94.65 L
322.788 100.7 L
323.394 101.8 L
324 101.8 L
324.606 97.95 L
325.212 90.8 L
325.818 89.7 L
326.424 90.8 L
327.03 94.65 L
327.636 90.8 L
328.242 80.9 L
328.849 80.9 L
329.455 85.85 L
330.061 101.8 L
330.667 89.7 L
331.273 93.55 L
331.879 86.95 L
332.485 82 L
333.091 80.35 L
333.697 82.55 L
334.303 92.45 L
334.909 100.7 L
335.515 93.55 L
336.121 88.6 L
336.727 82 L
337.333 81.45 L
337.939 81.45 L
338.545 89.15 L
339.152 100.7 L
339.758 109.5 L
340.364 86.95 L
340.97 80.35 L
341.576 80.35 L
342.182 82.55 L
342.788 96.85 L
343.394 93.55 L
344 93 L
344.606 88.6 L
345.212 88.6 L
345.818 93 L
346.424 96.3 L
347.03 90.8 L
347.636 82 L
348.242 82 L
348.849 84.2 L
349.455 90.8 L
350.061 90.8 L
350.667 90.8 L
351.273 93 L
351.879 90.8 L
352.485 88.6 L
353.091 84.75 L
353.697 90.8 L
354.303 72.1 L
354.909 66.6 L
355.515 64.95 L
356.121 67.15 L
356.727 78.7 L
357.333 93 L
357.939 92.45 L
358.546 93 L
359.152 96.85 L
359.758 90.8 L
360.364 80.9 L
360.97 78.7 L
361.576 79.8 L
362.182 85.3 L
362.788 86.4 L
363.394 86.95 L
364 86.4 L
364.606 87.5 L
365.212 100.7 L
365.818 96.85 L
366.424 72.65 L
367.03 56.15 L
367.636 53.95 L
368.242 53.4 L
368.849 57.8 L
369.455 77.05 L
370.061 93 L
370.667 88.05 L
371.273 89.15 L
371.879 90.25 L
372.485 88.05 L
373.091 90.25 L
373.697 89.15 L
374.303 78.7 L
374.909 76.5 L
375.515 77.05 L
376.121 94.65 L
376.727 82 L
377.333 80.35 L
377.939 79.25 L
378.546 80.9 L
379.152 90.8 L
379.758 93 L
380.364 88.05 L
380.97 71 L
381.576 67.15 L
382.182 67.15 L
382.788 71.55 L
383.394 89.15 L
384 93 L
384.606 106.2 L
385.212 106.2 L
385.818 101.8 L
386.424 97.95 L
387.03 96.3 L
387.636 82.55 L
388.242 75.95 L
388.849 73.75 L
389.455 72.1 L
390.061 74.85 L
390.667 78.7 L
391.273 80.9 L
391.879 86.4 L
392.485 86.4 L
393.091 94.65 L
393.697 86.4 L
394.303 83.65 L
394.909 81.45 L
395.515 85.3 L
396.121 87.5 L
396.727 84.75 L
397.333 88.6 L
397.939 93.55 L
398.545 96.3 L
399.152 93.55 L
399.758 88.05 L
400.364 90.8 L
400.97 93 L
401.576 96.3 L
402.182 88.6 L
402.788 88.05 L
403.394 90.8 L
404 96.85 L
404.606 100.7 L
405.212 93 L
405.818 100.7 L
406.424 96.3 L
407.03 82.55 L
407.636 76.5 L
408.242 77.05 L
408.849 76.5 L
409.455 81.45 L
410.061 90.8 L
410.667 94.65 L
411.273 109.5 L
411.879 100.7 L
412.485 100.7 L
413.091 96.3 L
413.697 96.3 L
414.303 92.45 L
414.909 85.85 L
415.515 65.5 L
416.121 54.5 L
416.727 53.4 L
417.333 53.4 L
417.939 61.1 L
418.546 83.1 L
419.152 84.75 L
419.758 96.3 L
420.364 90.8 L
420.97 82.55 L
421.576 81.45 L
422.182 93.55 L
422.788 90.8 L
423.394 85.3 L
424 85.85 L
424.606 85.85 L
425.212 101.8 L
425.818 86.95 L
426.424 84.75 L
427.03 83.1 L
427.636 88.05 L
428.242 96.3 L
428.849 88.6 L
429.455 88.05 L
430.061 87.5 L
430.667 92.45 L
431.273 93.55 L
431.879 93 L
432.485 92.45 L
433.091 94.65 L
433.697 93 L
434.303 93.55 L
434.909 101.8 L
435.515 81.45 L
436.121 80.35 L
436.727 83.65 L
437.333 101.8 L
437.939 89.15 L
438.546 100.7 L
439.152 93 L
439.758 86.95 L
440.364 93 L
440.97 93 L
441.576 82.55 L
442.182 64.95 L
442.788 59.45 L
443.394 60 L
444 62.2 L
444.606 74.85 L
445.212 90.8 L
445.818 94.65 L
446.424 100.7 L
447.03 89.15 L
447.636 84.2 L
448.242 84.2 L
448.849 82.55 L
449.455 75.4 L
450.061 74.3 L
450.667 75.4 L
451.273 80.35 L
451.879 101.8 L
452.485 101.8 L
453.091 101.8 L
453.697 100.7 L
454.303 106.2 L
454.909 101.8 L
455.515 101.8 L
456.121 83.1 L
456.727 74.3 L
457.333 75.4 L
457.939 82 L
458.545 93 L
459.152 81.45 L
459.758 88.05 L
460.364 90.8 L
460.97 90.8 L
461.576 90.8 L
462.182 93 L
462.788 84.2 L
463.394 70.45 L
464 67.15 L
464.606 64.95 L
465.212 67.15 L
465.818 75.4 L
466.424 82 L
467.03 80.35 L
467.636 71.55 L
468.242 68.8 L
468.849 67.7 L
469.455 72.1 L
470.061 89.7 L
470.667 93.55 L
471.273 82.55 L
471.879 84.2 L
472.485 94.65 L
473.091 87.5 L
473.697 85.85 L
474.303 109.5 L
474.909 84.75 L
475.515 78.15 L
476.121 78.15 L
476.727 83.65 L
477.333 90.8 L
477.939 93 L
478.545 96.3 L
479.152 96.3 L
479.758 93.55 L
480.364 93 L
480.97 94.65 L
481.576 96.3 L
482.182 96.85 L
482.788 100.7 L
483.394 101.8 L
484 100.7 L
484.606 97.95 L
485.212 90.8 L
485.818 88.6 L
486.424 97.95 L
487.03 83.1 L
487.636 78.15 L
488.242 76.5 L
488.848 82.55 L
489.455 109.5 L
490.061 93 L
490.667 90.8 L
491.273 90.25 L
491.879 93 L
492.485 92.45 L
493.091 94.65 L
493.697 106.2 L
494.303 101.8 L
494.909 101.8 L
495.515 96.85 L
496.121 96.3 L
496.727 90.25 L
497.333 89.15 L
497.939 85.85 L
498.546 84.75 L
499.152 86.95 L
499.758 88.05 L
500.364 90.8 L
500.97 109.5 L
501.576 106.2 L
502.182 101.8 L
502.788 109.5 L
503.394 96.3 L
504 90.25 L
504.606 93.55 L
505.212 96.85 L
505.818 106.2 L
506.424 100.7 L
507.03 90.25 L
507.636 89.15 L
508.242 83.65 L
508.849 83.65 L
509.455 82.55 L
510.061 89.15 L
510.667 90.8 L
511.273 83.65 L
511.879 86.95 L
512.485 94.65 L
513.091 88.05 L
513.697 82.55 L
514.303 84.2 L
514.909 85.85 L
515.515 87.5 L
516.121 84.75 L
516.727 82 L
517.333 75.95 L
517.939 69.35 L
518.545 69.9 L
519.152 72.65 L
519.758 80.35 L
520.364 93 L
520.97 92.45 L
521.576 88.05 L
522.182 84.75 L
522.788 88.6 L
523.394 89.15 L
524 88.6 L
524.606 86.95 L
525.212 74.85 L
525.818 72.1 L
526.424 73.75 L
527.03 86.95 L
527.636 96.85 L
528.242 94.65 L
528.849 83.65 L
529.455 82.55 L
530.061 85.85 L
530.667 88.05 L
531.273 88.6 L
531.879 75.4 L
532.485 74.3 L
533.091 76.5 L
533.697 85.85 L
534.303 97.95 L
534.909 94.65 L
535.515 83.65 L
536.121 78.7 L
536.727 78.7 L
537.333 82.55 L
537.939 78.7 L
538.545 57.25 L
539.151 51.2 L
539.758 51.2 L
540.364 52.85 L
540.97 64.4 L
541.576 101.8 L
542.182 87.5 L
542.788 85.85 L
543.394 83.65 L
544 83.65 L
544.606 82.55 L
545.212 90.8 L
545.818 90.25 L
546.424 81.45 L
547.03 82.55 L
547.636 93 L
548.242 88.6 L
548.849 85.3 L
549.455 88.6 L
550.061 96.3 L
550.667 93 L
551.273 94.65 L
551.879 96.3 L
552.485 100.7 L
553.091 96.85 L
553.697 88.05 L
554.303 85.85 L
554.909 97.95 L
555.515 92.45 L
556.121 88.05 L
556.727 86.4 L
557.333 90.8 L
557.939 96.85 L
558.545 90.25 L
559.152 93 L
559.758 100.7 L
560.364 97.95 L
560.97 88.05 L
561.576 82.55 L
562.182 83.65 L
562.788 86.4 L
563.394 100.7 L
564 90.8 L
564.606 94.65 L
565.212 90.8 L
565.818 85.85 L
566.424 83.1 L
567.03 84.75 L
567.636 101.8 L
568.242 109.5 L
568.849 101.8 L
569.455 101.8 L
570.061 88.6 L
570.667 90.8 L
571.273 93 L
571.879 109.5 L
572.485 109.5 L
573.091 100.7 L
573.697 82.55 L
574.303 79.25 L
574.909 79.25 L
575.515 82.55 L
576.121 106.2 L
576.727 96.3 L
577.333 77.05 L
577.939 67.7 L
578.545 67.15 L
579.152 68.8 L
579.758 75.4 L
580.364 96.3 L
580.97 88.05 L
581.576 94.65 L
582.182 93 L
582.788 92.45 L
583.394 84.2 L
584 87.5 L
584.606 100.7 L
585.212 93 L
585.818 94.65 L
586.424 89.7 L
587.03 79.25 L
587.636 61.65 L
588.242 59.45 L
588.849 59.45 L
589.455 63.3 L
590.061 80.35 L
590.667 93 L
591.273 90.8 L
591.879 86.4 L
592.485 82 L
593.091 74.85 L
593.697 74.3 L
594.303 78.7 L
594.909 85.85 L
595.515 85.85 L
596.121 79.8 L
596.727 80.9 L
597.333 80.35 L
597.939 81.45 L
598.545 86.95 L
599.151 87.5 L
599.758 72.65 L
600.364 61.1 L
600.97 60.55 L
601.576 60.55 L
602.182 68.8 L
602.788 96.3 L
603.394 96.85 L
604 97.95 L
604.606 93 L
605.212 97.95 L
605.818 97.95 L
606.424 109.5 L
607.03 88.6 L
607.636 83.65 L
608.242 85.3 L
608.849 88.6 L
609.455 96.85 L
610.061 82 L
610.667 83.1 L
611.273 84.2 L
611.879 88.6 L
612.485 90.8 L
613.091 84.75 L
613.697 78.7 L
614.303 66.05 L
614.909 64.4 L
615.515 64.4 L
616.121 70.45 L
616.727 96.85 L
617.333 93 L
617.939 89.15 L
618.545 85.3 L
619.152 89.15 L
619.758 88.05 L
620.364 92.45 L
620.97 82.55 L
621.576 77.6 L
622.182 75.95 L
622.788 73.75 L
623.394 79.8 L
624 83.65 L
624.606 83.65 L
625.212 88.05 L
625.818 90.8 L
626.424 75.4 L
627.03 68.8 L
627.636 68.25 L
628.242 68.8 L
628.849 74.85 L
629.455 78.7 L
630.061 77.05 L
630.667 80.35 L
631.273 83.65 L
631.879 93.55 L
632.485 93 L
633.091 93 L
633.697 88.6 L
634.303 85.3 L
634.909 83.65 L
635.515 84.75 L
636.121 92.45 L
636.727 78.7 L
637.333 76.5 L
637.939 78.7 L
638.545 90.8 L
639.152 100.7 L
639.758 96.3 L
640.364 82 L
640.97 79.8 L
641.576 82.55 L
642.182 90.8 L
642.788 100.7 L
643.394 109.5 L
644 93.55 L
644.606 82.55 L
645.212 80.35 L
645.818 83.1 L
646.424 86.4 L
647.03 90.8 L
647.636 94.65 L
648.242 96.85 L
648.849 88.05 L
649.455 80.35 L
650.061 80.9 L
650.667 80.35 L
651.273 89.15 L
651.879 90.8 L
652.485 93.55 L
653.091 82.55 L
653.697 80.35 L
654.303 79.8 L
654.909 82 L
655.515 94.65 L
656.121 109.5 L
656.727 106.2 L
657.333 106.2 L
657.939 100.7 L
658.545 83.65 L
659.151 78.7 L
659.758 79.25 L
660.364 79.25 L
660.97 88.6 L
661.576 100.7 L
662.182 94.65 L
662.788 89.7 L
663.394 96.3 L
664 100.7 L
664.606 93 L
665.212 88.6 L
665.818 86.95 L
666.424 109.5 L
667.03 101.8 L
667.636 100.7 L
668.242 88.05 L
668.849 77.6 L
669.455 76.5 L
670.061 80.35 L
670.667 100.7 L
671.273 84.75 L
671.879 84.2 L
672.485 88.05 L
673.091 87.5 L
673.697 90.25 L
674.303 96.3 L
674.909 76.5 L
675.515 60 L
676.121 56.7 L
676.727 57.25 L
677.333 61.1 L
677.939 79.8 L
678.545 100.7 L
679.151 82.55 L
679.758 80.35 L
680.364 80.35 L
680.97 89.15 L
681.576 96.85 L
682.182 90.25 L
682.788 79.25 L
683.394 78.7 L
684 80.35 L
684.606 93 L
685.212 101.8 L
685.818 97.95 L
686.424 88.6 L
687.03 88.6 L
687.636 101.8 L
688.242 101.8 L
688.848 84.75 L
689.455 71.55 L
690.061 68.8 L
690.667 68.25 L
691.273 70.45 L
691.879 82.55 L
692.485 106.2 L
693.091 101.8 L
693.697 86.4 L
694.303 85.85 L
694.909 85.3 L
695.515 87.5 L
696.121 83.65 L
696.727 69.35 L
697.333 72.1 L
697.939 86.4 L
698.545 69.9 L
699.152 64.95 L
699.758 68.8 L
700.364 87.5 L
700.97 93.55 L
701.576 94.65 L
702.182 89.15 L
702.788 88.6 L
703.394 109.5 L
704 86.4 L
704.606 78.15 L
705.212 78.7 L
705.818 86.4 L
706.424 90.8 L
707.03 90.25 L
707.636 83.65 L
708.242 85.3 L
708.849 90.25 L
709.455 96.3 L
710.061 109.5 L
710.667 106.2 L
711.273 100.7 L
711.879 100.7 L
712.485 109.5 L
713.091 101.8 L
713.697 92.45 L
714.303 94.65 L
714.909 101.8 L
715.515 96.3 L
716.121 90.8 L
716.727 92.45 L
717.333 87.5 L
717.939 87.5 L
718.545 90.8 L
719.151 89.15 L
719.758 94.65 L
720.364 89.15 L
720.97 86.4 L
721.576 88.05 L
722.182 106.2 L
722.788 106.2 L
723.394 94.65 L
724 94.65 L
S
GR
GS
[1 0 0 1 134.90915 36.35] CT
1 0 0 RC
10.0 ML
0.5 LW
N
2.5 -0.5 M
2.5 -2.157 1.157 -3.5 -0.5 -3.5 C
-2.157 -3.5 -3.5 -2.157 -3.5 -0.5 C
-3.5 1.157 -2.157 2.5 -0.5 2.5 C
1.157 2.5 2.5 1.157 2.5 -0.5 C
S
GR
GS
[1 0 0 1 196.12126 82.55] CT
1 0 0 RC
10.0 ML
0.5 LW
N
2.5 -0.5 M
2.5 -2.157 1.157 -3.5 -0.5 -3.5 C
-2.157 -3.5 -3.5 -2.157 -3.5 -0.5 C
-3.5 1.157 -2.157 2.5 -0.5 2.5 C
1.157 2.5 2.5 1.157 2.5 -0.5 C
S
GR
GS
[1 0 0 1 257.33337 92.45] CT
1 0 0 RC
10.0 ML
0.5 LW
N
2.5 -0.5 M
2.5 -2.157 1.157 -3.5 -0.5 -3.5 C
-2.157 -3.5 -3.5 -2.157 -3.5 -0.5 C
-3.5 1.157 -2.157 2.5 -0.5 2.5 C
1.157 2.5 2.5 1.157 2.5 -0.5 C
S
GR
GS
[1 0 0 1 319.15155 90.8] CT
1 0 0 RC
10.0 ML
0.5 LW
N
2.5 -0.5 M
2.5 -2.157 1.157 -3.5 -0.5 -3.5 C
-2.157 -3.5 -3.5 -2.157 -3.5 -0.5 C
-3.5 1.157 -2.157 2.5 -0.5 2.5 C
1.157 2.5 2.5 1.157 2.5 -0.5 C
S
GR
GS
[1 0 0 1 380.36368 88.05] CT
1 0 0 RC
10.0 ML
0.5 LW
N
2.5 -0.5 M
2.5 -2.157 1.157 -3.5 -0.5 -3.5 C
-2.157 -3.5 -3.5 -2.157 -3.5 -0.5 C
-3.5 1.157 -2.157 2.5 -0.5 2.5 C
1.157 2.5 2.5 1.157 2.5 -0.5 C
S
GR
GS
[1 0 0 1 442.18185 64.95] CT
1 0 0 RC
10.0 ML
0.5 LW
N
2.5 -0.5 M
2.5 -2.157 1.157 -3.5 -0.5 -3.5 C
-2.157 -3.5 -3.5 -2.157 -3.5 -0.5 C
-3.5 1.157 -2.157 2.5 -0.5 2.5 C
1.157 2.5 2.5 1.157 2.5 -0.5 C
S
GR
GS
[1 0 0 1 503.39398 96.3] CT
1 0 0 RC
10.0 ML
0.5 LW
N
2.5 -0.5 M
2.5 -2.157 1.157 -3.5 -0.5 -3.5 C
-2.157 -3.5 -3.5 -2.157 -3.5 -0.5 C
-3.5 1.157 -2.157 2.5 -0.5 2.5 C
1.157 2.5 2.5 1.157 2.5 -0.5 C
S
GR
GS
[1 0 0 1 564.60608 94.65] CT
1 0 0 RC
10.0 ML
0.5 LW
N
2.5 -0.5 M
2.5 -2.157 1.157 -3.5 -0.5 -3.5 C
-2.157 -3.5 -3.5 -2.157 -3.5 -0.5 C
-3.5 1.157 -2.157 2.5 -0.5 2.5 C
1.157 2.5 2.5 1.157 2.5 -0.5 C
S
GR
GS
[1 0 0 1 626.42426 75.4] CT
1 0 0 RC
10.0 ML
0.5 LW
N
2.5 -0.5 M
2.5 -2.157 1.157 -3.5 -0.5 -3.5 C
-2.157 -3.5 -3.5 -2.157 -3.5 -0.5 C
-3.5 1.157 -2.157 2.5 -0.5 2.5 C
1.157 2.5 2.5 1.157 2.5 -0.5 C
S
GR
GS
[1 0 0 1 687.63635 101.8] CT
1 0 0 RC
10.0 ML
0.5 LW
N
2.5 -0.5 M
2.5 -2.157 1.157 -3.5 -0.5 -3.5 C
-2.157 -3.5 -3.5 -2.157 -3.5 -0.5 C
-3.5 1.157 -2.157 2.5 -0.5 2.5 C
1.157 2.5 2.5 1.157 2.5 -0.5 C
S
GR
GS
[1 0 0 1 724 94.65] CT
1 0 0 RC
10.0 ML
0.5 LW
N
2.5 -0.5 M
2.5 -2.157 1.157 -3.5 -0.5 -3.5 C
-2.157 -3.5 -3.5 -2.157 -3.5 -0.5 C
-3.5 1.157 -2.157 2.5 -0.5 2.5 C
1.157 2.5 2.5 1.157 2.5 -0.5 C
S
GR
%%Trailer
%%Pages: 1
%%EOF
