%!PS-Adobe-3.0 EPSF-3.0
%%Creator: (MATLAB, The Mathworks, Inc. Version 9.1.0.441655 \(R2016b\). Operating System: Mac OS X)
%%Title: ./plots_eliminiert_5_7_n0_f.eps
%%CreationDate: 2016-12-06T16:46:30
%%Pages: (atend)
%%BoundingBox:    70     0   728   130
%%LanguageLevel: 2
%%EndComments
%%BeginProlog
%%BeginResource: procset (Apache XML Graphics Std ProcSet) 1.2 0
%%Version: 1.2 0
%%Copyright: (Copyright 2001-2003,2010 The Apache Software Foundation. License terms: http://www.apache.org/licenses/LICENSE-2.0)
/bd{bind def}bind def
/ld{load def}bd
/GR/grestore ld
/M/moveto ld
/LJ/setlinejoin ld
/C/curveto ld
/f/fill ld
/LW/setlinewidth ld
/GC/setgray ld
/t/show ld
/N/newpath ld
/CT/concat ld
/cp/closepath ld
/S/stroke ld
/L/lineto ld
/CC/setcmykcolor ld
/A/ashow ld
/GS/gsave ld
/RC/setrgbcolor ld
/RM/rmoveto ld
/ML/setmiterlimit ld
/re {4 2 roll M
1 index 0 rlineto
0 exch rlineto
neg 0 rlineto
cp } bd
/_ctm matrix def
/_tm matrix def
/BT { _ctm currentmatrix pop matrix _tm copy pop 0 0 moveto } bd
/ET { _ctm setmatrix } bd
/iTm { _ctm setmatrix _tm concat } bd
/Tm { _tm astore pop iTm 0 0 moveto } bd
/ux 0.0 def
/uy 0.0 def
/F {
  /Tp exch def
  /Tf exch def
  Tf findfont Tp scalefont setfont
  /cf Tf def  /cs Tp def
} bd
/ULS {currentpoint /uy exch def /ux exch def} bd
/ULE {
  /Tcx currentpoint pop def
  gsave
  newpath
  cf findfont cs scalefont dup
  /FontMatrix get 0 get /Ts exch def /FontInfo get dup
  /UnderlinePosition get Ts mul /To exch def
  /UnderlineThickness get Ts mul /Tt exch def
  ux uy To add moveto  Tcx uy To add lineto
  Tt setlinewidth stroke
  grestore
} bd
/OLE {
  /Tcx currentpoint pop def
  gsave
  newpath
  cf findfont cs scalefont dup
  /FontMatrix get 0 get /Ts exch def /FontInfo get dup
  /UnderlinePosition get Ts mul /To exch def
  /UnderlineThickness get Ts mul /Tt exch def
  ux uy To add cs add moveto Tcx uy To add cs add lineto
  Tt setlinewidth stroke
  grestore
} bd
/SOE {
  /Tcx currentpoint pop def
  gsave
  newpath
  cf findfont cs scalefont dup
  /FontMatrix get 0 get /Ts exch def /FontInfo get dup
  /UnderlinePosition get Ts mul /To exch def
  /UnderlineThickness get Ts mul /Tt exch def
  ux uy To add cs 10 mul 26 idiv add moveto Tcx uy To add cs 10 mul 26 idiv add lineto
  Tt setlinewidth stroke
  grestore
} bd
/QT {
/Y22 exch store
/X22 exch store
/Y21 exch store
/X21 exch store
currentpoint
/Y21 load 2 mul add 3 div exch
/X21 load 2 mul add 3 div exch
/X21 load 2 mul /X22 load add 3 div
/Y21 load 2 mul /Y22 load add 3 div
/X22 load /Y22 load curveto
} bd
/SSPD {
dup length /d exch dict def
{
/v exch def
/k exch def
currentpagedevice k known {
/cpdv currentpagedevice k get def
v cpdv ne {
/upd false def
/nullv v type /nulltype eq def
/nullcpdv cpdv type /nulltype eq def
nullv nullcpdv or
{
/upd true def
} {
/sametype v type cpdv type eq def
sametype {
v type /arraytype eq {
/vlen v length def
/cpdvlen cpdv length def
vlen cpdvlen eq {
0 1 vlen 1 sub {
/i exch def
/obj v i get def
/cpdobj cpdv i get def
obj cpdobj ne {
/upd true def
exit
} if
} for
} {
/upd true def
} ifelse
} {
v type /dicttype eq {
v {
/dv exch def
/dk exch def
/cpddv cpdv dk get def
dv cpddv ne {
/upd true def
exit
} if
} forall
} {
/upd true def
} ifelse
} ifelse
} if
} ifelse
upd true eq {
d k v put
} if
} if
} if
} forall
d length 0 gt {
d setpagedevice
} if
} bd
/RE { % /NewFontName [NewEncodingArray] /FontName RE -
  findfont dup length dict begin
  {
    1 index /FID ne
    {def} {pop pop} ifelse
  } forall
  /Encoding exch def
  /FontName 1 index def
  currentdict definefont pop
  end
} bind def
%%EndResource
%%BeginResource: procset (Apache XML Graphics EPS ProcSet) 1.0 0
%%Version: 1.0 0
%%Copyright: (Copyright 2002-2003 The Apache Software Foundation. License terms: http://www.apache.org/licenses/LICENSE-2.0)
/BeginEPSF { %def
/b4_Inc_state save def         % Save state for cleanup
/dict_count countdictstack def % Count objects on dict stack
/op_count count 1 sub def      % Count objects on operand stack
userdict begin                 % Push userdict on dict stack
/showpage { } def              % Redefine showpage, { } = null proc
0 setgray 0 setlinecap         % Prepare graphics state
1 setlinewidth 0 setlinejoin
10 setmiterlimit [ ] 0 setdash newpath
/languagelevel where           % If level not equal to 1 then
{pop languagelevel             % set strokeadjust and
1 ne                           % overprint to their defaults.
{false setstrokeadjust false setoverprint
} if
} if
} bd
/EndEPSF { %def
count op_count sub {pop} repeat            % Clean up stacks
countdictstack dict_count sub {end} repeat
b4_Inc_state restore
} bd
%%EndResource
%FOPBeginFontDict
%%IncludeResource: font Courier-Bold
%%IncludeResource: font Helvetica
%%IncludeResource: font Courier-BoldOblique
%%IncludeResource: font Courier-Oblique
%%IncludeResource: font Times-Roman
%%IncludeResource: font Helvetica-BoldOblique
%%IncludeResource: font Helvetica-Bold
%%IncludeResource: font Helvetica-Oblique
%%IncludeResource: font Times-BoldItalic
%%IncludeResource: font Courier
%%IncludeResource: font Times-Italic
%%IncludeResource: font Times-Bold
%%IncludeResource: font Symbol
%%IncludeResource: font ZapfDingbats
%FOPEndFontDict
%%BeginResource: encoding WinAnsiEncoding
/WinAnsiEncoding [
/.notdef /.notdef /.notdef /.notdef /.notdef
/.notdef /.notdef /.notdef /.notdef /.notdef
/.notdef /.notdef /.notdef /.notdef /.notdef
/.notdef /.notdef /.notdef /.notdef /.notdef
/.notdef /.notdef /.notdef /.notdef /.notdef
/.notdef /.notdef /.notdef /.notdef /.notdef
/.notdef /.notdef /space /exclam /quotedbl
/numbersign /dollar /percent /ampersand /quotesingle
/parenleft /parenright /asterisk /plus /comma
/hyphen /period /slash /zero /one
/two /three /four /five /six
/seven /eight /nine /colon /semicolon
/less /equal /greater /question /at
/A /B /C /D /E
/F /G /H /I /J
/K /L /M /N /O
/P /Q /R /S /T
/U /V /W /X /Y
/Z /bracketleft /backslash /bracketright /asciicircum
/underscore /quoteleft /a /b /c
/d /e /f /g /h
/i /j /k /l /m
/n /o /p /q /r
/s /t /u /v /w
/x /y /z /braceleft /bar
/braceright /asciitilde /bullet /Euro /bullet
/quotesinglbase /florin /quotedblbase /ellipsis /dagger
/daggerdbl /circumflex /perthousand /Scaron /guilsinglleft
/OE /bullet /Zcaron /bullet /bullet
/quoteleft /quoteright /quotedblleft /quotedblright /bullet
/endash /emdash /asciitilde /trademark /scaron
/guilsinglright /oe /bullet /zcaron /Ydieresis
/space /exclamdown /cent /sterling /currency
/yen /brokenbar /section /dieresis /copyright
/ordfeminine /guillemotleft /logicalnot /sfthyphen /registered
/macron /degree /plusminus /twosuperior /threesuperior
/acute /mu /paragraph /middot /cedilla
/onesuperior /ordmasculine /guillemotright /onequarter /onehalf
/threequarters /questiondown /Agrave /Aacute /Acircumflex
/Atilde /Adieresis /Aring /AE /Ccedilla
/Egrave /Eacute /Ecircumflex /Edieresis /Igrave
/Iacute /Icircumflex /Idieresis /Eth /Ntilde
/Ograve /Oacute /Ocircumflex /Otilde /Odieresis
/multiply /Oslash /Ugrave /Uacute /Ucircumflex
/Udieresis /Yacute /Thorn /germandbls /agrave
/aacute /acircumflex /atilde /adieresis /aring
/ae /ccedilla /egrave /eacute /ecircumflex
/edieresis /igrave /iacute /icircumflex /idieresis
/eth /ntilde /ograve /oacute /ocircumflex
/otilde /odieresis /divide /oslash /ugrave
/uacute /ucircumflex /udieresis /yacute /thorn
/ydieresis
] def
%%EndResource
%FOPBeginFontReencode
/Courier-Bold findfont
dup length dict begin
  {1 index /FID ne {def} {pop pop} ifelse} forall
  /Encoding WinAnsiEncoding def
  currentdict
end
/Courier-Bold exch definefont pop
/Helvetica findfont
dup length dict begin
  {1 index /FID ne {def} {pop pop} ifelse} forall
  /Encoding WinAnsiEncoding def
  currentdict
end
/Helvetica exch definefont pop
/Courier-BoldOblique findfont
dup length dict begin
  {1 index /FID ne {def} {pop pop} ifelse} forall
  /Encoding WinAnsiEncoding def
  currentdict
end
/Courier-BoldOblique exch definefont pop
/Courier-Oblique findfont
dup length dict begin
  {1 index /FID ne {def} {pop pop} ifelse} forall
  /Encoding WinAnsiEncoding def
  currentdict
end
/Courier-Oblique exch definefont pop
/Times-Roman findfont
dup length dict begin
  {1 index /FID ne {def} {pop pop} ifelse} forall
  /Encoding WinAnsiEncoding def
  currentdict
end
/Times-Roman exch definefont pop
/Helvetica-BoldOblique findfont
dup length dict begin
  {1 index /FID ne {def} {pop pop} ifelse} forall
  /Encoding WinAnsiEncoding def
  currentdict
end
/Helvetica-BoldOblique exch definefont pop
/Helvetica-Bold findfont
dup length dict begin
  {1 index /FID ne {def} {pop pop} ifelse} forall
  /Encoding WinAnsiEncoding def
  currentdict
end
/Helvetica-Bold exch definefont pop
/Helvetica-Oblique findfont
dup length dict begin
  {1 index /FID ne {def} {pop pop} ifelse} forall
  /Encoding WinAnsiEncoding def
  currentdict
end
/Helvetica-Oblique exch definefont pop
/Times-BoldItalic findfont
dup length dict begin
  {1 index /FID ne {def} {pop pop} ifelse} forall
  /Encoding WinAnsiEncoding def
  currentdict
end
/Times-BoldItalic exch definefont pop
/Courier findfont
dup length dict begin
  {1 index /FID ne {def} {pop pop} ifelse} forall
  /Encoding WinAnsiEncoding def
  currentdict
end
/Courier exch definefont pop
/Times-Italic findfont
dup length dict begin
  {1 index /FID ne {def} {pop pop} ifelse} forall
  /Encoding WinAnsiEncoding def
  currentdict
end
/Times-Italic exch definefont pop
/Times-Bold findfont
dup length dict begin
  {1 index /FID ne {def} {pop pop} ifelse} forall
  /Encoding WinAnsiEncoding def
  currentdict
end
/Times-Bold exch definefont pop
%FOPEndFontReencode
%%EndProlog
%%Page: 1 1
%%PageBoundingBox: 0 0 800 140
%%BeginPageSetup
[1 0 0 -1 0 140] CT
%%EndPageSetup
GS
1 GC
N
0 0 800 140 re
f
GR
GS
1 GC
N
0 0 800 140 re
f
GR
GS
1 GC
N
104 109.5 M
724 109.5 L
724 10.5 L
104 10.5 L
cp
f
GR
GS
0.149 GC
2 setlinecap
1 LJ
0.5 LW
N
104 109.5 M
724 109.5 L
S
GR
GS
0.149 GC
2 setlinecap
1 LJ
0.5 LW
N
104 10.5 M
724 10.5 L
S
GR
GS
0.149 GC
2 setlinecap
1 LJ
0.5 LW
N
104 109.5 M
104 103.3 L
S
GR
GS
0.149 GC
2 setlinecap
1 LJ
0.5 LW
N
165.44 109.5 M
165.44 103.3 L
S
GR
GS
0.149 GC
2 setlinecap
1 LJ
0.5 LW
N
226.881 109.5 M
226.881 103.3 L
S
GR
GS
0.149 GC
2 setlinecap
1 LJ
0.5 LW
N
288.321 109.5 M
288.321 103.3 L
S
GR
GS
0.149 GC
2 setlinecap
1 LJ
0.5 LW
N
349.762 109.5 M
349.762 103.3 L
S
GR
GS
0.149 GC
2 setlinecap
1 LJ
0.5 LW
N
411.202 109.5 M
411.202 103.3 L
S
GR
GS
0.149 GC
2 setlinecap
1 LJ
0.5 LW
N
472.642 109.5 M
472.642 103.3 L
S
GR
GS
0.149 GC
2 setlinecap
1 LJ
0.5 LW
N
534.083 109.5 M
534.083 103.3 L
S
GR
GS
0.149 GC
2 setlinecap
1 LJ
0.5 LW
N
595.523 109.5 M
595.523 103.3 L
S
GR
GS
0.149 GC
2 setlinecap
1 LJ
0.5 LW
N
656.964 109.5 M
656.964 103.3 L
S
GR
GS
0.149 GC
2 setlinecap
1 LJ
0.5 LW
N
718.404 109.5 M
718.404 103.3 L
S
GR
GS
0.149 GC
2 setlinecap
1 LJ
0.5 LW
N
104 10.5 M
104 16.7 L
S
GR
GS
0.149 GC
2 setlinecap
1 LJ
0.5 LW
N
165.44 10.5 M
165.44 16.7 L
S
GR
GS
0.149 GC
2 setlinecap
1 LJ
0.5 LW
N
226.881 10.5 M
226.881 16.7 L
S
GR
GS
0.149 GC
2 setlinecap
1 LJ
0.5 LW
N
288.321 10.5 M
288.321 16.7 L
S
GR
GS
0.149 GC
2 setlinecap
1 LJ
0.5 LW
N
349.762 10.5 M
349.762 16.7 L
S
GR
GS
0.149 GC
2 setlinecap
1 LJ
0.5 LW
N
411.202 10.5 M
411.202 16.7 L
S
GR
GS
0.149 GC
2 setlinecap
1 LJ
0.5 LW
N
472.642 10.5 M
472.642 16.7 L
S
GR
GS
0.149 GC
2 setlinecap
1 LJ
0.5 LW
N
534.083 10.5 M
534.083 16.7 L
S
GR
GS
0.149 GC
2 setlinecap
1 LJ
0.5 LW
N
595.523 10.5 M
595.523 16.7 L
S
GR
GS
0.149 GC
2 setlinecap
1 LJ
0.5 LW
N
656.964 10.5 M
656.964 16.7 L
S
GR
GS
0.149 GC
2 setlinecap
1 LJ
0.5 LW
N
718.404 10.5 M
718.404 16.7 L
S
GR
GS
[1 0 0 1 104 113.5] CT
0.149 GC
/Helvetica 10 F
GS
[1 0 0 1 0 0] CT
-3 10 moveto 
1 -1 scale
(0) t 
GR
GR
GS
[1 0 0 1 165.44041 113.5] CT
0.149 GC
/Helvetica 10 F
GS
[1 0 0 1 0 0] CT
-6 10 moveto 
1 -1 scale
(50) t 
GR
GR
GS
[1 0 0 1 226.88083 113.5] CT
0.149 GC
/Helvetica 10 F
GS
[1 0 0 1 0 0] CT
-8.5 10 moveto 
1 -1 scale
(100) t 
GR
GR
GS
[1 0 0 1 288.32126 113.5] CT
0.149 GC
/Helvetica 10 F
GS
[1 0 0 1 0 0] CT
-8.5 10 moveto 
1 -1 scale
(150) t 
GR
GR
GS
[1 0 0 1 349.76166 113.5] CT
0.149 GC
/Helvetica 10 F
GS
[1 0 0 1 0 0] CT
-8.5 10 moveto 
1 -1 scale
(200) t 
GR
GR
GS
[1 0 0 1 411.20209 113.5] CT
0.149 GC
/Helvetica 10 F
GS
[1 0 0 1 0 0] CT
-8.5 10 moveto 
1 -1 scale
(250) t 
GR
GR
GS
[1 0 0 1 472.64249 113.5] CT
0.149 GC
/Helvetica 10 F
GS
[1 0 0 1 0 0] CT
-8.5 10 moveto 
1 -1 scale
(300) t 
GR
GR
GS
[1 0 0 1 534.08289 113.5] CT
0.149 GC
/Helvetica 10 F
GS
[1 0 0 1 0 0] CT
-8.5 10 moveto 
1 -1 scale
(350) t 
GR
GR
GS
[1 0 0 1 595.52332 113.5] CT
0.149 GC
/Helvetica 10 F
GS
[1 0 0 1 0 0] CT
-8.5 10 moveto 
1 -1 scale
(400) t 
GR
GR
GS
[1 0 0 1 656.96375 113.5] CT
0.149 GC
/Helvetica 10 F
GS
[1 0 0 1 0 0] CT
-8.5 10 moveto 
1 -1 scale
(450) t 
GR
GR
GS
[1 0 0 1 718.40417 113.5] CT
0.149 GC
/Helvetica 10 F
GS
[1 0 0 1 0 0] CT
-8.5 10 moveto 
1 -1 scale
(500) t 
GR
GR
GS
[1 0 0 1 414.00031 127] CT
0.149 GC
/Helvetica 11 F
GS
[1 0 0 1 0 0] CT
-37 11 moveto 
1 -1 scale
(Frequency [Hz]) t 
GR
GR
GS
0.149 GC
2 setlinecap
1 LJ
0.5 LW
N
104 109.5 M
104 10.5 L
S
GR
GS
0.149 GC
2 setlinecap
1 LJ
0.5 LW
N
724 109.5 M
724 10.5 L
S
GR
GS
0.149 GC
2 setlinecap
1 LJ
0.5 LW
N
104 108.114 M
110.2 108.114 L
S
GR
GS
0.149 GC
2 setlinecap
1 LJ
0.5 LW
N
104 79.501 M
110.2 79.501 L
S
GR
GS
0.149 GC
2 setlinecap
1 LJ
0.5 LW
N
104 50.888 M
110.2 50.888 L
S
GR
GS
0.149 GC
2 setlinecap
1 LJ
0.5 LW
N
104 22.275 M
110.2 22.275 L
S
GR
GS
0.149 GC
2 setlinecap
1 LJ
0.5 LW
N
724 108.114 M
717.8 108.114 L
S
GR
GS
0.149 GC
2 setlinecap
1 LJ
0.5 LW
N
724 79.501 M
717.8 79.501 L
S
GR
GS
0.149 GC
2 setlinecap
1 LJ
0.5 LW
N
724 50.888 M
717.8 50.888 L
S
GR
GS
0.149 GC
2 setlinecap
1 LJ
0.5 LW
N
724 22.275 M
717.8 22.275 L
S
GR
GS
[1 0 0 1 100 108.11357] CT
0.149 GC
/Helvetica 10 F
GS
[1 0 0 1 0 0] CT
-16 3.5 moveto 
1 -1 scale
(-20) t 
GR
GR
GS
[1 0 0 1 100 79.50085] CT
0.149 GC
/Helvetica 10 F
GS
[1 0 0 1 0 0] CT
-6 3.5 moveto 
1 -1 scale
(0) t 
GR
GR
GS
[1 0 0 1 100 50.88814] CT
0.149 GC
/Helvetica 10 F
GS
[1 0 0 1 0 0] CT
-12 3.5 moveto 
1 -1 scale
(20) t 
GR
GR
GS
[1 0 0 1 100 22.27542] CT
0.149 GC
/Helvetica 10 F
GS
[1 0 0 1 0 0] CT
-12 3.5 moveto 
1 -1 scale
(40) t 
GR
GR
GS
[0 -1 1 0 81.5 59.99995] CT
0.149 GC
/Helvetica 11 F
GS
[1 0 0 1 0 0] CT
-38 -3 moveto 
1 -1 scale
(Magnitude [dB]) t 
GR
GR
GS
0 0.447 0.741 RC
1 LJ
0.5 LW
N
104 10.5 M
104.606 100.916 L
105.212 95.766 L
105.818 109.5 L
106.424 109.5 L
107.03 102.633 L
107.636 109.5 L
108.242 88.327 L
108.849 104.922 L
109.455 91.76 L
110.061 103.777 L
110.667 96.338 L
111.273 93.477 L
111.879 98.055 L
112.485 83.749 L
113.091 91.188 L
113.697 102.633 L
114.303 91.188 L
114.909 87.182 L
115.515 92.332 L
116.121 90.616 L
116.727 96.338 L
117.333 100.916 L
117.939 94.049 L
118.546 96.338 L
119.152 94.621 L
119.758 91.76 L
120.364 84.893 L
120.97 92.332 L
121.576 83.176 L
122.182 68.298 L
122.788 87.182 L
123.394 79.743 L
124 82.032 L
124.606 86.61 L
125.212 83.176 L
125.818 86.038 L
126.424 83.176 L
127.03 82.032 L
127.636 76.309 L
128.242 78.598 L
128.849 78.026 L
129.455 74.592 L
130.061 73.448 L
130.667 71.159 L
131.273 70.014 L
131.879 67.153 L
132.485 64.292 L
133.091 60.286 L
133.697 53.991 L
134.303 42.546 L
134.909 33.39 L
135.515 50.558 L
136.121 57.425 L
136.727 62.003 L
137.333 65.436 L
137.939 67.725 L
138.546 70.014 L
139.152 71.731 L
139.758 72.876 L
140.364 72.876 L
140.97 74.592 L
141.576 75.737 L
142.182 76.309 L
142.788 78.598 L
143.394 79.171 L
144 78.598 L
144.606 83.176 L
145.212 81.46 L
145.818 72.303 L
146.424 82.032 L
147.03 82.604 L
147.636 85.465 L
148.242 84.321 L
148.849 86.038 L
149.455 84.893 L
150.061 86.038 L
150.667 88.327 L
151.273 86.61 L
151.879 88.327 L
152.485 85.465 L
153.091 88.899 L
153.697 88.899 L
154.303 87.182 L
154.909 91.188 L
155.515 89.471 L
156.121 94.621 L
156.727 93.477 L
157.333 83.176 L
157.939 84.893 L
158.546 88.899 L
159.152 87.754 L
159.758 66.581 L
160.364 109.5 L
160.97 100.916 L
161.576 88.899 L
162.182 92.905 L
162.788 94.049 L
163.394 100.916 L
164 97.483 L
164.606 102.061 L
165.212 93.477 L
165.818 95.766 L
166.424 95.194 L
167.03 91.188 L
167.636 94.621 L
168.242 96.91 L
168.849 98.055 L
169.455 99.199 L
170.061 86.61 L
170.667 83.749 L
171.273 78.026 L
171.879 86.038 L
172.485 82.032 L
173.091 93.477 L
173.697 95.766 L
174.303 90.616 L
174.909 87.754 L
175.515 96.338 L
176.121 95.766 L
176.727 104.35 L
177.333 109.5 L
177.939 103.777 L
178.546 102.633 L
179.152 95.766 L
179.758 99.199 L
180.364 103.777 L
180.97 106.639 L
181.576 98.055 L
182.182 97.483 L
182.788 90.043 L
183.394 69.442 L
184 76.882 L
184.606 88.327 L
185.212 87.754 L
185.818 93.477 L
186.424 101.488 L
187.03 99.199 L
187.636 91.76 L
188.242 94.621 L
188.849 94.621 L
189.455 94.621 L
190.061 100.916 L
190.667 95.194 L
191.273 100.344 L
191.879 99.199 L
192.485 102.633 L
193.091 98.627 L
193.697 82.604 L
194.303 90.616 L
194.909 90.043 L
195.515 100.916 L
196.121 88.899 L
196.727 96.91 L
197.333 95.766 L
197.939 97.483 L
198.546 92.332 L
199.152 109.5 L
199.758 99.199 L
200.364 109.5 L
200.97 92.332 L
201.576 95.766 L
202.182 94.621 L
202.788 95.194 L
203.394 90.616 L
204 96.91 L
204.606 96.91 L
205.212 97.483 L
205.818 95.194 L
206.424 91.188 L
207.03 97.483 L
207.636 86.61 L
208.242 83.176 L
208.849 71.159 L
209.455 92.905 L
210.061 93.477 L
210.667 98.055 L
211.273 109.5 L
211.879 109.5 L
212.485 100.916 L
213.091 99.772 L
213.697 109.5 L
214.303 102.633 L
214.909 100.916 L
215.515 102.633 L
216.121 98.055 L
216.727 109.5 L
217.333 98.055 L
217.939 109.5 L
218.546 100.344 L
219.152 96.91 L
219.758 88.327 L
220.364 97.483 L
220.97 78.598 L
221.576 75.737 L
222.182 83.749 L
222.788 91.188 L
223.394 89.471 L
224 89.471 L
224.606 95.194 L
225.212 107.783 L
225.818 93.477 L
226.424 96.91 L
227.03 93.477 L
227.636 109.5 L
228.242 108.928 L
228.849 96.91 L
229.455 94.049 L
230.061 94.621 L
230.667 92.905 L
231.273 94.621 L
231.879 106.639 L
232.485 103.205 L
233.091 106.639 L
233.697 106.639 L
234.303 98.627 L
234.909 102.633 L
235.515 99.772 L
236.121 109.5 L
236.727 83.749 L
237.333 99.772 L
237.939 96.91 L
238.546 102.061 L
239.152 97.483 L
239.758 96.338 L
240.364 109.5 L
240.97 97.483 L
241.576 104.922 L
242.182 94.621 L
242.788 99.199 L
243.394 89.471 L
244 108.928 L
244.606 93.477 L
245.212 108.928 L
245.818 103.777 L
246.424 84.321 L
247.03 93.477 L
247.636 85.465 L
248.242 100.916 L
248.849 102.633 L
249.455 100.916 L
250.061 99.199 L
250.667 92.905 L
251.273 98.627 L
251.879 98.055 L
252.485 109.5 L
253.091 109.5 L
253.697 104.922 L
254.303 99.199 L
254.909 92.332 L
255.515 103.205 L
256.121 100.916 L
256.727 98.055 L
257.333 109.5 L
257.939 98.055 L
258.546 109.5 L
259.152 94.621 L
259.758 109.5 L
260.364 109.5 L
260.97 98.055 L
261.576 96.91 L
262.182 100.916 L
262.788 98.055 L
263.394 108.928 L
264 97.483 L
264.606 109.5 L
265.212 99.772 L
265.818 96.338 L
266.424 103.777 L
267.03 93.477 L
267.636 100.344 L
268.242 91.188 L
268.849 78.598 L
269.455 79.743 L
270.061 57.425 L
270.667 82.032 L
271.273 87.182 L
271.879 94.049 L
272.485 91.188 L
273.091 109.5 L
273.697 99.199 L
274.303 96.91 L
274.909 109.5 L
275.515 109.5 L
276.121 109.5 L
276.727 102.633 L
277.333 105.494 L
277.939 99.199 L
278.546 100.916 L
279.152 102.633 L
279.758 102.061 L
280.364 109.5 L
280.97 92.905 L
281.576 87.754 L
282.182 95.766 L
282.788 98.627 L
283.394 103.777 L
284 82.604 L
284.606 98.627 L
285.212 102.633 L
285.818 102.633 L
286.424 98.627 L
287.03 103.777 L
287.636 102.061 L
288.242 96.338 L
288.849 109.5 L
289.455 100.916 L
290.061 107.783 L
290.667 109.5 L
291.273 93.477 L
291.879 100.916 L
292.485 98.055 L
293.091 109.5 L
293.697 96.91 L
294.303 99.199 L
294.909 92.332 L
295.515 82.604 L
296.121 92.905 L
296.727 99.199 L
297.333 96.91 L
297.939 104.922 L
298.546 102.633 L
299.152 106.639 L
299.758 105.494 L
300.364 103.205 L
300.97 104.922 L
301.576 107.783 L
302.182 92.332 L
302.788 109.5 L
303.394 98.055 L
304 107.783 L
304.606 100.344 L
305.212 102.061 L
305.818 100.916 L
306.424 76.309 L
307.03 100.916 L
307.636 83.176 L
308.242 88.899 L
308.849 98.055 L
309.455 96.338 L
310.061 99.199 L
310.667 95.766 L
311.273 94.621 L
311.879 92.332 L
312.485 96.338 L
313.091 93.477 L
313.697 107.783 L
314.303 97.483 L
314.909 96.91 L
315.515 109.5 L
316.121 96.91 L
316.727 98.627 L
317.333 81.46 L
317.939 85.465 L
318.546 106.639 L
319.152 105.494 L
319.758 104.922 L
320.364 103.777 L
320.97 104.35 L
321.576 93.477 L
322.182 95.194 L
322.788 106.639 L
323.394 98.055 L
324 102.061 L
324.606 98.627 L
325.212 97.483 L
325.818 99.199 L
326.424 109.5 L
327.03 98.055 L
327.636 96.338 L
328.242 109.5 L
328.849 106.639 L
329.455 109.5 L
330.061 92.332 L
330.667 103.205 L
331.273 92.332 L
331.879 98.627 L
332.485 108.928 L
333.091 95.194 L
333.697 109.5 L
334.303 102.061 L
334.909 109.5 L
335.515 102.061 L
336.121 109.5 L
336.727 108.928 L
337.333 105.494 L
337.939 96.91 L
338.545 106.639 L
339.152 109.5 L
339.758 100.916 L
340.364 104.35 L
340.97 96.91 L
341.576 96.91 L
342.182 109.5 L
342.788 109.5 L
343.394 106.639 L
344 100.916 L
344.606 95.766 L
345.212 86.61 L
345.818 84.893 L
346.424 105.494 L
347.03 106.639 L
347.636 109.5 L
348.242 109.5 L
348.849 100.916 L
349.455 102.633 L
350.061 102.061 L
350.667 97.483 L
351.273 108.928 L
351.879 102.061 L
352.485 92.905 L
353.091 106.639 L
353.697 95.766 L
354.303 104.35 L
354.909 82.604 L
355.515 74.592 L
356.121 102.061 L
356.727 88.899 L
357.333 104.922 L
357.939 98.055 L
358.546 109.5 L
359.152 94.621 L
359.758 102.061 L
360.364 104.922 L
360.97 93.477 L
361.576 106.639 L
362.182 109.5 L
362.788 109.5 L
363.394 109.5 L
364 100.916 L
364.606 95.766 L
365.212 102.633 L
365.818 90.616 L
366.424 93.477 L
367.03 84.893 L
367.636 70.587 L
368.242 75.165 L
368.849 86.038 L
369.455 87.754 L
370.061 95.766 L
370.667 109.5 L
371.273 107.783 L
371.879 103.777 L
372.485 100.916 L
373.091 106.639 L
373.697 98.055 L
374.303 98.055 L
374.909 100.344 L
375.515 109.5 L
376.121 106.639 L
376.727 96.91 L
377.333 99.199 L
377.939 109.5 L
378.546 97.483 L
379.152 76.309 L
379.758 98.055 L
380.364 95.194 L
380.97 98.055 L
381.576 84.893 L
382.182 92.332 L
382.788 103.205 L
383.394 102.633 L
384 109.5 L
384.606 106.639 L
385.212 98.627 L
385.818 109.5 L
386.424 98.055 L
387.03 100.344 L
387.636 99.772 L
388.242 109.5 L
388.849 96.338 L
389.455 98.055 L
390.061 103.205 L
390.667 95.766 L
391.273 99.199 L
391.879 87.182 L
392.485 78.026 L
393.091 55.708 L
393.697 80.315 L
394.303 84.893 L
394.909 88.327 L
395.515 98.055 L
396.121 94.049 L
396.727 100.916 L
397.333 109.5 L
397.939 109.5 L
398.545 91.76 L
399.152 106.639 L
399.758 96.91 L
400.364 104.922 L
400.97 109.5 L
401.576 97.483 L
402.182 103.777 L
402.788 100.344 L
403.394 107.783 L
404 91.76 L
404.606 99.199 L
405.212 90.043 L
405.818 90.043 L
406.424 107.783 L
407.03 96.91 L
407.636 108.928 L
408.242 85.465 L
408.849 106.639 L
409.455 103.777 L
410.061 104.922 L
410.667 106.639 L
411.273 109.5 L
411.879 109.5 L
412.485 94.049 L
413.091 108.928 L
413.697 108.928 L
414.303 109.5 L
414.909 97.483 L
415.515 86.61 L
416.121 106.639 L
416.727 76.882 L
417.333 107.783 L
417.939 109.5 L
418.546 102.633 L
419.152 109.5 L
419.758 97.483 L
420.364 109.5 L
420.97 100.916 L
421.576 109.5 L
422.182 100.916 L
422.788 109.5 L
423.394 109.5 L
424 104.35 L
424.606 104.35 L
425.212 98.055 L
425.818 104.35 L
426.424 84.321 L
427.03 99.199 L
427.636 93.477 L
428.242 109.5 L
428.849 104.35 L
429.455 105.494 L
430.061 99.199 L
430.667 109.5 L
431.273 108.928 L
431.879 96.338 L
432.485 90.616 L
433.091 103.777 L
433.697 87.754 L
434.303 101.488 L
434.909 99.199 L
435.515 100.344 L
436.121 91.188 L
436.727 94.621 L
437.333 92.332 L
437.939 88.899 L
438.546 88.327 L
439.152 80.887 L
439.758 80.315 L
440.364 76.882 L
440.97 70.014 L
441.576 56.28 L
442.182 56.853 L
442.788 69.442 L
443.394 74.592 L
444 80.315 L
444.606 84.321 L
445.212 84.893 L
445.818 87.754 L
446.424 91.188 L
447.03 93.477 L
447.636 92.905 L
448.242 93.477 L
448.849 109.5 L
449.455 93.477 L
450.061 103.777 L
450.667 91.188 L
451.273 96.91 L
451.879 100.916 L
452.485 109.5 L
453.091 91.188 L
453.697 90.616 L
454.303 64.292 L
454.909 76.882 L
455.515 84.893 L
456.121 88.327 L
456.727 90.043 L
457.333 92.905 L
457.939 94.621 L
458.545 91.76 L
459.152 95.766 L
459.758 99.199 L
460.364 95.194 L
460.97 103.777 L
461.576 95.194 L
462.182 92.332 L
462.788 91.188 L
463.394 93.477 L
464 85.465 L
464.606 99.772 L
465.212 103.205 L
465.818 103.205 L
466.424 95.194 L
467.03 109.5 L
467.636 97.483 L
468.242 102.633 L
468.849 94.049 L
469.455 94.621 L
470.061 86.61 L
470.667 93.477 L
471.273 91.188 L
471.879 99.772 L
472.485 107.783 L
473.091 104.922 L
473.697 109.5 L
474.303 98.055 L
474.909 102.633 L
475.515 92.905 L
476.121 93.477 L
476.727 83.176 L
477.333 109.5 L
477.939 96.91 L
478.545 104.35 L
479.152 94.049 L
479.758 82.032 L
480.364 92.905 L
480.97 95.766 L
481.576 98.055 L
482.182 94.049 L
482.788 98.627 L
483.394 102.061 L
484 88.327 L
484.606 92.332 L
485.212 90.616 L
485.818 94.049 L
486.424 93.477 L
487.03 94.621 L
487.636 90.616 L
488.242 109.5 L
488.848 102.633 L
489.455 91.188 L
490.061 85.465 L
490.667 67.153 L
491.273 109.5 L
491.879 87.182 L
492.485 86.038 L
493.091 94.049 L
493.697 102.061 L
494.303 97.483 L
494.909 92.905 L
495.515 98.627 L
496.121 93.477 L
496.727 95.194 L
497.333 91.76 L
497.939 95.766 L
498.546 93.477 L
499.152 89.471 L
499.758 89.471 L
500.364 88.327 L
500.97 86.61 L
501.576 83.749 L
502.182 78.598 L
502.788 70.014 L
503.394 47.697 L
504 74.592 L
504.606 83.749 L
505.212 84.893 L
505.818 83.749 L
506.424 102.633 L
507.03 94.049 L
507.636 96.91 L
508.242 104.35 L
508.849 100.916 L
509.455 104.35 L
510.061 104.922 L
510.667 104.922 L
511.273 109.5 L
511.879 109.5 L
512.485 109.5 L
513.091 105.494 L
513.697 108.928 L
514.303 108.928 L
514.909 109.5 L
515.515 100.916 L
516.121 106.639 L
516.727 104.922 L
517.333 79.743 L
517.939 109.5 L
518.545 94.621 L
519.152 109.5 L
519.758 109.5 L
520.364 105.494 L
520.97 109.5 L
521.576 99.199 L
522.182 109.5 L
522.788 98.627 L
523.394 108.928 L
524 92.905 L
524.606 92.332 L
525.212 109.5 L
525.818 102.633 L
526.424 109.5 L
527.03 102.633 L
527.636 100.916 L
528.242 93.477 L
528.849 100.916 L
529.455 100.916 L
530.061 98.055 L
530.667 102.633 L
531.273 109.5 L
531.879 100.916 L
532.485 96.91 L
533.091 102.061 L
533.697 99.772 L
534.303 100.916 L
534.909 109.5 L
535.515 95.194 L
536.121 109.5 L
536.727 109.5 L
537.333 105.494 L
537.939 109.5 L
538.545 100.344 L
539.151 90.043 L
539.758 76.309 L
540.364 92.332 L
540.97 80.315 L
541.576 96.91 L
542.182 100.916 L
542.788 99.199 L
543.394 107.783 L
544 100.916 L
544.606 107.783 L
545.212 103.777 L
545.818 109.5 L
546.424 102.061 L
547.03 103.777 L
547.636 99.772 L
548.242 91.76 L
548.849 96.91 L
549.455 103.205 L
550.061 96.91 L
550.667 84.893 L
551.273 90.043 L
551.879 82.032 L
552.485 80.887 L
553.091 90.043 L
553.697 109.5 L
554.303 98.055 L
554.909 99.199 L
555.515 106.639 L
556.121 108.928 L
556.727 109.5 L
557.333 103.777 L
557.939 99.199 L
558.545 102.633 L
559.152 100.344 L
559.758 109.5 L
560.364 96.338 L
560.97 109.5 L
561.576 102.061 L
562.182 99.772 L
562.788 103.205 L
563.394 106.639 L
564 109.5 L
564.606 95.766 L
565.212 95.194 L
565.818 100.916 L
566.424 88.899 L
567.03 96.338 L
567.636 90.616 L
568.242 104.35 L
568.849 102.061 L
569.455 104.922 L
570.061 106.639 L
570.667 108.928 L
571.273 103.205 L
571.879 106.639 L
572.485 99.772 L
573.091 95.766 L
573.697 108.928 L
574.303 102.061 L
574.909 102.633 L
575.515 106.639 L
576.121 93.477 L
576.727 94.621 L
577.333 59.714 L
577.939 104.35 L
578.545 83.176 L
579.152 96.338 L
579.758 108.928 L
580.364 109.5 L
580.97 106.639 L
581.576 95.766 L
582.182 107.783 L
582.788 103.777 L
583.394 108.928 L
584 98.055 L
584.606 109.5 L
585.212 109.5 L
585.818 90.616 L
586.424 96.91 L
587.03 109.5 L
587.636 96.91 L
588.242 91.188 L
588.849 90.616 L
589.455 92.332 L
590.061 85.465 L
590.667 95.766 L
591.273 108.928 L
591.879 109.5 L
592.485 108.928 L
593.091 104.922 L
593.697 102.633 L
594.303 98.627 L
594.909 109.5 L
595.515 99.199 L
596.121 109.5 L
596.727 104.922 L
597.333 107.783 L
597.939 109.5 L
598.545 109.5 L
599.151 96.338 L
599.758 96.338 L
600.364 88.899 L
600.97 70.014 L
601.576 93.477 L
602.182 94.621 L
602.788 104.922 L
603.394 101.488 L
604 103.777 L
604.606 106.639 L
605.212 109.5 L
605.818 109.5 L
606.424 109.5 L
607.03 106.639 L
607.636 99.199 L
608.242 109.5 L
608.849 109.5 L
609.455 109.5 L
610.061 105.494 L
610.667 104.35 L
611.273 103.205 L
611.879 92.905 L
612.485 87.754 L
613.091 95.194 L
613.697 103.777 L
614.303 93.477 L
614.909 72.876 L
615.515 95.194 L
616.121 107.783 L
616.727 103.205 L
617.333 109.5 L
617.939 107.783 L
618.545 102.633 L
619.152 94.049 L
619.758 106.639 L
620.364 100.916 L
620.97 102.061 L
621.576 95.194 L
622.182 92.905 L
622.788 88.899 L
623.394 86.61 L
624 84.321 L
624.606 80.887 L
625.212 72.876 L
625.818 61.431 L
626.424 56.853 L
627.03 71.159 L
627.636 78.026 L
628.242 80.315 L
628.849 85.465 L
629.455 84.321 L
630.061 87.182 L
630.667 87.754 L
631.273 91.76 L
631.879 92.332 L
632.485 90.616 L
633.091 100.916 L
633.697 87.754 L
634.303 87.754 L
634.909 87.182 L
635.515 91.76 L
636.121 86.038 L
636.727 87.754 L
637.333 79.743 L
637.939 76.309 L
638.545 59.142 L
639.152 68.87 L
639.758 83.176 L
640.364 89.471 L
640.97 95.194 L
641.576 87.754 L
642.182 96.91 L
642.788 104.35 L
643.394 98.055 L
644 100.916 L
644.606 102.061 L
645.212 102.633 L
645.818 109.5 L
646.424 100.916 L
647.03 107.783 L
647.636 100.344 L
648.242 91.188 L
648.849 89.471 L
649.455 101.488 L
650.061 97.483 L
650.667 106.639 L
651.273 96.91 L
651.879 109.5 L
652.485 99.772 L
653.091 99.199 L
653.697 108.928 L
654.303 109.5 L
654.909 109.5 L
655.515 109.5 L
656.121 100.344 L
656.727 100.916 L
657.333 109.5 L
657.939 106.639 L
658.545 109.5 L
659.151 109.5 L
659.758 94.621 L
660.364 108.928 L
660.97 100.916 L
661.576 100.344 L
662.182 102.061 L
662.788 92.905 L
663.394 100.916 L
664 88.899 L
664.606 100.916 L
665.212 109.5 L
665.818 102.633 L
666.424 100.344 L
667.03 96.338 L
667.636 106.639 L
668.242 109.5 L
668.849 108.928 L
669.455 94.621 L
670.061 106.639 L
670.667 107.783 L
671.273 102.061 L
671.879 105.494 L
672.485 99.199 L
673.091 98.627 L
673.697 109.5 L
674.303 97.483 L
674.909 90.043 L
675.515 107.783 L
676.121 83.749 L
676.727 79.743 L
677.333 91.188 L
677.939 95.194 L
678.545 103.205 L
679.151 99.199 L
679.758 108.928 L
680.364 103.777 L
680.97 109.5 L
681.576 98.055 L
682.182 94.621 L
682.788 96.338 L
683.394 102.633 L
684 95.766 L
684.606 95.194 L
685.212 102.061 L
685.818 95.766 L
686.424 88.899 L
687.03 104.922 L
687.636 71.159 L
688.242 107.783 L
688.848 102.633 L
689.455 106.639 L
690.061 104.35 L
690.667 100.344 L
691.273 109.5 L
691.879 89.471 L
692.485 106.639 L
693.091 109.5 L
693.697 106.639 L
694.303 106.639 L
694.909 109.5 L
695.515 102.061 L
696.121 100.916 L
696.727 100.916 L
697.333 96.91 L
697.939 99.199 L
698.545 87.754 L
699.152 92.905 L
699.758 109.5 L
700.364 96.338 L
700.97 109.5 L
701.576 93.477 L
702.182 94.621 L
702.788 106.639 L
703.394 107.783 L
704 109.5 L
704.606 105.494 L
705.212 109.5 L
705.818 96.91 L
706.424 109.5 L
707.03 104.922 L
707.636 104.35 L
708.242 99.199 L
708.849 100.916 L
709.455 109.5 L
710.061 85.465 L
710.667 99.199 L
711.273 109.5 L
711.879 92.905 L
712.485 92.332 L
713.091 99.199 L
713.697 106.639 L
714.303 102.633 L
714.909 107.783 L
715.515 106.639 L
716.121 98.627 L
716.727 102.633 L
717.333 100.916 L
717.939 103.777 L
718.545 109.5 L
719.151 109.5 L
719.758 95.766 L
720.364 109.5 L
720.97 104.35 L
721.576 96.338 L
722.182 104.35 L
722.788 94.621 L
723.394 95.194 L
724 72.303 L
S
GR
GS
[1 0 0 1 134.90915 33.39017] CT
1 0 0 RC
10.0 ML
0.5 LW
N
2.5 -0.5 M
2.5 -2.157 1.157 -3.5 -0.5 -3.5 C
-2.157 -3.5 -3.5 -2.157 -3.5 -0.5 C
-3.5 1.157 -2.157 2.5 -0.5 2.5 C
1.157 2.5 2.5 1.157 2.5 -0.5 C
S
GR
GS
[1 0 0 1 196.12126 88.89884] CT
1 0 0 RC
10.0 ML
0.5 LW
N
2.5 -0.5 M
2.5 -2.157 1.157 -3.5 -0.5 -3.5 C
-2.157 -3.5 -3.5 -2.157 -3.5 -0.5 C
-3.5 1.157 -2.157 2.5 -0.5 2.5 C
1.157 2.5 2.5 1.157 2.5 -0.5 C
S
GR
GS
[1 0 0 1 257.33337 109.5] CT
1 0 0 RC
10.0 ML
0.5 LW
N
2.5 -0.5 M
2.5 -2.157 1.157 -3.5 -0.5 -3.5 C
-2.157 -3.5 -3.5 -2.157 -3.5 -0.5 C
-3.5 1.157 -2.157 2.5 -0.5 2.5 C
1.157 2.5 2.5 1.157 2.5 -0.5 C
S
GR
GS
[1 0 0 1 319.15155 105.49422] CT
1 0 0 RC
10.0 ML
0.5 LW
N
2.5 -0.5 M
2.5 -2.157 1.157 -3.5 -0.5 -3.5 C
-2.157 -3.5 -3.5 -2.157 -3.5 -0.5 C
-3.5 1.157 -2.157 2.5 -0.5 2.5 C
1.157 2.5 2.5 1.157 2.5 -0.5 C
S
GR
GS
[1 0 0 1 380.36368 95.19364] CT
1 0 0 RC
10.0 ML
0.5 LW
N
2.5 -0.5 M
2.5 -2.157 1.157 -3.5 -0.5 -3.5 C
-2.157 -3.5 -3.5 -2.157 -3.5 -0.5 C
-3.5 1.157 -2.157 2.5 -0.5 2.5 C
1.157 2.5 2.5 1.157 2.5 -0.5 C
S
GR
GS
[1 0 0 1 442.18185 56.8526] CT
1 0 0 RC
10.0 ML
0.5 LW
N
2.5 -0.5 M
2.5 -2.157 1.157 -3.5 -0.5 -3.5 C
-2.157 -3.5 -3.5 -2.157 -3.5 -0.5 C
-3.5 1.157 -2.157 2.5 -0.5 2.5 C
1.157 2.5 2.5 1.157 2.5 -0.5 C
S
GR
GS
[1 0 0 1 503.39398 47.69653] CT
1 0 0 RC
10.0 ML
0.5 LW
N
2.5 -0.5 M
2.5 -2.157 1.157 -3.5 -0.5 -3.5 C
-2.157 -3.5 -3.5 -2.157 -3.5 -0.5 C
-3.5 1.157 -2.157 2.5 -0.5 2.5 C
1.157 2.5 2.5 1.157 2.5 -0.5 C
S
GR
GS
[1 0 0 1 564.60608 95.76589] CT
1 0 0 RC
10.0 ML
0.5 LW
N
2.5 -0.5 M
2.5 -2.157 1.157 -3.5 -0.5 -3.5 C
-2.157 -3.5 -3.5 -2.157 -3.5 -0.5 C
-3.5 1.157 -2.157 2.5 -0.5 2.5 C
1.157 2.5 2.5 1.157 2.5 -0.5 C
S
GR
GS
[1 0 0 1 626.42426 56.8526] CT
1 0 0 RC
10.0 ML
0.5 LW
N
2.5 -0.5 M
2.5 -2.157 1.157 -3.5 -0.5 -3.5 C
-2.157 -3.5 -3.5 -2.157 -3.5 -0.5 C
-3.5 1.157 -2.157 2.5 -0.5 2.5 C
1.157 2.5 2.5 1.157 2.5 -0.5 C
S
GR
GS
[1 0 0 1 687.63635 71.15896] CT
1 0 0 RC
10.0 ML
0.5 LW
N
2.5 -0.5 M
2.5 -2.157 1.157 -3.5 -0.5 -3.5 C
-2.157 -3.5 -3.5 -2.157 -3.5 -0.5 C
-3.5 1.157 -2.157 2.5 -0.5 2.5 C
1.157 2.5 2.5 1.157 2.5 -0.5 C
S
GR
GS
[1 0 0 1 724 72.30347] CT
1 0 0 RC
10.0 ML
0.5 LW
N
2.5 -0.5 M
2.5 -2.157 1.157 -3.5 -0.5 -3.5 C
-2.157 -3.5 -3.5 -2.157 -3.5 -0.5 C
-3.5 1.157 -2.157 2.5 -0.5 2.5 C
1.157 2.5 2.5 1.157 2.5 -0.5 C
S
GR
%%Trailer
%%Pages: 1
%%EOF
